%!PS-Adobe-3.0 EPSF-3.0
%%For: imh
%%Title: PGPLOT PostScript plot
%%Creator: PGPLOT [PSDRIV 6.6]
%%CreationDate:  9-Jul-2017 12:49
%%BoundingBox: (atend)
%%DocumentFonts: (atend)
%%LanguageLevel: 1
%%Orientation: Landscape
%%Pages: (atend)
%%EndComments
%%BeginProlog
/L {moveto rlineto currentpoint stroke moveto} bind def
/C {rlineto currentpoint stroke moveto} bind def
/D {moveto 0 0 rlineto currentpoint stroke moveto} bind def
/LW {5 mul setlinewidth} bind def
/BP {newpath moveto} bind def
/LP /rlineto load def
/EP {rlineto closepath eofill} bind def
/MB {gsave translate MFAC dup scale 1 setlinewidth 2 setlinecap 0 setlinejoin newpath} bind def
/ME /grestore load def
/CC {0 360 arc stroke} bind def
/FC {0 360 arc fill} bind def
/G {1024 div setgray} bind def
/K {3 -1 roll 1024 div 3 -1 roll 1024 div 3 -1 roll 1024 div setrgbcolor} bind def
% Uncomment next line to convert color to grey shades
%/K {3 -1 roll 3413 div 3 -1 roll 1739 div 3 -1 roll 9309 div add add setgray} bind def
%%EndProlog
%%BeginSetup
/#copies 1 def
%%EndSetup
 
%%Page: 1 1
%%BeginPageSetup
/PGPLOT save def
0.072 0.072 scale
8149 250 translate 90 rotate
1 setlinejoin 1 setlinecap 1 LW 1
%%EndPageSetup
%%PageBoundingBox: (atend)
0 0 0 K 3 LW 8399 0 1575 3510 L 0 3899 C -8399 0 C 0 -3899 C 0 67 1634 3510 L 0 135 2225 3510 L 0 67 2817 3510 L 0 135 3408 3510 L
0 67 4000 3510 L 0 135 4591 3510 L 0 67 5183 3510 L 0 135 5774 3510 L 0 67 6366 3510 L 0 135 6957 3510 L 0 67 7549 3510 L
0 135 8140 3510 L 0 67 8732 3510 L 0 135 9323 3510 L 0 67 9915 3510 L 0 67 1634 7342 L 0 135 2225 7274 L 0 67 2817 7342 L
0 135 3408 7274 L 0 67 4000 7342 L 0 135 4591 7274 L 0 67 5183 7342 L 0 135 5774 7274 L 0 67 6366 7342 L 0 135 6957 7274 L
0 67 7549 7342 L 0 135 8140 7274 L 0 67 8732 7342 L 0 135 9323 7274 L 0 67 9915 7342 L 135 0 1575 3510 L 67 0 1575 3935 L
135 0 1575 4360 L 67 0 1575 4785 L 135 0 1575 5210 L 67 0 1575 5635 L 135 0 1575 6060 L 67 0 1575 6485 L 135 0 1575 6910 L
67 0 1575 7335 L 135 0 9839 3510 L 67 0 9907 3935 L 135 0 9839 4360 L 67 0 9907 4785 L 135 0 9839 5210 L 67 0 9907 5635 L
135 0 9839 6060 L 67 0 9907 6485 L 135 0 9839 6910 L 67 0 9907 7335 L 9 -27 1181 3501 L 27 -18 C 45 -9 C 27 0 C 45 9 C 27 18 C
9 27 C 0 18 C -9 27 C -27 18 C -45 9 C -27 0 C -45 -9 C -27 -18 C -9 -27 C 0 -18 C -9 0 1226 4126 L -18 9 C -9 9 C -9 18 C 0 36 C
9 18 C 9 9 C 18 9 C 18 0 C 18 -9 C 27 -18 C 90 -90 C 0 126 C 9 -27 1181 4351 L 27 -18 C 45 -9 C 27 0 C 45 9 C 27 18 C 9 27 C 0 18 C
-9 27 C -27 18 C -45 9 C -27 0 C -45 -9 C -27 -18 C -9 -27 C 0 -18 C 9 -27 1181 4531 L 27 -18 C 45 -9 C 27 0 C 45 9 C 27 18 C 9 27 C
0 18 C -9 27 C -27 18 C -45 9 C -27 0 C -45 -9 C -27 -18 C -9 -27 C 0 -18 C 126 -90 1181 5057 L 0 135 C 189 0 1181 5057 L
9 -27 1181 5201 L 27 -18 C 45 -9 C 27 0 C 45 9 C 27 18 C 9 27 C 0 18 C -9 27 C -27 18 C -45 9 C -27 0 C -45 -9 C -27 -18 C -9 -27 C
0 -18 C 9 -27 1181 5381 L 27 -18 C 45 -9 C 27 0 C 45 9 C 27 18 C 9 27 C 0 18 C -9 27 C -27 18 C -45 9 C -27 0 C -45 -9 C -27 -18 C
-9 -27 C 0 -18 C -18 -9 1208 5934 L -9 -27 C 0 -18 C 9 -27 C 27 -18 C 45 -9 C 45 0 C 36 9 C 18 18 C 9 27 C 0 9 C -9 27 C -18 18 C
-27 9 C -9 0 C -27 -9 C -18 -18 C -9 -27 C 0 -9 C 9 -27 C 18 -18 C 27 -9 C 9 -27 1181 6051 L 27 -18 C 45 -9 C 27 0 C 45 9 C 27 18 C
9 27 C 0 18 C -9 27 C -27 18 C -45 9 C -27 0 C -45 -9 C -27 -18 C -9 -27 C 0 -18 C 9 -27 1181 6231 L 27 -18 C 45 -9 C 27 0 C 45 9 C
27 18 C 9 27 C 0 18 C -9 27 C -27 18 C -45 9 C -27 0 C -45 -9 C -27 -18 C -9 -27 C 0 -18 C 9 -27 1181 6712 L 18 -9 C 18 0 C 18 9 C
9 18 C 9 36 C 9 27 C 18 18 C 18 9 C 27 0 C 18 -9 C 9 -9 C 9 -27 C 0 -36 C -9 -27 C -9 -9 C -18 -9 C -27 0 C -18 9 C -18 18 C -9 27 C
-9 36 C -9 18 C -18 9 C -18 0 C -18 -9 C -9 -27 C 0 -36 C 9 -27 1181 6901 L 27 -18 C 45 -9 C 27 0 C 45 9 C 27 18 C 9 27 C 0 18 C
-9 27 C -27 18 C -45 9 C -27 0 C -45 -9 C -27 -18 C -9 -27 C 0 -18 C 9 -27 1181 7081 L 27 -18 C 45 -9 C 27 0 C 45 9 C 27 18 C 9 27 C
0 18 C -9 27 C -27 18 C -45 9 C -27 0 C -45 -9 C -27 -18 C -9 -27 C 0 -18 C
189 0 742 3956 L -18 -18 832 3956 L -9 -18 C 0 -26 C 9 -18 C 18 -18 C 27 -9 C 18 0 C 27 9 C 18 18 C 9 18 C 0 26 C -9 18 C -18 18 C
126 0 805 4127 L -18 -18 832 4127 L -9 -18 C 0 -27 C 9 -18 C 18 -18 C 27 -9 C 18 0 C 27 9 C 18 18 C 9 18 C 0 27 C -9 18 C -18 18 C
153 0 742 4208 L 27 9 C 9 18 C 0 18 C 0 63 805 4181 L 126 0 805 4406 L -18 -18 832 4406 L -9 -18 C 0 -27 C 9 -18 C 18 -18 C 27 -9 C
18 0 C 27 9 C 18 18 C 9 18 C 0 27 C -9 18 C -18 18 C 18 -18 706 4685 L 27 -18 C 36 -18 C 45 -9 C 36 0 C 45 9 C 36 18 C 27 18 C
18 18 C 126 0 787 4775 L 0 126 850 4712 L 18 18 706 4865 L 27 18 C 36 18 C 45 9 C 36 0 C 45 -9 C 36 -18 C 27 -18 C 18 -18 C
126 0 805 5243 L -18 -18 832 5243 L -9 -18 C 0 -27 C 9 -18 C 18 -18 C 27 -9 C 18 0 C 27 9 C 18 18 C 9 18 C 0 27 C -9 18 C -18 18 C
126 0 805 5315 L -27 27 841 5315 L -9 18 C 0 27 C 9 18 C 27 9 C 90 0 C 189 0 742 5585 L -18 -18 832 5585 L -9 -18 C 0 -27 C 9 -18 C
18 -18 C 27 -9 C 18 0 C 27 9 C 18 18 C 9 18 C 0 27 C -9 18 C -18 18 C 126 0 805 5801 L -27 27 841 5801 L -9 18 C 0 27 C 9 18 C
27 9 C 90 0 C -27 27 841 5900 L -9 18 C 0 27 C 9 18 C 27 9 C 90 0 C 9 -18 805 6107 L 18 -18 C 27 -9 C 18 0 C 27 9 C 18 18 C 9 18 C
0 27 C -9 18 C -18 18 C -27 9 C -18 0 C -27 -9 C -18 -18 C -9 -18 C 0 -27 C 189 0 742 6341 L -18 -18 832 6341 L -9 -18 C 0 -27 C
9 -18 C 18 -18 C 27 -9 C 18 0 C 27 9 C 18 18 C 9 18 C 0 27 C -9 18 C -18 18 C 0 108 859 6404 L -18 0 C -18 -9 C -9 -9 C -9 -18 C
0 -27 C 9 -18 C 18 -18 C 27 -9 C 18 0 C 27 9 C 18 18 C 9 18 C 0 27 C -9 18 C -18 18 C 189 0 742 6575 L 18 -18 706 6854 L 27 -18 C
36 -18 C 45 -9 C 36 0 C 45 9 C 36 18 C 27 18 C 18 18 C 108 0 796 6926 L 54 90 823 6881 L 54 -90 823 6971 L 18 18 706 6998 L 27 18 C
36 18 C 45 9 C 36 0 C 45 -9 C 36 -18 C 27 -18 C 18 -18 C
-90 0 7790 3990 L -18 -9 C -18 -18 C -9 -27 C 0 -27 C 9 -27 C 9 -9 C 18 -9 C 18 0 C 18 9 C 18 18 C 9 27 C 0 27 C -9 27 C -9 9 C
-18 9 C 0 -189 7988 4053 L 108 0 C 108 0 8132 3936 L 0 18 C -9 18 C -9 9 C -18 9 C -27 0 C -18 -9 C -18 -18 C -9 -27 C 0 -18 C
9 -27 C 18 -18 C 18 -9 C 27 0 C 18 9 C 18 18 C -18 -9 8339 3990 L -18 -18 C -9 -27 C 0 -18 C 9 -27 C 18 -18 C 18 -9 C 27 0 C 18 9 C
18 18 C 9 27 C 0 18 C -9 27 C -18 18 C -18 9 C -27 0 C 0 -189 8618 4053 L 81 0 8618 4053 L 27 -9 C 9 -9 C 9 -18 C 0 -18 C -9 -18 C
-9 -9 C -27 -9 C 81 0 8618 3963 L 27 -9 C 9 -9 C 9 -18 C 0 -27 C -9 -18 C -9 -9 C -27 -9 C -81 0 C -9 -27 8915 3990 L -18 -18 C
-27 -9 C -9 0 C -27 9 C -18 18 C -9 27 C 0 9 C 9 27 C 18 18 C 27 9 C 9 0 C 27 -9 C 18 -18 C 9 -36 C 0 -45 C -9 -45 C -18 -27 C
-27 -9 C -18 0 C -27 9 C -9 18 C -9 -9 8996 3882 L 9 -9 C 9 9 C -9 9 C -90 0 9176 4053 L -9 -81 C 9 9 C 27 9 C 27 0 C 27 -9 C
18 -18 C 9 -27 C 0 -18 C -9 -27 C -18 -18 C -27 -9 C -27 0 C -27 9 C -9 9 C -9 18 C 72 -189 9230 4053 L -72 -189 9374 4053 L
0 0 1024 K 60 0 2515 5482 L 0 436 2545 5482 L 60 0 2515 5918 L
-521 0 2545 5700 L
651 0 2545 5700 L
/M3 {MB 0 6 moveto 0 -6 lineto -5 3 moveto 5 -3 lineto                          
5 3 moveto -5 -3 lineto stroke ME} bind def                                     
/MFAC      8.999 def    
2545 6480 M3
0 1024 0 K 61 0 3567 6295 L 0 468 3598 6295 L 61 0 3567 6763 L
-308 0 3598 6529 L
721 0 3598 6529 L
3598 6717 M3
1024 0 0 K 60 0 4526 6981 L 0 147 4556 6981 L 60 0 4526 7128 L
-319 0 4556 7055 L
1136 0 4556 7055 L
4556 7055 M3
558 276 76 K 61 0 7223 3510 L 0 0 7253 3510 L 61 0 7223 3510 L
-1124 0 7253 3510 L
2461 0 7253 3510 L
7253 6815 M3
0 0 0 K 8399 0 1575 1170 L 0 2340 C -8399 0 C 0 -2340 C 0 67 1634 1170 L 0 135 2225 1170 L 0 67 2817 1170 L 0 135 3408 1170 L
0 67 4000 1170 L 0 135 4591 1170 L 0 67 5183 1170 L 0 135 5774 1170 L 0 67 6366 1170 L 0 135 6957 1170 L 0 67 7549 1170 L
0 135 8140 1170 L 0 67 8732 1170 L 0 135 9323 1170 L 0 67 9915 1170 L 0 68 1634 3442 L 0 135 2225 3375 L 0 68 2817 3442 L
0 135 3408 3375 L 0 68 4000 3442 L 0 135 4591 3375 L 0 68 5183 3442 L 0 135 5774 3375 L 0 68 6366 3442 L 0 135 6957 3375 L
0 68 7549 3442 L 0 135 8140 3375 L 0 68 8732 3442 L 0 135 9323 3375 L 0 68 9915 3442 L -90 -126 2073 1008 L 135 0 C
0 -189 2073 1008 L -27 -9 2216 1008 L -18 -27 C -8 -45 C 0 -27 C 8 -45 C 18 -27 C 27 -9 C 18 0 C 27 9 C 18 27 C 9 45 C 0 27 C
-9 45 C -18 27 C -27 9 C -18 0 C -27 -9 2396 1008 L -18 -27 C -9 -45 C 0 -27 C 9 -45 C 18 -27 C 27 -9 C 18 0 C 27 9 C 18 27 C 9 45 C
0 27 C -9 45 C -18 27 C -27 9 C -18 0 C -89 0 3273 1008 L -9 -81 C 9 9 C 27 9 C 27 0 C 26 -9 C 18 -18 C 9 -27 C 0 -18 C -9 -27 C
-18 -18 C -26 -9 C -27 0 C -27 9 C -9 9 C -9 18 C -27 -9 3399 1008 L -18 -27 C -9 -45 C 0 -27 C 9 -45 C 18 -27 C 27 -9 C 18 0 C
27 9 C 18 27 C 9 45 C 0 27 C -9 45 C -18 27 C -27 9 C -18 0 C -27 -9 3579 1008 L -18 -27 C -9 -45 C 0 -27 C 9 -45 C 18 -27 C 27 -9 C
18 0 C 27 9 C 18 27 C 9 45 C 0 27 C -9 45 C -18 27 C -27 9 C -18 0 C -9 18 4465 981 L -27 9 C -18 0 C -27 -9 C -18 -27 C -9 -45 C
0 -45 C 9 -36 C 18 -18 C 27 -9 C 9 0 C 27 9 C 18 18 C 9 27 C 0 9 C -9 27 C -18 18 C -27 9 C -9 0 C -27 -9 C -18 -18 C -9 -27 C
-27 -9 4582 1008 L -18 -27 C -9 -45 C 0 -27 C 9 -45 C 18 -27 C 27 -9 C 18 0 C 27 9 C 18 27 C 9 45 C 0 27 C -9 45 C -18 27 C -27 9 C
-18 0 C -27 -9 4762 1008 L -18 -27 C -9 -45 C 0 -27 C 9 -45 C 18 -27 C 27 -9 C 18 0 C 27 9 C 18 27 C 9 45 C 0 27 C -9 45 C -18 27 C
-27 9 C -18 0 C -90 -189 5657 1008 L 126 0 5531 1008 L -27 -9 5765 1008 L -18 -27 C -9 -45 C 0 -27 C 9 -45 C 18 -27 C 27 -9 C 18 0 C
27 9 C 18 27 C 9 45 C 0 27 C -9 45 C -18 27 C -27 9 C -18 0 C -27 -9 5945 1008 L -18 -27 C -9 -45 C 0 -27 C 9 -45 C 18 -27 C 27 -9 C
18 0 C 27 9 C 18 27 C 9 45 C 0 27 C -9 45 C -18 27 C -27 9 C -18 0 C -27 -9 6759 1008 L -9 -18 C 0 -18 C 9 -18 C 18 -9 C 36 -9 C
27 -9 C 18 -18 C 9 -18 C 0 -27 C -9 -18 C -9 -9 C -27 -9 C -36 0 C -27 9 C -9 9 C -9 18 C 0 27 C 9 18 C 18 18 C 27 9 C 36 9 C 18 9 C
9 18 C 0 18 C -9 18 C -27 9 C -36 0 C -27 -9 6948 1008 L -18 -27 C -9 -45 C 0 -27 C 9 -45 C 18 -27 C 27 -9 C 18 0 C 27 9 C 18 27 C
9 45 C 0 27 C -9 45 C -18 27 C -27 9 C -18 0 C -27 -9 7128 1008 L -18 -27 C -9 -45 C 0 -27 C 9 -45 C 18 -27 C 27 -9 C 18 0 C 27 9 C
18 27 C 9 45 C 0 27 C -9 45 C -18 27 C -27 9 C -18 0 C -9 -27 8014 945 L -18 -18 C -27 -9 C -9 0 C -27 9 C -18 18 C -9 27 C 0 9 C
9 27 C 18 18 C 27 9 C 9 0 C 27 -9 C 18 -18 C 9 -36 C 0 -45 C -9 -45 C -18 -27 C -27 -9 C -18 0 C -27 9 C -9 18 C -27 -9 8131 1008 L
-18 -27 C -9 -45 C 0 -27 C 9 -45 C 18 -27 C 27 -9 C 18 0 C 27 9 C 18 27 C 9 45 C 0 27 C -9 45 C -18 27 C -27 9 C -18 0 C
-27 -9 8311 1008 L -18 -27 C -9 -45 C 0 -27 C 9 -45 C 18 -27 C 27 -9 C 18 0 C 27 9 C 18 27 C 9 45 C 0 27 C -9 45 C -18 27 C -27 9 C
-18 0 C 18 9 9017 972 L 27 27 C 0 -189 C -27 -9 9224 1008 L -18 -27 C -9 -45 C 0 -27 C 9 -45 C 18 -27 C 27 -9 C 18 0 C 27 9 C
18 27 C 9 45 C 0 27 C -9 45 C -18 27 C -27 9 C -18 0 C -27 -9 9404 1008 L -18 -27 C -9 -45 C 0 -27 C 9 -45 C 18 -27 C 27 -9 C 18 0 C
27 9 C 18 27 C 9 45 C 0 27 C -9 45 C -18 27 C -27 9 C -18 0 C -27 -9 9584 1008 L -18 -27 C -9 -45 C 0 -27 C 9 -45 C 18 -27 C 27 -9 C
18 0 C 27 9 C 18 27 C 9 45 C 0 27 C -9 45 C -18 27 C -27 9 C -18 0 C 135 0 1575 1170 L 67 0 1575 1560 L 67 0 1575 1950 L
67 0 1575 2340 L 67 0 1575 2730 L 135 0 1575 3120 L 67 0 1575 3510 L 135 0 9839 1170 L 67 0 9907 1560 L 67 0 9907 1950 L
67 0 9907 2340 L 67 0 9907 2730 L 135 0 9839 3120 L 67 0 9907 3510 L -27 -9 10260 1271 L -18 -27 C -9 -45 C 0 -27 C 9 -45 C 18 -27 C
27 -9 C 18 0 C 27 9 C 18 27 C 9 45 C 0 27 C -9 45 C -18 27 C -27 9 C -18 0 C 18 9 10233 3185 L 27 27 C 0 -189 C
36 -126 4618 360 L -36 -126 4690 360 L 36 -126 4690 360 L -36 -126 4762 360 L 0 -126 4924 360 L -18 18 4924 333 L -18 9 C -27 0 C
-18 -9 C -18 -18 C -9 -27 C 0 -18 C 9 -27 C 18 -18 C 18 -9 C 27 0 C 18 9 C 18 18 C 54 -126 4978 360 L -54 -126 5086 360 L
108 0 5131 306 L 0 18 C -9 18 C -9 9 C -18 9 C -27 0 C -18 -9 C -18 -18 C -9 -27 C 0 -18 C 9 -27 C 18 -18 C 18 -9 C 27 0 C 18 9 C
18 18 C 0 -189 5302 423 L 108 0 5365 306 L 0 18 C -9 18 C -9 9 C -18 9 C -27 0 C -18 -9 C -18 -18 C -9 -27 C 0 -18 C 9 -27 C
18 -18 C 18 -9 C 27 0 C 18 9 C 18 18 C 0 -126 5536 360 L 27 27 5536 324 L 18 9 C 27 0 C 18 -9 C 9 -27 C 0 -90 C 0 -144 5806 360 L
-9 -27 C -9 -9 C -18 -9 C -27 0 C -18 9 C -18 18 5806 333 L -18 9 C -27 0 C -18 -9 C -18 -18 C -9 -27 C 0 -18 C 9 -27 C 18 -18 C
18 -9 C 27 0 C 18 9 C 18 18 C 0 -153 5887 423 L 9 -27 C 18 -9 C 18 0 C 63 0 5860 360 L 0 -189 5986 423 L 27 27 5986 324 L 18 9 C
27 0 C 18 -9 C 9 -27 C 0 -90 C -18 -18 6364 459 L -18 -27 C -18 -36 C -9 -45 C 0 -36 C 9 -45 C 18 -36 C 18 -27 C 18 -18 C
0 -126 6427 360 L 27 27 6427 324 L 18 9 C 27 0 C 18 -9 C 9 -27 C 0 -90 C 0 -126 6598 360 L 27 27 6598 324 L 18 9 C 27 0 C 18 -9 C
9 -27 C 0 -90 C 27 27 6697 324 L 18 9 C 27 0 C 18 -9 C 9 -27 C 0 -90 C 18 -18 6859 459 L 18 -27 C 18 -36 C 9 -45 C 0 -36 C -9 -45 C
-18 -36 C -18 -27 C -18 -18 C 126 0 805 1876 L -27 27 841 1876 L -9 18 C 0 27 C 9 18 C 27 9 C 90 0 C -27 27 841 1975 L -9 18 C
0 27 C 9 18 C 27 9 C 90 0 C 9 -18 805 2182 L 18 -18 C 27 -9 C 18 0 C 27 9 C 18 18 C 9 18 C 0 27 C -9 18 C -18 18 C -27 9 C -18 0 C
-27 -9 C -18 -18 C -9 -18 C 0 -27 C 189 0 742 2416 L -18 -18 832 2416 L -9 -18 C 0 -27 C 9 -18 C 18 -18 C 27 -9 C 18 0 C 27 9 C
18 18 C 9 18 C 0 27 C -9 18 C -18 18 C 0 108 859 2479 L -18 0 C -18 -9 C -9 -9 C -9 -18 C 0 -27 C 9 -18 C 18 -18 C 27 -9 C 18 0 C
27 9 C 18 18 C 9 18 C 0 27 C -9 18 C -18 18 C 189 0 742 2650 L -18 -9 832 2812 L -9 -27 C 0 -27 C 9 -27 C 18 -9 C 18 9 C 9 18 C
9 45 C 9 18 C 18 9 C 9 0 C 18 -9 C 9 -27 C 0 -27 C -9 -27 C -18 -9 C
558 276 76 K -4 -4 9961 1174 L -5 -6 9852 1176 L -8 -8 9744 1178 L -10 -10 9636 1180 L -13 -13 9529 1183 L -17 -16 9422 1186 L
-20 -20 9315 1190 L -23 -23 9208 1193 L -28 -27 9102 1197 L -32 -31 8996 1201 L -36 -36 8890 1206 L -40 -40 8784 1210 L
-45 -44 8678 1214 L -49 -49 8572 1219 L -53 -53 8466 1223 L -58 -57 8360 1227 L -62 -61 8254 1231 L -65 -65 8147 1235 L
-69 -70 8041 1240 L -74 -74 7935 1244 L -78 -78 7829 1248 L -82 -82 7723 1252 L -88 -87 7618 1257 L -92 -92 7512 1262 L
-96 -96 7406 1266 L -102 -101 7301 1271 L -107 -106 7196 1276 L -112 -112 7091 1282 L -116 -117 6985 1287 L -123 -122 6881 1292 L
-127 -127 6775 1297 L -131 -132 6669 1302 L -136 -135 6563 1305 L -136 -136 6453 1306 L -131 -131 6338 1301 L -112 -112 6209 1282 L
-58 -58 6044 1228 L -8 -8 5884 1178 L 0 0 5766 1170 L 0 0 5324 1170 L 0 0 5104 1170 L 0 0 4994 1170 L 0 0 4883 1170 L
0 0 4773 1170 L 0 0 4663 1170 L 0 0 4552 1170 L 0 0 4442 1170 L 0 0 4111 1170 L 0 0 4001 1170 L 0 0 3891 1170 L 0 0 3780 1170 L
0 0 3670 1170 L 0 0 3560 1170 L 0 0 3449 1170 L 0 0 3339 1170 L 0 0 3229 1170 L 0 0 3119 1170 L 0 0 3008 1170 L 0 0 2898 1170 L
0 0 2788 1170 L 0 0 2677 1170 L 0 0 2567 1170 L 0 0 2457 1170 L 0 0 2347 1170 L 0 0 2236 1170 L 0 0 2126 1170 L 0 0 2016 1170 L
1024 0 0 K 0 0 9957 1170 L 0 0 9847 1170 L 0 0 9736 1170 L 0 0 9626 1170 L 0 0 9405 1170 L 0 0 9295 1170 L 0 0 9185 1170 L
0 0 9074 1170 L 0 0 8964 1170 L 0 0 8854 1170 L 0 0 8744 1170 L 0 0 8633 1170 L 0 0 8523 1170 L 0 0 8413 1170 L 0 0 8302 1170 L
0 0 8192 1170 L 0 0 8082 1170 L 0 0 7972 1170 L -1 0 7862 1170 L 0 0 7751 1170 L 0 -1 7641 1171 L -1 -1 7531 1171 L
-2 -1 7422 1171 L -2 -2 7312 1172 L -3 -3 7202 1173 L -4 -4 7093 1174 L -6 -5 6985 1175 L -7 -8 6876 1178 L -11 -10 6769 1180 L
-14 -14 6662 1184 L -18 -18 6556 1188 L -23 -23 6450 1193 L -29 -29 6346 1199 L -36 -36 6243 1206 L -43 -44 6140 1214 L
-53 -52 6039 1222 L -62 -62 5938 1232 L -72 -73 5838 1243 L -84 -84 5739 1254 L -96 -96 5641 1266 L -108 -108 5543 1278 L
-121 -121 5445 1291 L -133 -133 5347 1303 L -146 -146 5250 1316 L -158 -158 5152 1328 L -171 -171 5054 1341 L -183 -183 4956 1353 L
-195 -195 4858 1365 L -206 -206 4758 1376 L -215 -215 4657 1385 L -221 -221 4553 1391 L -216 -216 4438 1386 L -70 -69 4181 1239 L
-1 -1 4002 1171 L 0 0 3891 1170 L 0 0 3780 1170 L 0 0 3670 1170 L 0 0 3560 1170 L 0 0 3449 1170 L 0 0 3339 1170 L 0 0 3229 1170 L
0 0 3119 1170 L 0 0 3008 1170 L 0 0 2898 1170 L 0 0 2788 1170 L 0 0 2677 1170 L 0 0 2567 1170 L 0 0 2457 1170 L 0 0 2347 1170 L
0 0 2236 1170 L 0 0 2126 1170 L 0 0 2016 1170 L
0 1024 0 K 0 0 9957 1170 L 0 0 9736 1170 L 0 0 9626 1170 L 0 0 9405 1170 L 0 0 9295 1170 L 0 0 9185 1170 L 0 0 9074 1170 L
0 0 8964 1170 L 0 0 8854 1170 L 0 0 8744 1170 L 0 0 8633 1170 L 0 0 8523 1170 L 0 0 8413 1170 L 0 0 8302 1170 L 0 0 8192 1170 L
0 0 8082 1170 L 0 0 7972 1170 L 0 0 7861 1170 L 0 0 7751 1170 L 0 0 7641 1170 L 0 0 7530 1170 L 0 0 7420 1170 L 0 0 7310 1170 L
0 0 7199 1170 L 0 0 7089 1170 L 0 0 6979 1170 L 0 0 6869 1170 L 0 0 6758 1170 L 0 0 6648 1170 L 0 0 6538 1170 L 0 0 6427 1170 L
0 0 6097 1170 L 0 0 5986 1170 L 0 0 5876 1170 L 0 0 5766 1170 L 0 0 5655 1170 L 0 0 5435 1170 L -1 0 5325 1170 L -1 0 5215 1170 L
-1 -1 5105 1171 L -3 -3 4997 1173 L -8 -8 4891 1178 L -16 -16 4789 1186 L -28 -28 4691 1198 L -46 -46 4598 1216 L
-68 -68 4510 1238 L -92 -92 4424 1262 L -119 -119 4341 1289 L -147 -147 4258 1317 L -174 -173 4175 1343 L -198 -198 4089 1368 L
-221 -221 4001 1391 L -239 -239 3909 1409 L -254 -254 3814 1424 L -265 -265 3714 1435 L -271 -271 3610 1441 L -268 -268 3497 1438 L
-4 -4 3123 1174 L 0 0 3008 1170 L 0 0 2898 1170 L 0 0 2788 1170 L 0 0 2677 1170 L 0 0 2567 1170 L 0 0 2457 1170 L 0 0 2347 1170 L
0 0 2236 1170 L 0 0 2126 1170 L 0 0 2016 1170 L 0 0 1905 1170 L 0 0 1795 1170 L 0 0 1685 1170 L
0 0 1024 K 0 0 9957 1170 L 0 0 9736 1170 L 0 0 9626 1170 L 0 0 9405 1170 L 0 0 9295 1170 L 0 0 9185 1170 L 0 0 8964 1170 L
0 0 8854 1170 L 0 0 8744 1170 L 0 0 8633 1170 L 0 0 8523 1170 L 0 0 8413 1170 L 0 0 8302 1170 L 0 0 8192 1170 L 0 0 8082 1170 L
0 0 7972 1170 L 0 0 7861 1170 L 0 0 7751 1170 L 0 0 7641 1170 L 0 0 7530 1170 L 0 0 7420 1170 L 0 0 7310 1170 L 0 0 7199 1170 L
0 0 7089 1170 L 0 0 6758 1170 L 0 0 6648 1170 L 0 0 6538 1170 L 0 0 6427 1170 L 0 0 6097 1170 L 0 0 5986 1170 L 0 0 5876 1170 L
0 0 5766 1170 L 0 0 5655 1170 L 0 0 5545 1170 L 0 0 5324 1170 L 0 0 5104 1170 L 0 0 4994 1170 L 0 0 4883 1170 L 0 0 4773 1170 L
0 0 4663 1170 L 0 0 4552 1170 L 0 0 4442 1170 L 0 0 4332 1170 L -2 -2 4224 1172 L -4 -3 4115 1173 L -3 -2 4004 1172 L
-2 -2 3893 1172 L -3 -3 3783 1173 L -7 -7 3677 1177 L -16 -16 3576 1186 L -31 -30 3480 1200 L -50 -49 3389 1219 L
-71 -71 3300 1241 L -101 -101 3220 1271 L -134 -134 3142 1304 L -166 -165 3064 1335 L -193 -193 2981 1363 L -212 -212 2889 1382 L
-224 -224 2791 1394 L -229 -229 2686 1399 L -228 -228 2575 1398 L -218 -217 2454 1387 L -192 -192 2318 1362 L -143 -144 2159 1314 L
-58 -58 1963 1228 L -6 -5 1801 1175 L 0 0 1685 1170 L
420 420 420 K -18 -9 1183 1749 L -18 -18 C -9 -18 C -9 -27 C 0 -45 C 9 -27 C 9 -18 C 18 -18 C 18 -9 C 36 0 C 18 9 C 18 18 C 9 18 C
9 27 C 0 45 C -9 27 C -9 18 C -18 18 C -18 9 C -36 0 C 54 -54 1210 1596 L 0 -189 1336 1749 L 117 0 1336 1749 L 72 0 1336 1659 L
117 0 1336 1560 L
-72 -189 5737 3328 L 72 -189 5737 3328 L 90 0 5692 3202 L 0 -189 5854 3328 L 81 0 5854 3328 L 27 -9 C 9 -9 C 9 -18 C 0 -27 C
-9 -18 C -9 -9 C -27 -9 C -81 0 C -27 -9 6079 3328 L -9 -18 C 0 -18 C 9 -18 C 18 -9 C 36 -9 C 27 -9 C 18 -18 C 9 -18 C 0 -27 C
-9 -18 C -9 -9 C -27 -9 C -36 0 C -27 9 C -9 9 C -9 18 C 0 27 C 9 18 C 18 18 C 27 9 C 36 9 C 18 9 C 9 18 C 0 18 C -9 18 C -27 9 C
-36 0 C
9 10 1575 1642 L 12 13 C 12 12 C 11 13 C 12 13 C 12 13 C 12 13 C 12 13 C 11 13 C 12 13 C 12 13 C 12 13 C 11 13 C 12 13 C 12 14 C
12 13 C 12 13 C 11 13 C 12 13 C 12 13 C 12 12 C 12 13 C 11 13 C 12 13 C 12 12 C 12 13 C 11 12 C 12 13 C 12 12 C 12 12 C 12 12 C
11 12 C 12 12 C 12 12 C 12 11 C 12 12 C 11 11 C 12 11 C 12 11 C 12 11 C 11 11 C 12 11 C 12 10 C 12 11 C 12 10 C 11 10 C 12 10 C
12 10 C 12 10 C 11 9 C 12 9 C 12 10 C 12 9 C 12 9 C 11 8 C 12 9 C 12 8 C 12 8 C 12 8 C 11 8 C 12 8 C 12 8 C 12 7 C 11 7 C 12 8 C
12 7 C 12 6 C 12 7 C 11 6 C 12 7 C 12 6 C 12 6 C 12 6 C 11 6 C 12 5 C 12 6 C 12 5 C 11 5 C 12 5 C 12 5 C 12 5 C 12 5 C 11 4 C 12 4 C
12 5 C 12 4 C 11 4 C 12 4 C 12 3 C 12 4 C 12 4 C 11 3 C 12 3 C 12 3 C 12 4 C 12 3 C 11 3 C 12 2 C 12 3 C 12 3 C 11 2 C 12 3 C 12 2 C
12 2 C 12 3 C 11 2 C 12 2 C 12 2 C 12 2 C 12 2 C 11 2 C 12 1 C 12 2 C 12 2 C 11 1 C 12 2 C 12 1 C 12 2 C 12 1 C 11 2 C 12 1 C 12 1 C
12 2 C 11 1 C 12 1 C 12 1 C 12 2 C 12 1 C 11 1 C 12 1 C 12 1 C 12 1 C 12 1 C 11 2 C 12 1 C 12 1 C 12 1 C 11 1 C 12 1 C 12 1 C 12 1 C
12 1 C 11 1 C 12 1 C 12 1 C 12 2 C 12 1 C 11 1 C 12 1 C 12 1 C 12 1 C 11 1 C 12 2 C 12 1 C 12 1 C 12 1 C 11 2 C 12 1 C 12 1 C 12 1 C
11 2 C 12 1 C 12 2 C 12 1 C 12 1 C 11 2 C 12 1 C 12 2 C 12 1 C 12 2 C 11 1 C 12 2 C 12 1 C 12 2 C 11 2 C 12 1 C 12 2 C 12 2 C 12 1 C
11 2 C 12 2 C 12 2 C 12 2 C 11 1 C 12 2 C 12 2 C 12 2 C 12 2 C 11 2 C 12 2 C 12 1 C 12 2 C 12 2 C 11 2 C 12 2 C 12 2 C 12 2 C 11 2 C
12 2 C 12 2 C 12 2 C 12 2 3941 2681 L 11 2 C 12 2 C 12 2 C 12 3 C 12 2 C 11 2 C 12 2 C 12 2 C 12 2 C 11 2 C 12 2 C 12 2 C 12 2 C
12 2 C 11 2 C 12 2 C 12 2 C 12 2 C 11 2 C 12 2 C 12 2 C 12 2 C 12 2 C 11 2 C 12 2 C 12 2 C 12 2 C 12 2 C 11 2 C 12 2 C 12 2 C 12 1 C
11 2 C 12 2 C 12 2 C 12 2 C 12 2 C 11 1 C 12 2 C 12 2 C 12 2 C 12 1 C 11 2 C 12 2 C 12 1 C 12 2 C 11 1 C 12 2 C 12 1 C 12 2 C 12 2 C
11 1 C 12 1 C 12 2 C 12 1 C 11 2 C 12 1 C 12 1 C 12 2 C 12 1 C 11 1 C 12 2 C 12 1 C 12 1 C 12 1 C 11 1 C 12 2 C 12 1 C 12 1 C 11 1 C
12 1 C 12 1 C 12 1 C 12 1 C 11 1 C 12 1 C 12 1 C 12 1 C 12 1 C 11 1 C 12 1 C 12 0 C 12 1 C 11 1 C 12 1 C 12 1 C 12 0 C 12 1 C 11 1 C
12 1 C 12 0 C 12 1 C 11 1 C 12 0 C 12 1 C 12 0 C 12 1 C 11 1 C 12 0 C 12 1 C 12 0 C 12 1 C 11 0 C 12 1 C 12 0 C 12 1 C 11 0 C 12 1 C
12 0 C 12 0 C 12 1 C 11 0 C 12 1 C 12 0 C 12 0 C 12 1 C 11 0 C 12 0 C 12 1 C 12 0 C 11 0 C 12 0 C 12 1 C 12 0 C 12 0 C 11 0 C 12 1 C
12 0 C 12 0 C 11 0 C 12 0 C 12 0 C 12 0 C 12 1 C 11 0 C 12 0 C 12 0 C 12 0 C 12 0 C 11 0 C 12 0 C 12 0 C 12 0 C 11 0 C 12 0 C 12 0 C
12 0 C 12 0 C 11 0 C 12 0 C 12 0 C 12 -1 C 12 0 C 11 0 C 12 0 C 12 0 C 12 -1 C 11 0 C 12 0 C 12 0 C 12 -1 C 12 0 C 11 0 C 12 -1 C
12 0 C 12 -1 C 11 0 C 12 -1 C 12 0 C 12 -1 C 12 0 C 11 -1 C 12 0 C 12 -1 C 12 0 C 12 -1 C 11 -1 C 12 -1 C 12 0 C 12 -1 C 11 -1 C
12 -1 C 12 -1 C 12 -1 C 12 0 C 11 -1 C 12 -1 C 12 -1 C 12 -2 C 11 -1 C 12 -1 C 12 -1 C 12 -1 C 12 -1 C 11 -2 C 12 -1 C 12 -1 C
12 -2 C 12 -1 C 11 -2 C 12 -1 6309 2803 L 12 -2 C 12 -1 C 11 -2 C 12 -1 C 12 -2 C 12 -2 C 12 -1 C 11 -2 C 12 -2 C 12 -2 C 12 -2 C
12 -2 C 11 -2 C 12 -2 C 12 -2 C 12 -2 C 11 -2 C 12 -2 C 12 -3 C 12 -2 C 12 -2 C 11 -3 C 12 -2 C 12 -2 C 12 -3 C 11 -2 C 12 -3 C
12 -3 C 12 -2 C 12 -3 C 11 -3 C 12 -2 C 12 -3 C 12 -3 C 12 -3 C 11 -3 C 12 -3 C 12 -3 C 12 -3 C 11 -3 C 12 -3 C 12 -3 C 12 -3 C
12 -4 C 11 -3 C 12 -3 C 12 -3 C 12 -4 C 12 -3 C 11 -4 C 12 -3 C 12 -4 C 12 -3 C 11 -4 C 12 -3 C 12 -4 C 12 -4 C 12 -3 C 11 -4 C
12 -4 C 12 -4 C 12 -4 C 11 -4 C 12 -3 C 12 -4 C 12 -4 C 12 -4 C 11 -4 C 12 -4 C 12 -4 C 12 -5 C 12 -4 C 11 -4 C 12 -4 C 12 -4 C
12 -4 C 11 -5 C 12 -4 C 12 -4 C 12 -5 C 12 -4 C 11 -4 C 12 -5 C 12 -4 C 12 -5 C 12 -4 C 11 -4 C 12 -5 C 12 -4 C 12 -5 C 11 -5 C
12 -4 C 12 -5 C 12 -4 C 12 -5 C 11 -4 C 12 -5 C 12 -5 C 12 -4 C 11 -5 C 12 -5 C 12 -5 C 12 -4 C 12 -5 C 11 -5 C 12 -5 C 12 -4 C
12 -5 C 12 -5 C 11 -5 C 12 -5 C 12 -5 C 12 -4 C 11 -5 C 12 -5 C 12 -5 C 12 -5 C 12 -5 C 11 -5 C 12 -5 C 12 -5 C 12 -5 C 12 -5 C
11 -5 C 12 -5 C 12 -5 C 12 -5 C 11 -5 C 12 -5 C 12 -5 C 12 -5 C 12 -5 C 11 -5 C 12 -5 C 12 -5 C 12 -5 C 11 -5 C 12 -5 C 12 -6 C
12 -5 C 12 -5 C 11 -5 C 12 -5 C 12 -5 C 12 -5 C 12 -6 C 11 -5 C 12 -5 C 12 -5 C 12 -6 C 11 -5 C 12 -5 C 12 -5 C 12 -6 C 12 -5 C
11 -5 C 12 -6 C 12 -5 C 12 -5 C 12 -6 C 11 -5 C 12 -5 C 12 -6 C 12 -5 C 11 -5 C 12 -6 C 12 -5 C 12 -6 C 12 -5 C 11 -6 C 12 -5 C
12 -6 C 12 -5 C 11 -6 C 12 -5 C 12 -6 C 12 -5 C 12 -6 C 11 -6 C 12 -5 C 12 -6 C 12 -5 C 12 -6 C 11 -6 C 12 -5 C 12 -6 C 12 -6 C
11 -5 C 12 -6 C 12 -6 C 12 -5 C 12 -6 C 11 -6 C 12 -6 C 12 -6 C 12 -5 C 11 -6 C 12 -6 C 12 -6 C 12 -6 C 12 -5 8678 1942 L 11 -6 C
12 -6 C 12 -6 C 12 -6 C 12 -6 C 11 -6 C 12 -6 C 12 -6 C 12 -6 C 11 -5 C 12 -6 C 12 -6 C 12 -6 C 12 -6 C 11 -6 C 12 -6 C 12 -6 C
12 -6 C 12 -6 C 11 -6 C 12 -6 C 12 -6 C 12 -6 C 11 -6 C 12 -6 C 12 -6 C 12 -6 C 12 -6 C 11 -6 C 12 -6 C 12 -6 C 12 -6 C 11 -6 C
12 -6 C 12 -6 C 12 -6 C 12 -6 C 11 -6 C 12 -6 C 12 -6 C 12 -6 C 12 -5 C 11 -6 C 12 -6 C 12 -6 C 12 -6 C 11 -6 C 12 -6 C 12 -6 C
12 -5 C 12 -6 C 11 -6 C 12 -6 C 12 -5 C 12 -6 C 12 -6 C 11 -6 C 12 -5 C 12 -6 C 12 -5 C 11 -6 C 12 -6 C 12 -5 C 12 -6 C 12 -5 C
11 -6 C 12 -5 C 12 -6 C 12 -5 C 11 -5 C 12 -6 C 12 -5 C 12 -5 C 12 -6 C 11 -5 C 12 -5 C 12 -5 C 12 -6 C 12 -5 C 11 -5 C 12 -5 C
12 -5 C 12 -5 C 11 -5 C 12 -5 C 12 -5 C 12 -4 C 12 -5 C 11 -5 C 12 -5 C 12 -5 C 12 -4 C 12 -5 C 11 -5 C 12 -4 C 12 -5 C 12 -4 C
11 -5 C 12 -4 C 12 -5 C 12 -4 C 12 -4 C 11 -5 C 12 -4 C 12 -4 C 12 -4 C 11 -5 C 12 -4 C 12 -4 C
1024 512 0 K -54 -189 1183 2919 L -54 -189 1192 2919 L 99 0 1156 2919 L 27 -9 C 9 -18 C 0 -18 C -9 -27 C -9 -9 C -27 -9 C
18 -9 1255 2919 L 9 -18 C 0 -18 C -9 -27 C -9 -9 C -18 -9 C 81 0 1165 2829 L 18 -9 C 9 -18 C 0 -18 C -9 -27 C -18 -18 C -36 -9 C
-108 0 C 9 -9 1246 2829 L 9 -18 C 0 -18 C -9 -27 C -18 -18 C -27 -9 C -40 -141 1405 2763 L -40 -141 1412 2763 L -20 -40 1365 2763 L
13 40 C 101 0 C -6 -40 C 0 40 C 47 0 1345 2622 L
-54 -189 1928 3328 L -54 -189 1937 3328 L -27 -54 1874 3328 L 18 54 C 135 0 C -9 -54 C 0 54 C 63 0 1847 3139 L 162 0 2180 3247 L
162 0 2180 3193 L 18 9 2576 3292 L 27 27 C 0 -189 C -27 -9 2783 3328 L -18 -27 C -9 -45 C 0 -27 C 9 -45 C 18 -27 C 27 -9 C 18 0 C
27 9 C 18 27 C 9 45 C 0 27 C -9 45 C -18 27 C -27 9 C -18 0 C 18 9 2936 3292 L 27 27 C 0 -189 C -27 -9 3143 3328 L -18 -27 C
-9 -45 C 0 -27 C 9 -45 C 18 -27 C 27 -9 C 18 0 C 27 9 C 18 27 C 9 45 C 0 27 C -9 45 C -18 27 C -27 9 C -18 0 C -27 -9 3323 3328 L
-18 -27 C -9 -45 C 0 -27 C 9 -45 C 18 -27 C 27 -9 C 18 0 C 27 9 C 18 27 C 9 45 C 0 27 C -9 45 C -18 27 C -27 9 C -18 0 C
0 -189 3602 3328 L -126 -126 3728 3328 L 81 -108 3647 3247 L
9 -4 1575 3120 L 12 -5 C 12 -4 C 11 -5 C 12 -4 C 12 -5 C 12 -5 C 12 -5 C 11 -4 C 12 -5 C 12 -5 C 12 -5 C 11 -5 C 12 -5 C 12 -5 C
12 -5 C 12 -5 C 11 -5 C 12 -5 C 12 -5 C 12 -5 C 12 -6 C 11 -5 C 12 -5 C 12 -5 C 12 -5 C 11 -6 C 12 -5 C 12 -5 C 12 -6 C 12 -5 C
11 -5 C 12 -6 C 12 -5 C 12 -5 C 12 -6 C 11 -5 C 12 -5 C 12 -6 C 12 -5 C 11 -6 C 12 -5 C 12 -6 C 12 -5 C 12 -6 C 11 -5 C 12 -6 C
12 -5 C 12 -6 C 11 -5 C 12 -6 C 12 -5 C 12 -6 C 12 -5 C 11 -6 C 12 -5 C 12 -6 C 12 -5 C 12 -6 C 11 -5 C 12 -6 C 12 -5 C 12 -6 C
11 -5 C 12 -6 C 12 -5 C 12 -6 C 12 -5 C 11 -6 C 12 -5 C 12 -6 C 12 -5 C 12 -6 C 11 -5 C 12 -6 C 12 -5 C 12 -6 C 11 -5 C 12 -6 C
12 -5 C 12 -6 C 12 -5 C 11 -6 C 12 -5 C 12 -5 C 12 -6 C 11 -5 C 12 -6 C 12 -5 C 12 -5 C 12 -6 C 11 -5 C 12 -6 C 12 -5 C 12 -5 C
12 -6 C 11 -5 C 12 -5 C 12 -5 C 12 -6 C 11 -5 C 12 -5 C 12 -6 C 12 -5 C 12 -5 C 11 -5 C 12 -5 C 12 -6 C 12 -5 C 12 -5 C 11 -5 C
12 -5 C 12 -5 C 12 -5 C 11 -6 C 12 -5 C 12 -5 C 12 -5 C 12 -5 C 11 -5 C 12 -5 C 12 -5 C 12 -5 C 11 -5 C 12 -5 C 12 -5 C 12 -5 C
12 -5 C 11 -5 C 12 -5 C 12 -4 C 12 -5 C 12 -5 C 11 -5 C 12 -5 C 12 -5 C 12 -4 C 11 -5 C 12 -5 C 12 -5 C 12 -5 C 12 -4 C 11 -5 C
12 -5 C 12 -4 C 12 -5 C 12 -5 C 11 -4 C 12 -5 C 12 -5 C 12 -4 C 11 -5 C 12 -4 C 12 -5 C 12 -4 C 12 -5 C 11 -4 C 12 -5 C 12 -4 C
12 -5 C 11 -4 C 12 -5 C 12 -4 C 12 -4 C 12 -5 C 11 -4 C 12 -4 C 12 -5 C 12 -4 C 12 -4 C 11 -5 C 12 -4 C 12 -4 C 12 -4 C 11 -5 C
12 -4 C 12 -4 C 12 -4 C 12 -4 C 11 -5 C 12 -4 C 12 -4 C 12 -4 C 11 -4 C 12 -4 C 12 -4 C 12 -4 C 12 -4 C 11 -4 C 12 -4 C 12 -4 C
12 -4 C 12 -4 C 11 -4 C 12 -4 C 12 -4 C 12 -4 C 11 -3 C 12 -4 C 12 -4 C 12 -4 C 12 -4 3941 2128 L 11 -4 C 12 -3 C 12 -4 C 12 -4 C
12 -4 C 11 -3 C 12 -4 C 12 -4 C 12 -3 C 11 -4 C 12 -4 C 12 -3 C 12 -4 C 12 -4 C 11 -3 C 12 -4 C 12 -3 C 12 -4 C 11 -3 C 12 -4 C
12 -3 C 12 -4 C 12 -3 C 11 -4 C 12 -3 C 12 -4 C 12 -3 C 12 -3 C 11 -4 C 12 -3 C 12 -4 C 12 -3 C 11 -3 C 12 -4 C 12 -3 C 12 -3 C
12 -3 C 11 -4 C 12 -3 C 12 -3 C 12 -3 C 12 -4 C 11 -3 C 12 -3 C 12 -3 C 12 -3 C 11 -3 C 12 -4 C 12 -3 C 12 -3 C 12 -3 C 11 -3 C
12 -3 C 12 -3 C 12 -3 C 11 -3 C 12 -3 C 12 -3 C 12 -3 C 12 -3 C 11 -3 C 12 -3 C 12 -3 C 12 -3 C 12 -3 C 11 -3 C 12 -3 C 12 -2 C
12 -3 C 11 -3 C 12 -3 C 12 -3 C 12 -3 C 12 -2 C 11 -3 C 12 -3 C 12 -3 C 12 -3 C 12 -2 C 11 -3 C 12 -3 C 12 -2 C 12 -3 C 11 -3 C
12 -2 C 12 -3 C 12 -3 C 12 -2 C 11 -3 C 12 -3 C 12 -2 C 12 -3 C 11 -2 C 12 -3 C 12 -3 C 12 -2 C 12 -3 C 11 -2 C 12 -3 C 12 -2 C
12 -3 C 12 -2 C 11 -3 C 12 -2 C 12 -3 C 12 -2 C 11 -2 C 12 -3 C 12 -2 C 12 -3 C 12 -2 C 11 -2 C 12 -3 C 12 -2 C 12 -3 C 12 -2 C
11 -2 C 12 -2 C 12 -3 C 12 -2 C 11 -2 C 12 -3 C 12 -2 C 12 -2 C 12 -2 C 11 -3 C 12 -2 C 12 -2 C 12 -2 C 11 -3 C 12 -2 C 12 -2 C
12 -2 C 12 -2 C 11 -2 C 12 -3 C 12 -2 C 12 -2 C 12 -2 C 11 -2 C 12 -2 C 12 -2 C 12 -2 C 11 -2 C 12 -2 C 12 -2 C 12 -2 C 12 -3 C
11 -2 C 12 -2 C 12 -2 C 12 -2 C 12 -2 C 11 -2 C 12 -2 C 12 -1 C 12 -2 C 11 -2 C 12 -2 C 12 -2 C 12 -2 C 12 -2 C 11 -2 C 12 -2 C
12 -2 C 12 -2 C 11 -2 C 12 -1 C 12 -2 C 12 -2 C 12 -2 C 11 -2 C 12 -2 C 12 -1 C 12 -2 C 12 -2 C 11 -2 C 12 -2 C 12 -1 C 12 -2 C
11 -2 C 12 -2 C 12 -1 C 12 -2 C 12 -2 C 11 -2 C 12 -1 C 12 -2 C 12 -2 C 11 -1 C 12 -2 C 12 -2 C 12 -2 C 12 -1 C 11 -2 C 12 -1 C
12 -2 C 12 -2 C 12 -1 C 11 -2 C 12 -2 6309 1610 L 12 -1 C 12 -2 C 11 -1 C 12 -2 C 12 -2 C 12 -1 C 12 -2 C 11 -1 C 12 -2 C 12 -1 C
12 -2 C 12 -2 C 11 -1 C 12 -2 C 12 -1 C 12 -2 C 11 -1 C 12 -2 C 12 -1 C 12 -2 C 12 -1 C 11 -2 C 12 -1 C 12 -1 C 12 -2 C 11 -1 C
12 -2 C 12 -1 C 12 -2 C 12 -1 C 11 -2 C 12 -1 C 12 -1 C 12 -2 C 12 -1 C 11 -2 C 12 -1 C 12 -1 C 12 -2 C 11 -1 C 12 -1 C 12 -2 C
12 -1 C 12 -1 C 11 -2 C 12 -1 C 12 -1 C 12 -2 C 12 -1 C 11 -1 C 12 -2 C 12 -1 C 12 -1 C 11 -2 C 12 -1 C 12 -1 C 12 -1 C 12 -2 C
11 -1 C 12 -1 C 12 -1 C 12 -2 C 11 -1 C 12 -1 C 12 -1 C 12 -2 C 12 -1 C 11 -1 C 12 -1 C 12 -1 C 12 -2 C 12 -1 C 11 -1 C 12 -1 C
12 -1 C 12 -1 C 11 -2 C 12 -1 C 12 -1 C 12 -1 C 12 -1 C 11 -1 C 12 -2 C 12 -1 C 12 -1 C 12 -1 C 11 -1 C 12 -1 C 12 -1 C 12 -1 C
11 -2 C 12 -1 C 12 -1 C 12 -1 C 12 -1 C 11 -1 C 12 -1 C 12 -1 C 12 -1 C 11 -1 C 12 -1 C 12 -1 C 12 -1 C 12 -1 C 11 -1 C 12 -2 C
12 -1 C 12 -1 C 12 -1 C 11 -1 C 12 -1 C 12 -1 C 12 -1 C 11 -1 C 12 -1 C 12 -1 C 12 -1 C 12 -1 C 11 -1 C 12 -1 C 12 -1 C 12 -1 C
12 0 C 11 -1 C 12 -1 C 12 -1 C 12 -1 C 11 -1 C 12 -1 C 12 -1 C 12 -1 C 12 -1 C 11 -1 C 12 -1 C 12 -1 C 12 -1 C 11 -1 C 12 -1 C
12 0 C 12 -1 C 12 -1 C 11 -1 C 12 -1 C 12 -1 C 12 -1 C 12 -1 C 11 -1 C 12 0 C 12 -1 C 12 -1 C 11 -1 C 12 -1 C 12 -1 C 12 -1 C 12 0 C
11 -1 C 12 -1 C 12 -1 C 12 -1 C 12 -1 C 11 0 C 12 -1 C 12 -1 C 12 -1 C 11 -1 C 12 -1 C 12 0 C 12 -1 C 12 -1 C 11 -1 C 12 -1 C 12 0 C
12 -1 C 11 -1 C 12 -1 C 12 0 C 12 -1 C 12 -1 C 11 -1 C 12 -1 C 12 0 C 12 -1 C 12 -1 C 11 -1 C 12 0 C 12 -1 C 12 -1 C 11 -1 C 12 0 C
12 -1 C 12 -1 C 12 -1 C 11 0 C 12 -1 C 12 -1 C 12 0 C 11 -1 C 12 -1 C 12 -1 C 12 0 C 12 -1 8678 1390 L 11 -1 C 12 0 C 12 -1 C
12 -1 C 12 -1 C 11 0 C 12 -1 C 12 -1 C 12 0 C 11 -1 C 12 -1 C 12 0 C 12 -1 C 12 -1 C 11 0 C 12 -1 C 12 -1 C 12 0 C 12 -1 C 11 -1 C
12 0 C 12 -1 C 12 -1 C 11 0 C 12 -1 C 12 -1 C 12 0 C 12 -1 C 11 0 C 12 -1 C 12 -1 C 12 0 C 11 -1 C 12 -1 C 12 0 C 12 -1 C 12 0 C
11 -1 C 12 -1 C 12 0 C 12 -1 C 12 0 C 11 -1 C 12 -1 C 12 0 C 12 -1 C 11 0 C 12 -1 C 12 -1 C 12 0 C 12 -1 C 11 0 C 12 -1 C 12 -1 C
12 0 C 12 -1 C 11 0 C 12 -1 C 12 0 C 12 -1 C 11 0 C 12 -1 C 12 -1 C 12 0 C 12 -1 C 11 0 C 12 -1 C 12 0 C 12 -1 C 11 0 C 12 -1 C
12 -1 C 12 0 C 12 -1 C 11 0 C 12 -1 C 12 0 C 12 -1 C 12 0 C 11 -1 C 12 0 C 12 -1 C 12 0 C 11 -1 C 12 0 C 12 -1 C 12 0 C 12 -1 C
11 0 C 12 -1 C 12 0 C 12 -1 C 12 0 C 11 -1 C 12 0 C 12 -1 C 12 0 C 11 -1 C 12 0 C 12 -1 C 12 0 C 12 -1 C 11 0 C 12 -1 C 12 0 C
12 -1 C 11 0 C 12 -1 C 12 0 C
1024 0 1024 K 0 -126 1147 2271 L 0 -126 1156 2271 L 9 27 1156 2217 L 18 18 C 18 9 C 27 0 C 9 -9 C 0 -9 C -9 -9 C -9 9 C 9 9 C
36 0 1120 2271 L 63 0 1120 2145 L 0 6 1282 2397 L 6 14 C 7 7 C 14 6 C 27 0 C 13 -6 C 7 -7 C 7 -14 C 0 -13 C -7 -14 C -14 -20 C
-67 -67 C 94 0 C
-72 -189 9109 3328 L 72 -189 9109 3328 L 90 0 9064 3202 L 27 9 9199 3139 L 27 18 C 18 18 C 18 27 C 18 36 C 9 36 C 0 18 C -9 18 C
-18 9 C -18 -9 C -9 -9 C -9 -18 C -9 -45 C 0 -45 C 9 -36 C 9 -18 C 18 -9 C 18 0 C 18 9 C 9 9 C 75 0 9385 3425 L -41 -54 C 20 0 C
14 -7 C 7 -7 C 6 -20 C 0 -13 C -6 -21 C -14 -13 C -20 -7 C -20 0 C -21 7 C -6 7 C -7 13 C
9 0 1575 2705 L 12 0 C 12 0 C 11 0 C 12 0 C 12 0 C 12 0 C 12 0 C 11 0 C 12 0 C 12 0 C 12 0 C 11 0 C 12 0 C 12 0 C 12 0 C 12 0 C
11 0 C 12 0 C 12 0 C 12 0 C 12 0 C 11 0 C 12 0 C 12 0 C 12 0 C 11 0 C 12 0 C 12 0 C 12 0 C 12 0 C 11 0 C 12 0 C 12 0 C 12 0 C 12 0 C
11 0 C 12 0 C 12 0 C 12 0 C 11 0 C 12 0 C 12 0 C 12 0 C 12 0 C 11 0 C 12 0 C 12 0 C 12 0 C 11 0 C 12 0 C 12 0 C 12 0 C 12 0 C 11 0 C
12 0 C 12 0 C 12 0 C 12 0 C 11 0 C 12 0 C 12 0 C 12 0 C 11 0 C 12 0 C 12 0 C 12 0 C 12 0 C 11 0 C 12 0 C 12 0 C 12 0 C 12 0 C 11 0 C
12 0 C 12 0 C 12 0 C 11 0 C 12 0 C 12 0 C 12 0 C 12 -1 C 11 0 C 12 0 C 12 0 C 12 0 C 11 0 C 12 0 C 12 0 C 12 0 C 12 0 C 11 0 C
12 0 C 12 0 C 12 0 C 12 0 C 11 0 C 12 0 C 12 0 C 12 0 C 11 0 C 12 0 C 12 0 C 12 -1 C 12 0 C 11 0 C 12 0 C 12 0 C 12 0 C 12 0 C
11 0 C 12 0 C 12 0 C 12 0 C 11 0 C 12 0 C 12 0 C 12 -1 C 12 0 C 11 0 C 12 0 C 12 0 C 12 0 C 11 0 C 12 0 C 12 0 C 12 0 C 12 -1 C
11 0 C 12 0 C 12 0 C 12 0 C 12 0 C 11 0 C 12 0 C 12 0 C 12 -1 C 11 0 C 12 0 C 12 0 C 12 0 C 12 0 C 11 0 C 12 -1 C 12 0 C 12 0 C
12 0 C 11 0 C 12 0 C 12 0 C 12 -1 C 11 0 C 12 0 C 12 0 C 12 0 C 12 0 C 11 -1 C 12 0 C 12 0 C 12 0 C 11 0 C 12 0 C 12 -1 C 12 0 C
12 0 C 11 0 C 12 0 C 12 -1 C 12 0 C 12 0 C 11 0 C 12 0 C 12 -1 C 12 0 C 11 0 C 12 0 C 12 -1 C 12 0 C 12 0 C 11 0 C 12 0 C 12 -1 C
12 0 C 11 0 C 12 0 C 12 -1 C 12 0 C 12 0 C 11 0 C 12 -1 C 12 0 C 12 0 C 12 -1 C 11 0 C 12 0 C 12 0 C 12 -1 C 11 0 C 12 0 C 12 0 C
12 -1 C 12 0 3941 2687 L 11 0 C 12 -1 C 12 0 C 12 0 C 12 -1 C 11 0 C 12 0 C 12 0 C 12 -1 C 11 0 C 12 0 C 12 -1 C 12 0 C 12 0 C
11 -1 C 12 0 C 12 0 C 12 -1 C 11 0 C 12 0 C 12 -1 C 12 0 C 12 -1 C 11 0 C 12 0 C 12 -1 C 12 0 C 12 0 C 11 -1 C 12 0 C 12 0 C 12 -1 C
11 0 C 12 -1 C 12 0 C 12 0 C 12 -1 C 11 0 C 12 -1 C 12 0 C 12 0 C 12 -1 C 11 0 C 12 -1 C 12 0 C 12 0 C 11 -1 C 12 0 C 12 -1 C 12 0 C
12 -1 C 11 0 C 12 0 C 12 -1 C 12 0 C 11 -1 C 12 0 C 12 -1 C 12 0 C 12 -1 C 11 0 C 12 -1 C 12 0 C 12 -1 C 12 0 C 11 0 C 12 -1 C
12 0 C 12 -1 C 11 0 C 12 -1 C 12 0 C 12 -1 C 12 0 C 11 -1 C 12 0 C 12 -1 C 12 0 C 12 -1 C 11 0 C 12 -1 C 12 0 C 12 -1 C 11 0 C
12 -1 C 12 -1 C 12 0 C 12 -1 C 11 0 C 12 -1 C 12 0 C 12 -1 C 11 0 C 12 0 C 12 -1 C 12 0 C 12 -1 C 11 0 C 12 0 C 12 -1 C 12 0 C
12 0 C 11 -1 C 12 0 C 12 -1 C 12 0 C 11 -1 C 12 0 C 12 0 C 12 -1 C 12 0 C 11 -1 C 12 0 C 12 -1 C 12 0 C 12 -1 C 11 0 C 12 -1 C
12 0 C 12 -1 C 11 0 C 12 -1 C 12 0 C 12 -1 C 12 -1 C 11 0 C 12 -1 C 12 0 C 12 -1 C 11 -1 C 12 0 C 12 -1 C 12 -1 C 12 0 C 11 -1 C
12 -1 C 12 0 C 12 -1 C 12 -1 C 11 -1 C 12 0 C 12 -1 C 12 -1 C 11 -1 C 12 0 C 12 -1 C 12 -1 C 12 -1 C 11 -1 C 12 -1 C 12 -1 C 12 0 C
12 -1 C 11 -1 C 12 -1 C 12 -1 C 12 -2 C 11 -1 C 12 -1 C 12 -1 C 12 -1 C 12 -2 C 11 -1 C 12 -1 C 12 -2 C 12 -1 C 11 -1 C 12 -2 C
12 -1 C 12 -2 C 12 -1 C 11 -1 C 12 -2 C 12 -1 C 12 -2 C 12 -2 C 11 -1 C 12 -2 C 12 -1 C 12 -2 C 11 -2 C 12 -1 C 12 -2 C 12 -2 C
12 -1 C 11 -2 C 12 -2 C 12 -2 C 12 -1 C 11 -2 C 12 -2 C 12 -2 C 12 -2 C 12 -2 C 11 -1 C 12 -2 C 12 -2 C 12 -2 C 12 -2 C 11 -2 C
12 -2 6309 2540 L 12 -2 C 12 -2 C 11 -2 C 12 -2 C 12 -2 C 12 -2 C 12 -2 C 11 -2 C 12 -2 C 12 -2 C 12 -2 C 12 -2 C 11 -1 C 12 -2 C
12 -2 C 12 -2 C 11 -2 C 12 -2 C 12 -2 C 12 -2 C 12 -2 C 11 -2 C 12 -2 C 12 -2 C 12 -2 C 11 -2 C 12 -2 C 12 -2 C 12 -1 C 12 -2 C
11 -2 C 12 -2 C 12 -2 C 12 -1 C 12 -2 C 11 -2 C 12 -2 C 12 -1 C 12 -2 C 11 -2 C 12 -1 C 12 -2 C 12 -1 C 12 -2 C 11 -1 C 12 -2 C
12 -1 C 12 -1 C 12 -2 C 11 -1 C 12 -1 C 12 -2 C 12 -1 C 11 -1 C 12 -1 C 12 -1 C 12 -1 C 12 -1 C 11 -1 C 12 -1 C 12 -1 C 12 -1 C
11 -1 C 12 0 C 12 -1 C 12 -1 C 12 0 C 11 -1 C 12 0 C 12 -1 C 12 0 C 12 -1 C 11 0 C 12 0 C 12 0 C 12 -1 C 11 0 C 12 0 C 12 0 C 12 0 C
12 0 C 11 1 C 12 0 C 12 0 C 12 0 C 12 1 C 11 0 C 12 1 C 12 0 C 12 1 C 11 0 C 12 1 C 12 1 C 12 1 C 12 0 C 11 1 C 12 1 C 12 1 C 12 1 C
11 1 C 12 2 C 12 1 C 12 1 C 12 1 C 11 2 C 12 1 C 12 2 C 12 1 C 12 2 C 11 1 C 12 2 C 12 2 C 12 1 C 11 2 C 12 2 C 12 2 C 12 2 C 12 2 C
11 2 C 12 2 C 12 2 C 12 2 C 12 2 C 11 3 C 12 2 C 12 2 C 12 3 C 11 2 C 12 2 C 12 3 C 12 2 C 12 3 C 11 2 C 12 3 C 12 3 C 12 2 C 11 3 C
12 3 C 12 2 C 12 3 C 12 3 C 11 3 C 12 2 C 12 3 C 12 3 C 12 3 C 11 3 C 12 3 C 12 3 C 12 3 C 11 3 C 12 3 C 12 3 C 12 3 C 12 3 C 11 3 C
12 3 C 12 3 C 12 3 C 12 3 C 11 3 C 12 3 C 12 3 C 12 3 C 11 3 C 12 3 C 12 3 C 12 3 C 12 3 C 11 3 C 12 4 C 12 3 C 12 3 C 11 3 C 12 3 C
12 3 C 12 3 C 12 3 C 11 3 C 12 3 C 12 3 C 12 3 C 12 3 C 11 3 C 12 3 C 12 2 C 12 3 C 11 3 C 12 3 C 12 3 C 12 3 C 12 3 C 11 2 C 12 3 C
12 3 C 12 3 C 11 2 C 12 3 C 12 3 C 12 2 C 12 3 8678 2698 L 11 3 C 12 2 C 12 3 C 12 2 C 12 3 C 11 2 C 12 3 C 12 2 C 12 3 C 11 2 C
12 2 C 12 3 C 12 2 C 12 2 C 11 3 C 12 2 C 12 2 C 12 2 C 12 2 C 11 3 C 12 2 C 12 2 C 12 2 C 11 2 C 12 2 C 12 2 C 12 2 C 12 2 C 11 2 C
12 2 C 12 2 C 12 1 C 11 2 C 12 2 C 12 2 C 12 2 C 12 1 C 11 2 C 12 2 C 12 1 C 12 2 C 12 2 C 11 1 C 12 2 C 12 1 C 12 2 C 11 2 C 12 1 C
12 2 C 12 1 C 12 1 C 11 2 C 12 1 C 12 2 C 12 1 C 12 1 C 11 2 C 12 1 C 12 1 C 12 2 C 11 1 C 12 1 C 12 1 C 12 2 C 12 1 C 11 1 C 12 1 C
12 1 C 12 2 C 11 1 C 12 1 C 12 1 C 12 1 C 12 1 C 11 1 C 12 1 C 12 1 C 12 1 C 12 1 C 11 1 C 12 1 C 12 1 C 12 1 C 11 1 C 12 1 C 12 1 C
12 1 C 12 1 C 11 1 C 12 1 C 12 1 C 12 1 C 12 0 C 11 1 C 12 1 C 12 1 C 12 1 C 11 1 C 12 1 C 12 0 C 12 1 C 12 1 C 11 1 C 12 1 C 12 0 C
12 1 C 11 1 C 12 1 C 12 0 C
1024 0 0 K 12 0 1989 1170 L 12 0 C 11 0 C 12 0 C 12 0 C 12 0 C 12 0 C 12 0 C 11 0 C 12 0 C 12 0 C 12 0 C 12 0 C 12 0 C 11 0 C 12 0 C
12 0 C 12 0 C 12 0 C 11 0 C 12 0 C 12 0 C 12 0 C 12 0 C 12 0 C 11 0 C 12 0 C 12 0 C 12 0 C 12 0 C 12 0 C 11 0 C 12 0 C 12 0 C 12 0 C
12 0 C 12 0 C 11 0 C 12 0 C 12 0 C 12 0 C 12 0 C 12 0 C 11 0 C 12 0 C 12 0 C 12 0 C 12 0 C 12 0 C 11 0 C 12 0 C 12 0 C 12 0 C 12 0 C
12 0 C 11 0 C 12 0 C 12 0 C 12 0 C 12 0 C 12 0 C 11 0 C 12 0 C 12 0 C 12 0 C 12 0 C 11 0 C 12 0 C 12 0 C 12 0 C 12 0 C 12 0 C 11 0 C
12 0 C 12 0 C 12 0 C 12 0 C 12 0 C 11 0 C 12 0 C 12 0 C 12 0 C 12 0 C 12 0 C 11 0 C 12 0 C 12 0 C 12 0 C 12 0 C 12 0 C 11 0 C 12 0 C
12 0 C 12 0 C 12 0 C 12 0 C 11 0 C 12 0 C 12 0 C 12 0 C 12 0 C 12 0 C 11 0 C 12 0 C 12 0 C 12 0 C 12 0 C 12 0 C 11 0 C 12 0 C 12 0 C
12 0 C 12 0 C 11 0 C 12 0 C 12 0 C 12 0 C 12 0 C 12 0 C 11 0 C 12 0 C 12 0 C 12 0 C 12 0 C 12 0 C 11 0 C 12 0 C 12 0 C 12 0 C 12 0 C
12 0 C 11 0 C 12 0 C 12 0 C 12 0 C 12 0 C 12 0 C 11 0 C 12 0 C 12 0 C 12 0 C 12 0 C 12 0 C 11 0 C 12 0 C 12 0 C 12 0 C 12 0 C 12 0 C
11 0 C 12 0 C 12 0 C 12 0 C 12 0 C 12 0 C 11 0 C 12 0 C 12 0 C 12 0 C 12 0 C 12 0 C 11 0 C 12 0 C 12 0 C 12 1 C 12 0 C 11 1 C 12 1 C
12 2 C 12 2 C 12 3 C 12 5 C 11 6 C 12 10 C 12 13 C 12 16 C 12 21 C 12 26 C 11 32 C 12 37 C 12 43 C 12 49 C 12 55 C 12 59 C 11 63 C
12 66 C 12 70 C 12 70 C 12 69 C 12 69 C 11 68 C 12 65 C 12 65 C 12 60 C 12 55 C 12 53 C 11 48 C 12 46 C 12 39 C 12 37 C 12 31 C
12 29 4367 2526 L 11 27 C 12 22 C 12 20 C 12 17 C 12 15 C 12 12 C 11 11 C 12 8 C 12 6 C 12 7 C 12 5 C 11 2 C 12 3 C 12 2 C 12 1 C
12 -1 C 12 0 C 11 -2 C 12 -2 C 12 -2 C 12 -2 C 12 -4 C 12 -3 C 11 -4 C 12 -4 C 12 -6 C 12 -3 C 12 -6 C 12 -5 C 11 -5 C 12 -6 C
12 -6 C 12 -5 C 12 -6 C 12 -6 C 11 -8 C 12 -6 C 12 -5 C 12 -8 C 12 -8 C 12 -7 C 11 -7 C 12 -7 C 12 -8 C 12 -7 C 12 -8 C 12 -8 C
11 -8 C 12 -7 C 12 -9 C 12 -7 C 12 -10 C 12 -7 C 11 -8 C 12 -8 C 12 -9 C 12 -8 C 12 -9 C 11 -9 C 12 -8 C 12 -9 C 12 -8 C 12 -10 C
12 -8 C 11 -10 C 12 -8 C 12 -10 C 12 -9 C 12 -9 C 12 -9 C 11 -9 C 12 -9 C 12 -9 C 12 -9 C 12 -10 C 12 -8 C 11 -8 C 12 -10 C 12 -10 C
12 -9 C 12 -9 C 12 -10 C 11 -8 C 12 -9 C 12 -10 C 12 -9 C 12 -10 C 12 -10 C 11 -9 C 12 -9 C 12 -10 C 12 -9 C 12 -10 C 12 -11 C
11 -9 C 12 -11 C 12 -10 C 12 -10 C 12 -10 C 12 -11 C 11 -10 C 12 -10 C 12 -10 C 12 -11 C 12 -10 C 11 -11 C 12 -10 C 12 -10 C
12 -10 C 12 -11 C 12 -10 C 11 -10 C 12 -11 C 12 -9 C 12 -10 C 12 -10 C 12 -11 C 11 -10 C 12 -9 C 12 -10 C 12 -10 C 12 -9 C 12 -11 C
11 -9 C 12 -10 C 12 -9 C 12 -9 C 12 -10 C 12 -10 C 11 -8 C 12 -10 C 12 -9 C 12 -8 C 12 -9 C 12 -10 C 11 -8 C 12 -9 C 12 -9 C 12 -8 C
12 -9 C 12 -8 C 11 -8 C 12 -9 C 12 -8 C 12 -8 C 12 -8 C 12 -8 C 11 -8 C 12 -8 C 12 -8 C 12 -7 C 12 -8 C 11 -6 C 12 -8 C 12 -8 C
12 -7 C 12 -7 C 12 -8 C 11 -7 C 12 -7 C 12 -6 C 12 -8 C 12 -6 C 12 -7 C 11 -6 C 12 -7 C 12 -6 C 12 -7 C 12 -6 C 12 -6 C 11 -7 C
12 -5 C 12 -7 C 12 -5 C 12 -6 C 12 -5 C 11 -7 C 12 -6 C 12 -4 C 12 -6 C 12 -5 C 12 -5 C 11 -6 C 12 -5 C 12 -4 C 12 -6 C 12 -3 C
12 -6 C 11 -4 C 12 -5 C 12 -4 C 12 -5 C 12 -4 C 12 -5 C 11 -3 C 12 -4 C 12 -4 C 12 -4 C 12 -4 C 11 -4 C 12 -4 6744 1312 L 12 -3 C
12 -4 C 12 -3 C 12 -3 C 11 -4 C 12 -3 C 12 -3 C 12 -4 C 12 -3 C 12 -2 C 11 -3 C 12 -3 C 12 -3 C 12 -2 C 12 -3 C 12 -3 C 11 -2 C
12 -3 C 12 -2 C 12 -3 C 12 -2 C 12 -2 C 11 -2 C 12 -2 C 12 -2 C 12 -2 C 12 -2 C 12 -2 C 11 -2 C 12 -2 C 12 -2 C 12 -1 C 12 -2 C
12 -2 C 11 -1 C 12 -2 C 12 -1 C 12 -1 C 12 -2 C 12 -2 C 11 -1 C 12 -1 C 12 -2 C 12 -1 C 12 -1 C 12 -1 C 11 -1 C 12 -1 C 12 -2 C
12 -1 C 12 0 C 11 -1 C 12 -1 C 12 -1 C 12 -1 C 12 -1 C 12 -1 C 11 -1 C 12 -1 C 12 0 C 12 -2 C 12 0 C 12 0 C 11 -1 C 12 -1 C 12 0 C
12 -1 C 12 0 C 12 -1 C 11 0 C 12 -1 C 12 0 C 12 -1 C 12 -1 C 12 0 C 11 -1 C 12 0 C 12 -1 C 12 0 C 12 -1 C 12 0 C 11 0 C 12 -1 C
12 0 C 12 -1 C 12 0 C 12 0 C 11 -1 C 12 0 C 12 0 C 12 0 C 12 -1 C 12 0 C 11 0 C 12 -1 C 12 0 C 12 0 C 12 0 C 11 0 C 12 -1 C 12 0 C
12 0 C 12 0 C 12 0 C 11 0 C 12 -1 C 12 0 C 12 0 C 12 0 C 12 0 C 11 0 C 12 0 C 12 -1 C 12 0 C 12 0 C 12 0 C 11 0 C 12 0 C 12 0 C
12 0 C 12 -1 C 12 0 C 11 0 C 12 0 C 12 0 C 12 0 C 12 0 C 12 0 C 11 0 C 12 0 C 12 0 C 12 0 C 12 -1 C 12 0 C 11 0 C 12 0 C 12 0 C
12 0 C 12 0 C 12 0 C 11 0 C 12 0 C 12 0 C 12 0 C 12 0 C 11 0 C 12 0 C 12 0 C 12 0 C 12 0 C 12 0 C 11 0 C 12 0 C 12 0 C 12 0 C 12 0 C
12 -1 C 11 0 C 12 0 C 12 0 C 12 0 C 12 0 C 12 0 C 11 0 C 12 0 C 12 0 C 12 0 C 12 0 C 12 0 C 11 0 C 12 0 C 12 0 C 12 0 C 12 0 C
12 0 C 11 0 C 12 0 C 12 0 C 12 0 C 12 0 C 12 0 C 11 0 C 12 0 C 12 0 C 12 0 C 12 0 C 12 0 C 11 0 C 12 0 C 12 0 C 12 0 C 12 0 C 11 0 C
12 0 C 12 0 C 12 0 C 12 0 C 12 0 C 11 0 C 12 0 C 12 0 9122 1170 L 12 0 C 12 0 C 12 0 C 11 0 C 12 0 C 12 0 C 12 0 C 12 0 C 12 0 C
11 0 C 12 0 C 12 0 C 12 0 C 12 0 C 12 0 C 11 0 C 12 0 C 12 0 C 12 0 C 12 0 C 12 0 C 11 0 C 12 0 C 12 0 C 12 0 C 12 0 C 12 0 C 11 0 C
12 0 C 12 0 C 12 0 C 12 0 C 12 0 C 11 0 C 12 0 C 12 0 C 12 0 C 12 0 C 11 0 C 12 0 C 12 0 C 12 0 C 12 0 C 12 0 C 11 0 C 12 0 C 12 0 C
12 0 C 12 0 C 12 0 C 11 0 C 12 0 C 12 0 C 12 0 C 12 0 C 12 0 C 11 0 C 12 0 C 12 0 C 12 0 C 12 0 C 12 0 C 11 0 C 12 0 C 12 0 C 12 0 C
12 0 C 12 0 C 11 0 C 12 0 C 12 0 C
0 1024 0 K 12 0 1634 1170 L 12 0 C 11 0 C 12 0 C 12 0 C 12 0 C 12 0 C 12 0 C 11 0 C 12 0 C 12 0 C 12 0 C 12 0 C 12 0 C 11 0 C 12 0 C
12 0 C 12 0 C 12 0 C 12 0 C 11 0 C 12 0 C 12 0 C 12 0 C 12 0 C 12 0 C 11 0 C 12 0 C 12 0 C 12 0 C 12 0 C 12 0 C 11 0 C 12 0 C 12 0 C
12 0 C 12 0 C 12 0 C 11 0 C 12 0 C 12 0 C 12 0 C 12 0 C 12 0 C 11 0 C 12 0 C 12 0 C 12 0 C 12 0 C 11 0 C 12 0 C 12 0 C 12 0 C 12 0 C
12 0 C 11 0 C 12 0 C 12 0 C 12 0 C 12 0 C 12 0 C 11 0 C 12 0 C 12 0 C 12 0 C 12 0 C 12 0 C 11 0 C 12 0 C 12 0 C 12 0 C 12 0 C 12 0 C
11 0 C 12 0 C 12 0 C 12 0 C 12 0 C 12 0 C 11 0 C 12 0 C 12 0 C 12 0 C 12 0 C 12 0 C 11 0 C 12 0 C 12 0 C 12 0 C 12 0 C 12 0 C 11 0 C
12 0 C 12 0 C 12 0 C 12 0 C 11 0 C 12 0 C 12 0 C 12 0 C 12 0 C 12 0 C 11 0 C 12 0 C 12 0 C 12 0 C 12 0 C 12 0 C 11 0 C 12 0 C 12 0 C
12 0 C 12 0 C 12 0 C 11 0 C 12 0 C 12 0 C 12 1 C 12 0 C 12 1 C 11 1 C 12 2 C 12 3 C 12 4 C 12 6 C 12 10 C 11 13 C 12 18 C 12 24 C
12 33 C 12 41 C 12 49 C 11 62 C 12 71 C 12 78 C 12 88 C 12 92 C 12 97 C 11 97 C 12 98 C 12 92 C 12 89 C 12 83 C 11 76 C 12 69 C
12 60 C 12 55 C 12 46 C 12 46 C 11 33 C 12 34 C 12 27 C 12 21 C 12 21 C 12 16 C 11 14 C 12 10 C 12 10 C 12 9 C 12 6 C 12 4 C 11 5 C
12 2 C 12 3 C 12 1 C 12 1 C 12 -1 C 11 1 C 12 -4 C 12 -2 C 12 -1 C 12 -5 C 12 -2 C 11 0 C 12 -6 C 12 -7 C 12 -2 C 12 -7 C 12 -5 C
11 -8 C 12 -6 C 12 -6 C 12 -9 C 12 -6 C 12 -10 C 11 -9 C 12 -7 C 12 -11 C 12 -11 C 12 -11 C 12 -11 C 11 -13 C 12 -12 C 12 -14 C
12 -13 C 12 -14 C 11 -13 C 12 -15 C 12 -15 C 12 -18 C 12 -17 C 12 -15 4012 2602 L 11 -17 C 12 -21 C 12 -17 C 12 -20 C 12 -19 C
12 -19 C 11 -21 C 12 -20 C 12 -21 C 12 -24 C 12 -22 C 12 -21 C 11 -24 C 12 -24 C 12 -24 C 12 -24 C 12 -22 C 12 -26 C 11 -24 C
12 -24 C 12 -25 C 12 -25 C 12 -26 C 12 -26 C 11 -26 C 12 -25 C 12 -25 C 12 -25 C 12 -24 C 12 -27 C 11 -24 C 12 -25 C 12 -24 C
12 -24 C 12 -25 C 12 -23 C 11 -23 C 12 -23 C 12 -23 C 12 -22 C 12 -22 C 11 -21 C 12 -21 C 12 -20 C 12 -19 C 12 -20 C 12 -18 C
11 -18 C 12 -18 C 12 -17 C 12 -16 C 12 -16 C 12 -16 C 11 -14 C 12 -14 C 12 -14 C 12 -13 C 12 -12 C 12 -12 C 11 -11 C 12 -11 C
12 -10 C 12 -9 C 12 -9 C 12 -9 C 11 -8 C 12 -8 C 12 -7 C 12 -7 C 12 -7 C 12 -5 C 11 -6 C 12 -5 C 12 -5 C 12 -5 C 12 -4 C 12 -4 C
11 -4 C 12 -3 C 12 -3 C 12 -3 C 12 -3 C 12 -2 C 11 -2 C 12 -2 C 12 -2 C 12 -2 C 12 -2 C 11 -1 C 12 -1 C 12 -1 C 12 -2 C 12 -1 C
12 -1 C 11 0 C 12 -1 C 12 -1 C 12 0 C 12 -1 C 12 0 C 11 -1 C 12 0 C 12 0 C 12 -1 C 12 0 C 12 0 C 11 -1 C 12 0 C 12 0 C 12 0 C 12 0 C
12 0 C 11 0 C 12 -1 C 12 0 C 12 0 C 12 0 C 12 0 C 11 0 C 12 0 C 12 0 C 12 0 C 12 0 C 12 0 C 11 0 C 12 0 C 12 0 C 12 0 C 12 0 C
12 0 C 11 0 C 12 0 C 12 0 C 12 0 C 12 0 C 11 0 C 12 0 C 12 0 C 12 0 C 12 0 C 12 0 C 11 0 C 12 0 C 12 0 C 12 0 C 12 0 C 12 0 C 11 0 C
12 0 C 12 0 C 12 0 C 12 0 C 12 0 C 11 0 C 12 0 C 12 0 C 12 0 C 12 0 C 12 0 C 11 0 C 12 0 C 12 0 C 12 0 C 12 0 C 12 0 C 11 0 C 12 0 C
12 0 C 12 0 C 12 0 C 12 0 C 11 0 C 12 0 C 12 0 C 12 0 C 12 0 C 12 0 C 11 0 C 12 0 C 12 0 C 12 0 C 12 0 C 11 0 C 12 0 C 12 0 C 12 0 C
12 0 C 12 0 C 11 0 C 12 0 C 12 0 C 12 0 C 12 0 C 12 0 C 11 0 C 12 0 C 12 0 C 12 0 C 12 0 C 12 0 C 11 0 6390 1170 L 12 0 C 12 0 C
12 0 C 12 0 C 12 0 C 11 0 C 12 0 C 12 0 C 12 0 C 12 0 C 12 0 C 11 0 C 12 0 C 12 0 C 12 0 C 12 0 C 12 0 C 11 0 C 12 0 C 12 0 C 12 0 C
12 0 C 12 0 C 11 0 C 12 0 C 12 0 C 12 0 C 12 0 C 11 0 C 12 0 C 12 0 C 12 0 C 12 0 C 12 0 C 11 0 C 12 0 C 12 0 C 12 0 C 12 0 C 12 0 C
11 0 C 12 0 C 12 0 C 12 0 C 12 0 C 12 0 C 11 0 C 12 0 C 12 0 C 12 0 C 12 0 C 12 0 C 11 0 C 12 0 C 12 0 C 12 0 C 12 0 C 12 0 C 11 0 C
12 0 C 12 0 C 12 0 C 12 0 C 12 0 C 11 0 C 12 0 C 12 0 C 12 0 C 12 0 C 12 0 C 11 0 C 12 0 C 12 0 C 12 0 C 12 0 C 12 0 C 11 0 C 12 0 C
12 0 C 12 0 C 12 0 C 11 0 C 12 0 C 12 0 C 12 0 C 12 0 C 12 0 C 11 0 C 12 0 C 12 0 C 12 0 C 12 0 C 12 0 C 11 0 C 12 0 C 12 0 C 12 0 C
12 0 C 12 0 C 11 0 C 12 0 C 12 0 C 12 0 C 12 0 C 12 0 C 11 0 C 12 0 C 12 0 C 12 0 C 12 0 C 12 0 C 11 0 C 12 0 C 12 0 C 12 0 C 12 0 C
12 0 C 11 0 C 12 0 C 12 0 C 12 0 C 12 0 C 12 0 C 11 0 C 12 0 C 12 0 C 12 0 C 12 0 C 11 0 C 12 0 C 12 0 C 12 0 C 12 0 C 12 0 C 11 0 C
12 0 C 12 0 C 12 0 C 12 0 C 12 0 C 11 0 C 12 0 C 12 0 C 12 0 C 12 0 C 12 0 C 11 0 C 12 0 C 12 0 C 12 0 C 12 0 C 12 0 C 11 0 C 12 0 C
12 0 C 12 0 C 12 0 C 12 0 C 11 0 C 12 0 C 12 0 C 12 0 C 12 0 C 12 0 C 11 0 C 12 0 C 12 0 C 12 0 C 12 0 C 12 0 C 11 0 C 12 0 C 12 0 C
12 0 C 12 0 C 11 0 C 12 0 C 12 0 C 12 0 C 12 0 C 12 0 C 11 0 C 12 0 C 12 0 C 12 0 C 12 0 C 12 0 C 11 0 C 12 0 C 12 0 C 12 0 C 12 0 C
12 0 C 11 0 C 12 0 C 12 0 C 12 0 C 12 0 C 12 0 C 11 0 C 12 0 8767 1170 L 12 0 C 12 0 C 12 0 C 12 0 C 11 0 C 12 0 C 12 0 C 12 0 C
12 0 C 12 0 C 11 0 C 12 0 C 12 0 C 12 0 C 12 0 C 12 0 C 11 0 C 12 0 C 12 0 C 12 0 C 12 0 C 11 0 C 12 0 C 12 0 C 12 0 C 12 0 C 12 0 C
11 0 C 12 0 C 12 0 C 12 0 C 12 0 C 12 0 C 11 0 C 12 0 C 12 0 C 12 0 C 12 0 C 12 0 C 11 0 C 12 0 C 12 0 C 12 0 C 12 0 C 12 0 C 11 0 C
12 0 C 12 0 C 12 0 C 12 0 C 12 0 C 11 0 C 12 0 C 12 0 C 12 0 C 12 0 C 12 0 C 11 0 C 12 0 C 12 0 C 12 0 C 12 0 C 12 0 C 11 0 C 12 0 C
12 0 C 12 0 C 12 0 C 11 0 C 12 0 C 12 0 C 12 0 C 12 0 C 12 0 C 11 0 C 12 0 C 12 0 C 12 0 C 12 0 C 12 0 C 11 0 C 12 0 C 12 0 C 12 0 C
12 0 C 12 0 C 11 0 C 12 0 C 12 0 C 12 0 C 12 0 C 12 0 C 11 0 C 12 0 C 12 0 C 12 0 C 12 0 C 12 0 C 11 0 C 12 0 C 12 0 C
0 0 1024 K 12 0 1575 1170 L 12 0 C 11 0 C 12 0 C 12 0 C 12 0 C 12 0 C 11 0 C 12 0 C 12 1 C 12 1 C 12 1 C 12 3 C 11 4 C 12 4 C 12 7 C
12 10 C 12 11 C 12 15 C 11 17 C 12 21 C 12 24 C 12 26 C 12 28 C 12 31 C 11 32 C 12 35 C 12 36 C 12 36 C 12 37 C 12 39 C 11 39 C
12 38 C 12 39 C 12 38 C 12 37 C 12 37 C 11 37 C 12 36 C 12 33 C 12 32 C 12 35 C 12 31 C 11 31 C 12 30 C 12 27 C 12 27 C 12 25 C
12 25 C 11 22 C 12 24 C 12 20 C 12 21 C 12 16 C 11 20 C 12 17 C 12 18 C 12 14 C 12 12 C 12 16 C 11 14 C 12 15 C 12 11 C 12 11 C
12 12 C 12 8 C 11 9 C 12 8 C 12 8 C 12 10 C 12 5 C 12 8 C 11 9 C 12 7 C 12 3 C 12 6 C 12 4 C 12 5 C 11 1 C 12 5 C 12 1 C 12 2 C
12 -1 C 12 3 C 11 1 C 12 -2 C 12 0 C 12 0 C 12 1 C 12 -2 C 11 -4 C 12 1 C 12 -3 C 12 -5 C 12 -2 C 12 -1 C 11 -2 C 12 -3 C 12 -4 C
12 -6 C 12 -8 C 11 -4 C 12 -7 C 12 -6 C 12 -9 C 12 -9 C 12 -7 C 11 -12 C 12 -4 C 12 -8 C 12 -11 C 12 -9 C 12 -12 C 11 -12 C 12 -14 C
12 -14 C 12 -14 C 12 -16 C 12 -17 C 11 -20 C 12 -21 C 12 -21 C 12 -24 C 12 -25 C 12 -26 C 11 -27 C 12 -27 C 12 -28 C 12 -29 C
12 -28 C 12 -28 C 11 -28 C 12 -29 C 12 -30 C 12 -29 C 12 -29 C 12 -31 C 11 -29 C 12 -29 C 12 -28 C 12 -27 C 12 -26 C 12 -28 C
11 -25 C 12 -23 C 12 -24 C 12 -21 C 12 -21 C 11 -18 C 12 -19 C 12 -15 C 12 -16 C 12 -15 C 12 -13 C 11 -15 C 12 -14 C 12 -16 C
12 -15 C 12 -16 C 12 -16 C 11 -15 C 12 -15 C 12 -14 C 12 -11 C 12 -12 C 12 -11 C 11 -9 C 12 -9 C 12 -8 C 12 -9 C 12 -7 C 12 -8 C
11 -7 C 12 -6 C 12 -7 C 12 -5 C 12 -6 C 12 -4 C 11 -5 C 12 -4 C 12 -4 C 12 -3 C 12 -2 C 12 -3 C 11 -2 C 12 -2 C 12 0 C 12 -2 C
12 -1 C 12 -1 C 11 -1 C 12 0 C 12 -1 C 12 0 C 12 0 C 12 0 C 11 0 C 12 0 C 12 0 C 12 0 C 12 0 C 11 1 3953 1183 L 12 1 C 12 1 C 12 1 C
12 1 C 12 1 C 11 0 C 12 1 C 12 1 C 12 1 C 12 1 C 12 1 C 11 0 C 12 0 C 12 0 C 12 -1 C 12 -1 C 12 0 C 11 -1 C 12 -1 C 12 -1 C 12 -1 C
12 -2 C 12 -1 C 11 -2 C 12 -1 C 12 -2 C 12 -1 C 12 -2 C 12 -1 C 11 -1 C 12 -1 C 12 0 C 12 -1 C 12 -1 C 12 0 C 11 -1 C 12 0 C 12 0 C
12 0 C 12 0 C 12 -1 C 11 0 C 12 0 C 12 0 C 12 0 C 12 0 C 11 0 C 12 0 C 12 0 C 12 0 C 12 0 C 12 0 C 11 0 C 12 0 C 12 0 C 12 0 C
12 0 C 12 0 C 11 0 C 12 0 C 12 0 C 12 0 C 12 0 C 12 0 C 11 0 C 12 0 C 12 0 C 12 0 C 12 0 C 12 0 C 11 0 C 12 0 C 12 0 C 12 0 C 12 0 C
12 0 C 11 0 C 12 0 C 12 0 C 12 0 C 12 0 C 12 0 C 11 0 C 12 0 C 12 0 C 12 0 C 12 0 C 12 0 C 11 0 C 12 0 C 12 0 C 12 0 C 12 0 C 11 0 C
12 0 C 12 0 C 12 0 C 12 0 C 12 0 C 11 0 C 12 0 C 12 0 C 12 0 C 12 0 C 12 0 C 11 0 C 12 0 C 12 0 C 12 0 C 12 0 C 12 0 C 11 0 C 12 0 C
12 0 C 12 0 C 12 0 C 12 0 C 11 0 C 12 0 C 12 0 C 12 0 C 12 0 C 12 0 C 11 0 C 12 0 C 12 0 C 12 0 C 12 0 C 12 0 C 11 0 C 12 0 C 12 0 C
12 0 C 12 0 C 12 0 C 11 0 C 12 0 C 12 0 C 12 0 C 12 0 C 11 0 C 12 0 C 12 0 C 12 0 C 12 0 C 12 0 C 11 0 C 12 0 C 12 0 C 12 0 C 12 0 C
12 0 C 11 0 C 12 0 C 12 0 C 12 0 C 12 0 C 12 0 C 11 0 C 12 0 C 12 0 C 12 0 C 12 0 C 12 0 C 11 0 C 12 0 C 12 0 C 12 0 C 12 0 C 12 0 C
11 0 C 12 0 C 12 0 C 12 0 C 12 0 C 12 0 C 11 0 C 12 0 C 12 0 C 12 0 C 12 0 C 12 0 C 11 0 C 12 0 C 12 0 C 12 0 C 12 0 C 11 0 C 12 0 C
12 0 C 12 0 C 12 0 C 12 0 C 11 0 C 12 0 C 12 0 C 12 0 C 12 0 C 12 0 C 11 0 C 12 0 6330 1170 L 12 0 C 12 0 C 12 0 C 12 0 C 11 0 C
12 0 C 12 0 C 12 0 C 12 0 C 12 0 C 11 0 C 12 0 C 12 0 C 12 0 C 12 0 C 12 0 C 11 0 C 12 0 C 12 0 C 12 0 C 12 0 C 12 0 C 11 0 C 12 0 C
12 0 C 12 0 C 12 0 C 12 0 C 11 0 C 12 0 C 12 0 C 12 0 C 12 0 C 11 0 C 12 0 C 12 0 C 12 0 C 12 0 C 12 0 C 11 0 C 12 0 C 12 0 C 12 0 C
12 0 C 12 0 C 11 0 C 12 0 C 12 0 C 12 0 C 12 0 C 12 0 C 11 0 C 12 0 C 12 0 C 12 0 C 12 0 C 12 0 C 11 0 C 12 0 C 12 0 C 12 0 C 12 0 C
12 0 C 11 0 C 12 0 C 12 0 C 12 0 C 12 0 C 12 0 C 11 0 C 12 0 C 12 0 C 12 0 C 12 0 C 12 0 C 11 0 C 12 0 C 12 0 C 12 0 C 12 0 C 12 0 C
11 0 C 12 0 C 12 0 C 12 0 C 12 0 C 11 0 C 12 0 C 12 0 C 12 0 C 12 0 C 12 0 C 11 0 C 12 0 C 12 0 C 12 0 C 12 0 C 12 0 C 11 0 C 12 0 C
12 0 C 12 0 C 12 0 C 12 0 C 11 0 C 12 0 C 12 0 C 12 0 C 12 0 C 12 0 C 11 0 C 12 0 C 12 0 C 12 0 C 12 0 C 12 0 C 11 0 C 12 0 C 12 0 C
12 0 C 12 0 C 12 0 C 11 0 C 12 0 C 12 0 C 12 0 C 12 0 C 12 0 C 11 0 C 12 0 C 12 0 C 12 0 C 12 0 C 11 0 C 12 0 C 12 0 C 12 0 C 12 0 C
12 0 C 11 0 C 12 0 C 12 0 C 12 0 C 12 0 C 12 0 C 11 0 C 12 0 C 12 0 C 12 0 C 12 0 C 12 0 C 11 0 C 12 0 C 12 0 C 12 0 C 12 0 C 12 0 C
11 0 C 12 0 C 12 0 C 12 0 C 12 0 C 12 0 C 11 0 C 12 0 C 12 0 C 12 0 C 12 0 C 12 0 C 11 0 C 12 0 C 12 0 C 12 0 C 12 0 C 12 0 C 11 0 C
12 0 C 12 0 C 12 0 C 12 0 C 11 0 C 12 0 C 12 0 C 12 0 C 12 0 C 12 0 C 11 0 C 12 0 C 12 0 C 12 0 C 12 0 C 12 0 C 11 0 C 12 0 C 12 0 C
12 0 C 12 0 C 12 0 C 11 0 C 12 0 C 12 0 8708 1170 L 12 0 C 12 0 C 12 0 C 11 0 C 12 0 C 12 0 C 12 0 C 12 0 C 12 0 C 11 0 C 12 0 C
12 0 C 12 0 C 12 0 C 12 0 C 11 0 C 12 0 C 12 0 C 12 0 C 12 0 C 12 0 C 11 0 C 12 0 C 12 0 C 12 0 C 12 0 C 11 0 C 12 0 C 12 0 C 12 0 C
12 0 C 12 0 C 11 0 C 12 0 C 12 0 C 12 0 C 12 0 C 12 0 C 11 0 C 12 0 C 12 0 C 12 0 C 12 0 C 12 0 C 11 0 C 12 0 C 12 0 C 12 0 C 12 0 C
12 0 C 11 0 C 12 0 C 12 0 C 12 0 C 12 0 C 12 0 C 11 0 C 12 0 C 12 0 C 12 0 C 12 0 C 12 0 C 11 0 C 12 0 C 12 0 C 12 0 C 12 0 C 12 0 C
11 0 C 12 0 C 12 0 C 12 0 C 12 0 C 11 0 C 12 0 C 12 0 C 12 0 C 12 0 C 12 0 C 11 0 C 12 0 C 12 0 C 12 0 C 12 0 C 12 0 C 11 0 C 12 0 C
12 0 C 12 0 C 12 0 C 12 0 C 11 0 C 12 0 C 12 0 C 12 0 C 12 0 C 12 0 C 11 0 C 12 0 C 12 0 C 12 0 C 12 0 C 12 0 C 11 0 C 12 0 C 12 0 C
558 276 76 K 12 0 1989 1170 L 12 0 C 11 0 C 12 0 C 12 0 C 12 0 C 12 0 C 12 0 C 11 0 C 12 0 C 12 0 C 12 0 C 12 0 C 12 0 C 11 0 C
12 0 C 12 0 C 12 0 C 12 0 C 11 0 C 12 0 C 12 0 C 12 0 C 12 0 C 12 0 C 11 0 C 12 0 C 12 0 C 12 0 C 12 0 C 12 0 C 11 0 C 12 0 C 12 0 C
12 0 C 12 0 C 12 0 C 11 0 C 12 0 C 12 0 C 12 0 C 12 0 C 12 0 C 11 0 C 12 0 C 12 0 C 12 0 C 12 0 C 12 0 C 11 0 C 12 0 C 12 0 C 12 0 C
12 0 C 12 0 C 11 0 C 12 0 C 12 0 C 12 0 C 12 0 C 12 0 C 11 0 C 12 0 C 12 0 C 12 0 C 12 0 C 11 0 C 12 0 C 12 0 C 12 0 C 12 0 C 12 0 C
11 0 C 12 0 C 12 0 C 12 0 C 12 0 C 12 0 C 11 0 C 12 0 C 12 0 C 12 0 C 12 0 C 12 0 C 11 0 C 12 0 C 12 0 C 12 0 C 12 0 C 12 0 C 11 0 C
12 0 C 12 0 C 12 0 C 12 0 C 12 0 C 11 0 C 12 0 C 12 0 C 12 0 C 12 0 C 12 0 C 11 0 C 12 0 C 12 0 C 12 0 C 12 0 C 12 0 C 11 0 C 12 0 C
12 0 C 12 0 C 12 0 C 11 0 C 12 0 C 12 0 C 12 0 C 12 0 C 12 0 C 11 0 C 12 0 C 12 0 C 12 0 C 12 0 C 12 0 C 11 0 C 12 0 C 12 0 C 12 0 C
12 0 C 12 0 C 11 0 C 12 0 C 12 0 C 12 0 C 12 0 C 12 0 C 11 0 C 12 0 C 12 0 C 12 0 C 12 0 C 12 0 C 11 0 C 12 0 C 12 0 C 12 0 C 12 0 C
12 0 C 11 0 C 12 0 C 12 0 C 12 0 C 12 0 C 12 0 C 11 0 C 12 0 C 12 0 C 12 0 C 12 0 C 12 0 C 11 0 C 12 0 C 12 0 C 12 0 C 12 0 C 11 0 C
12 0 C 12 0 C 12 0 C 12 0 C 12 0 C 11 0 C 12 0 C 12 0 C 12 0 C 12 0 C 12 0 C 11 0 C 12 0 C 12 0 C 12 0 C 12 0 C 12 0 C 11 0 C 12 0 C
12 0 C 12 0 C 12 0 C 12 0 C 11 0 C 12 0 C 12 0 C 12 0 C 12 0 C 12 0 C 11 0 C 12 0 C 12 0 C 12 0 C 12 0 C 12 0 4367 1170 L 11 0 C
12 0 C 12 0 C 12 0 C 12 0 C 12 0 C 11 0 C 12 0 C 12 0 C 12 0 C 12 0 C 11 0 C 12 0 C 12 0 C 12 0 C 12 0 C 12 0 C 11 0 C 12 0 C 12 0 C
12 0 C 12 0 C 12 0 C 11 0 C 12 0 C 12 0 C 12 0 C 12 0 C 12 0 C 11 0 C 12 0 C 12 0 C 12 0 C 12 0 C 12 0 C 11 0 C 12 0 C 12 0 C 12 0 C
12 0 C 12 0 C 11 0 C 12 0 C 12 0 C 12 0 C 12 0 C 12 0 C 11 0 C 12 0 C 12 0 C 12 0 C 12 0 C 12 0 C 11 0 C 12 0 C 12 0 C 12 0 C 12 0 C
11 0 C 12 0 C 12 0 C 12 0 C 12 0 C 12 0 C 11 0 C 12 0 C 12 0 C 12 0 C 12 0 C 12 0 C 11 0 C 12 0 C 12 0 C 12 0 C 12 0 C 12 0 C 11 0 C
12 0 C 12 0 C 12 0 C 12 0 C 12 0 C 11 0 C 12 0 C 12 0 C 12 0 C 12 0 C 12 0 C 11 0 C 12 0 C 12 0 C 12 0 C 12 0 C 12 0 C 11 0 C 12 0 C
12 0 C 12 0 C 12 0 C 12 0 C 11 0 C 12 0 C 12 0 C 12 0 C 12 0 C 11 0 C 12 0 C 12 0 C 12 0 C 12 0 C 12 0 C 11 0 C 12 0 C 12 0 C 12 0 C
12 1 C 12 1 C 11 1 C 12 2 C 12 2 C 12 4 C 12 5 C 12 6 C 11 8 C 12 11 C 12 13 C 12 15 C 12 19 C 12 22 C 11 24 C 12 28 C 12 31 C
12 34 C 12 37 C 12 39 C 11 40 C 12 43 C 12 46 C 12 45 C 12 47 C 12 48 C 11 47 C 12 47 C 12 48 C 12 46 C 12 46 C 12 44 C 11 45 C
12 42 C 12 40 C 12 41 C 12 37 C 11 36 C 12 34 C 12 34 C 12 31 C 12 30 C 12 27 C 11 29 C 12 23 C 12 24 C 12 22 C 12 21 C 12 20 C
11 18 C 12 18 C 12 15 C 12 16 C 12 13 C 12 13 C 11 15 C 12 12 C 12 8 C 12 11 C 12 10 C 12 7 C 11 12 C 12 7 C 12 9 C 12 4 C 12 9 C
12 5 C 11 3 C 12 9 C 12 4 C 12 7 C 12 3 C 12 6 C 11 2 C 12 4 C 12 6 C 12 2 C 12 2 C 12 5 C 11 0 C 12 6 C 12 1 C 12 4 C 12 0 C 11 9 C
12 -2 6744 2831 L 12 1 C 12 6 C 12 1 C 12 1 C 11 5 C 12 0 C 12 3 C 12 -2 C 12 4 C 12 2 C 11 0 C 12 1 C 12 1 C 12 1 C 12 3 C 12 1 C
11 -2 C 12 3 C 12 -1 C 12 3 C 12 2 C 12 -2 C 11 4 C 12 -4 C 12 4 C 12 -3 C 12 5 C 12 1 C 11 -2 C 12 0 C 12 2 C 12 -1 C 12 2 C
12 -1 C 11 0 C 12 -2 C 12 4 C 12 1 C 12 -4 C 12 2 C 11 -1 C 12 2 C 12 -3 C 12 0 C 12 0 C 12 -3 C 11 4 C 12 0 C 12 -2 C 12 2 C
12 -4 C 11 1 C 12 -6 C 12 6 C 12 -5 C 12 -6 C 12 2 C 11 2 C 12 1 C 12 -3 C 12 -3 C 12 1 C 12 1 C 11 1 C 12 -6 C 12 -1 C 12 -4 C
12 4 C 12 -6 C 11 4 C 12 -1 C 12 -4 C 12 3 C 12 -11 C 12 -11 C 11 -1 C 12 -1 C 12 1 C 12 0 C 12 -4 C 12 -4 C 11 -1 C 12 -1 C 12 -1 C
12 -2 C 12 -3 C 12 -2 C 11 -1 C 12 0 C 12 -2 C 12 -2 C 12 -3 C 12 -4 C 11 -2 C 12 -1 C 12 -2 C 12 -2 C 12 -2 C 11 -3 C 12 -2 C
12 -2 C 12 -1 C 12 0 C 12 -3 C 11 -3 C 12 -2 C 12 -2 C 12 -4 C 12 -3 C 12 -2 C 11 -2 C 12 -2 C 12 -2 C 12 -3 C 12 -4 C 12 -2 C
11 -2 C 12 -4 C 12 -4 C 12 -1 C 12 -1 C 12 -4 C 11 -4 C 12 -2 C 12 -2 C 12 -4 C 12 -3 C 12 -4 C 11 -3 C 12 -2 C 12 -2 C 12 -4 C
12 -5 C 12 -1 C 11 -2 C 12 -3 C 12 -3 C 12 -5 C 12 -5 C 12 -3 C 11 -3 C 12 -3 C 12 -3 C 12 -2 C 12 -2 C 11 -3 C 12 -2 C 12 -6 C
12 -6 C 12 -4 C 12 -3 C 11 -4 C 12 -4 C 12 -3 C 12 -4 C 12 -3 C 12 -2 C 11 -5 C 12 -5 C 12 -4 C 12 -3 C 12 -4 C 12 -4 C 11 -3 C
12 -2 C 12 -5 C 12 -5 C 12 -5 C 12 -4 C 11 -5 C 12 -6 C 12 -4 C 12 -4 C 12 -4 C 12 -4 C 11 -5 C 12 -4 C 12 -4 C 12 -5 C 12 -6 C
12 -7 C 11 -3 C 12 -4 C 12 -6 C 12 -5 C 12 -6 C 12 -5 C 11 -4 C 12 -4 C 12 -6 C 12 -6 C 12 -5 C 11 -6 C 12 -5 C 12 -6 C 12 -6 C
12 -5 C 12 -7 C 11 -8 C 12 -5 C 12 -5 9122 2401 L 12 -6 C 12 -6 C 12 -6 C 11 -6 C 12 -6 C 12 -6 C 12 -7 C 12 -7 C 12 -6 C 11 -6 C
12 -7 C 12 -6 C 12 -7 C 12 -6 C 12 -9 C 11 -8 C 12 -5 C 12 -6 C 12 -8 C 12 -7 C 12 -8 C 11 -7 C 12 -6 C 12 -7 C 12 -8 C 12 -9 C
12 -8 C 11 -8 C 12 -7 C 12 -8 C 12 -8 C 12 -8 C 12 -9 C 11 -8 C 12 -7 C 12 -7 C 12 -9 C 12 -8 C 11 -9 C 12 -8 C 12 -8 C 12 -8 C
12 -9 C 12 -9 C 11 -10 C 12 -10 C 12 -8 C 12 -7 C 12 -9 C 12 -8 C 11 -10 C 12 -10 C 12 -7 C 12 -7 C 12 -10 C 12 -10 C 11 -10 C
12 -10 C 12 -7 C 12 -7 C 12 -9 C 12 -9 C 11 -11 C 12 -11 C 12 -8 C 12 -8 C 12 -10 C 12 -9 C 11 -10 C 12 -10 C 12 -8 C
0 0 0 K
PGPLOT restore showpage
%%PageTrailer
%%PageBoundingBox: 52 67 576 763
 
%%Trailer
%%BoundingBox: 52 67 576 763
%%DocumentFonts: 
%%Pages: 1
%%EOF
