%!PS-Adobe-3.0 EPSF-3.0
%%Title: PGPLOT PostScript plot
%%Creator: PGPLOT [PSDRIV 6.6]
%%CreationDate: 19-Jun-2010 11:22
%%BoundingBox: (atend)
%%DocumentFonts: (atend)
%%LanguageLevel: 1
%%Orientation: Landscape
%%Pages: (atend)
%%EndComments
%%BeginProlog
/L {moveto rlineto currentpoint stroke moveto} bind def
/C {rlineto currentpoint stroke moveto} bind def
/D {moveto 0 0 rlineto currentpoint stroke moveto} bind def
/LW {5 mul setlinewidth} bind def
/BP {newpath moveto} bind def
/LP /rlineto load def
/EP {rlineto closepath eofill} bind def
/MB {gsave translate MFAC dup scale 1 setlinewidth 2 setlinecap 0 setlinejoin newpath} bind def
/ME /grestore load def
/CC {0 360 arc stroke} bind def
/FC {0 360 arc fill} bind def
/G {1024 div setgray} bind def
/K {3 -1 roll 1024 div 3 -1 roll 1024 div 3 -1 roll 1024 div setrgbcolor} bind def
% Uncomment next line to convert color to grey shades
%/K {3 -1 roll 3413 div 3 -1 roll 1739 div 3 -1 roll 9309 div add add setgray} bind def
%%EndProlog
%%BeginSetup
/#copies 1 def
%%EndSetup
 
%%Page: 1 1
%%BeginPageSetup
/PGPLOT save def
0.072 0.072 scale
8149 250 translate 90 rotate
1 setlinejoin 1 setlinecap 1 LW 1
%%EndPageSetup
%%PageBoundingBox: (atend)
0 0 0 K 3 LW 8399 0 1575 3510 L 0 3899 C -8399 0 C 0 -3899 C 0 67 1650 3510 L 0 135 2400 3510 L 0 67 3150 3510 L 0 135 3900 3510 L
0 67 4650 3510 L 0 135 5399 3510 L 0 67 6149 3510 L 0 135 6899 3510 L 0 67 7649 3510 L 0 135 8399 3510 L 0 67 9149 3510 L
0 135 9899 3510 L 0 67 1650 7342 L 0 135 2400 7274 L 0 67 3150 7342 L 0 135 3900 7274 L 0 67 4650 7342 L 0 135 5399 7274 L
0 67 6149 7342 L 0 135 6899 7274 L 0 67 7649 7342 L 0 135 8399 7274 L 0 67 9149 7342 L 0 135 9899 7274 L 135 0 1575 3510 L
67 0 1575 3935 L 135 0 1575 4360 L 67 0 1575 4785 L 135 0 1575 5210 L 67 0 1575 5635 L 135 0 1575 6060 L 67 0 1575 6485 L
135 0 1575 6910 L 67 0 1575 7335 L 135 0 9839 3510 L 67 0 9907 3935 L 135 0 9839 4360 L 67 0 9907 4785 L 135 0 9839 5210 L
67 0 9907 5635 L 135 0 9839 6060 L 67 0 9907 6485 L 135 0 9839 6910 L 67 0 9907 7335 L 9 -27 1181 3501 L 27 -18 C 45 -9 C 27 0 C
45 9 C 27 18 C 9 27 C 0 18 C -9 27 C -27 18 C -45 9 C -27 0 C -45 -9 C -27 -18 C -9 -27 C 0 -18 C -9 0 1226 4126 L -18 9 C -9 9 C
-9 18 C 0 36 C 9 18 C 9 9 C 18 9 C 18 0 C 18 -9 C 27 -18 C 90 -90 C 0 126 C 9 -27 1181 4351 L 27 -18 C 45 -9 C 27 0 C 45 9 C 27 18 C
9 27 C 0 18 C -9 27 C -27 18 C -45 9 C -27 0 C -45 -9 C -27 -18 C -9 -27 C 0 -18 C 9 -27 1181 4531 L 27 -18 C 45 -9 C 27 0 C 45 9 C
27 18 C 9 27 C 0 18 C -9 27 C -27 18 C -45 9 C -27 0 C -45 -9 C -27 -18 C -9 -27 C 0 -18 C 126 -90 1181 5057 L 0 135 C
189 0 1181 5057 L 9 -27 1181 5201 L 27 -18 C 45 -9 C 27 0 C 45 9 C 27 18 C 9 27 C 0 18 C -9 27 C -27 18 C -45 9 C -27 0 C -45 -9 C
-27 -18 C -9 -27 C 0 -18 C 9 -27 1181 5381 L 27 -18 C 45 -9 C 27 0 C 45 9 C 27 18 C 9 27 C 0 18 C -9 27 C -27 18 C -45 9 C -27 0 C
-45 -9 C -27 -18 C -9 -27 C 0 -18 C -18 -9 1208 5934 L -9 -27 C 0 -18 C 9 -27 C 27 -18 C 45 -9 C 45 0 C 36 9 C 18 18 C 9 27 C 0 9 C
-9 27 C -18 18 C -27 9 C -9 0 C -27 -9 C -18 -18 C -9 -27 C 0 -9 C 9 -27 C 18 -18 C 27 -9 C 9 -27 1181 6051 L 27 -18 C 45 -9 C
27 0 C 45 9 C 27 18 C 9 27 C 0 18 C -9 27 C -27 18 C -45 9 C -27 0 C -45 -9 C -27 -18 C -9 -27 C 0 -18 C 9 -27 1181 6231 L 27 -18 C
45 -9 C 27 0 C 45 9 C 27 18 C 9 27 C 0 18 C -9 27 C -27 18 C -45 9 C -27 0 C -45 -9 C -27 -18 C -9 -27 C 0 -18 C 9 -27 1181 6712 L
18 -9 C 18 0 C 18 9 C 9 18 C 9 36 C 9 27 C 18 18 C 18 9 C 27 0 C 18 -9 C 9 -9 C 9 -27 C 0 -36 C -9 -27 C -9 -9 C -18 -9 C -27 0 C
-18 9 C -18 18 C -9 27 C -9 36 C -9 18 C -18 9 C -18 0 C -18 -9 C -9 -27 C 0 -36 C 9 -27 1181 6901 L 27 -18 C 45 -9 C 27 0 C 45 9 C
27 18 C 9 27 C 0 18 C -9 27 C -27 18 C -45 9 C -27 0 C -45 -9 C -27 -18 C -9 -27 C 0 -18 C 9 -27 1181 7081 L 27 -18 C 45 -9 C 27 0 C
45 9 C 27 18 C 9 27 C 0 18 C -9 27 C -27 18 C -45 9 C -27 0 C -45 -9 C -27 -18 C -9 -27 C 0 -18 C
189 0 742 3956 L -18 -18 832 3956 L -9 -18 C 0 -26 C 9 -18 C 18 -18 C 27 -9 C 18 0 C 27 9 C 18 18 C 9 18 C 0 26 C -9 18 C -18 18 C
126 0 805 4127 L -18 -18 832 4127 L -9 -18 C 0 -27 C 9 -18 C 18 -18 C 27 -9 C 18 0 C 27 9 C 18 18 C 9 18 C 0 27 C -9 18 C -18 18 C
153 0 742 4208 L 27 9 C 9 18 C 0 18 C 0 63 805 4181 L 126 0 805 4406 L -18 -18 832 4406 L -9 -18 C 0 -27 C 9 -18 C 18 -18 C 27 -9 C
18 0 C 27 9 C 18 18 C 9 18 C 0 27 C -9 18 C -18 18 C 18 -18 706 4685 L 27 -18 C 36 -18 C 45 -9 C 36 0 C 45 9 C 36 18 C 27 18 C
18 18 C 126 0 787 4775 L 0 126 850 4712 L 18 18 706 4865 L 27 18 C 36 18 C 45 9 C 36 0 C 45 -9 C 36 -18 C 27 -18 C 18 -18 C
126 0 805 5243 L -18 -18 832 5243 L -9 -18 C 0 -27 C 9 -18 C 18 -18 C 27 -9 C 18 0 C 27 9 C 18 18 C 9 18 C 0 27 C -9 18 C -18 18 C
126 0 805 5315 L -27 27 841 5315 L -9 18 C 0 27 C 9 18 C 27 9 C 90 0 C 189 0 742 5585 L -18 -18 832 5585 L -9 -18 C 0 -27 C 9 -18 C
18 -18 C 27 -9 C 18 0 C 27 9 C 18 18 C 9 18 C 0 27 C -9 18 C -18 18 C 126 0 805 5801 L -27 27 841 5801 L -9 18 C 0 27 C 9 18 C
27 9 C 90 0 C -27 27 841 5900 L -9 18 C 0 27 C 9 18 C 27 9 C 90 0 C 9 -18 805 6107 L 18 -18 C 27 -9 C 18 0 C 27 9 C 18 18 C 9 18 C
0 27 C -9 18 C -18 18 C -27 9 C -18 0 C -27 -9 C -18 -18 C -9 -18 C 0 -27 C 189 0 742 6341 L -18 -18 832 6341 L -9 -18 C 0 -27 C
9 -18 C 18 -18 C 27 -9 C 18 0 C 27 9 C 18 18 C 9 18 C 0 27 C -9 18 C -18 18 C 0 108 859 6404 L -18 0 C -18 -9 C -9 -9 C -9 -18 C
0 -27 C 9 -18 C 18 -18 C 27 -9 C 18 0 C 27 9 C 18 18 C 9 18 C 0 27 C -9 18 C -18 18 C 189 0 742 6575 L 18 -18 706 6854 L 27 -18 C
36 -18 C 45 -9 C 36 0 C 45 9 C 36 18 C 27 18 C 18 18 C 108 0 796 6926 L 54 90 823 6881 L 54 -90 823 6971 L 18 18 706 6998 L 27 18 C
36 18 C 45 9 C 36 0 C 45 -9 C 36 -18 C 27 -18 C 18 -18 C
-90 0 8081 3990 L -18 -9 C -18 -18 C -9 -27 C 0 -27 C 9 -27 C 9 -9 C 18 -9 C 18 0 C 18 9 C 18 18 C 9 27 C 0 27 C -9 27 C -9 9 C
-18 9 C 0 -189 8279 4053 L 108 0 C 108 0 8423 3936 L 0 18 C -9 18 C -9 9 C -18 9 C -27 0 C -18 -9 C -18 -18 C -9 -27 C 0 -18 C
9 -27 C 18 -18 C 18 -9 C 27 0 C 18 9 C 18 18 C -18 -9 8630 3990 L -18 -18 C -9 -27 C 0 -18 C 9 -27 C 18 -18 C 18 -9 C 27 0 C 18 9 C
18 18 C 9 27 C 0 18 C -9 27 C -18 18 C -18 9 C -27 0 C 0 -189 8909 4053 L 81 0 8909 4053 L 27 -9 C 9 -9 C 9 -18 C 0 -18 C -9 -18 C
-9 -9 C -27 -9 C 81 0 8909 3963 L 27 -9 C 9 -9 C 9 -18 C 0 -27 C -9 -18 C -9 -9 C -27 -9 C -81 0 C -9 -27 9206 3990 L -18 -18 C
-27 -9 C -9 0 C -27 9 C -18 18 C -9 27 C 0 9 C 9 27 C 18 18 C 27 9 C 9 0 C 27 -9 C 18 -18 C 9 -36 C 0 -45 C -9 -45 C -18 -27 C
-27 -9 C -18 0 C -27 9 C -9 18 C -9 -9 9287 3882 L 9 -9 C 9 9 C -9 9 C -90 0 9467 4053 L -9 -81 C 9 9 C 27 9 C 27 0 C 27 -9 C
18 -18 C 9 -27 C 0 -18 C -9 -27 C -18 -18 C -27 -9 C -27 0 C -27 9 C -9 9 C -9 18 C 72 -189 9521 4053 L -72 -189 9665 4053 L
0 0 1024 K 61 0 2774 5482 L 0 436 2805 5482 L 61 0 2774 5918 L
-660 0 2805 5700 L
825 0 2805 5700 L
/M3 {MB 0 6 moveto 0 -6 lineto -5 3 moveto 5 -3 lineto                          
5 3 moveto -5 -3 lineto stroke ME} bind def                                     
/MFAC      8.999 def    
2805 5700 M3
0 1024 0 K 61 0 4109 6295 L 0 468 4140 6295 L 61 0 4109 6763 L
-390 0 4140 6529 L
915 0 4140 6529 L
4140 5436 M3
1024 0 0 K 61 0 5324 6981 L 0 147 5354 6981 L 61 0 5324 7128 L
-404 0 5354 7055 L
1440 0 5354 7055 L
5354 5302 M3
558 276 76 K 61 0 8744 3510 L 0 0 8774 3510 L 61 0 8744 3510 L
-1425 0 8774 3510 L
1200 0 8774 3510 L
8774 4867 M3
0 0 0 K 8399 0 1575 1170 L 0 2340 C -8399 0 C 0 -2340 C 0 67 1650 1170 L 0 135 2400 1170 L 0 67 3150 1170 L 0 135 3900 1170 L
0 67 4650 1170 L 0 135 5399 1170 L 0 67 6149 1170 L 0 135 6899 1170 L 0 67 7649 1170 L 0 135 8399 1170 L 0 67 9149 1170 L
0 135 9899 1170 L 0 68 1650 3442 L 0 135 2400 3375 L 0 68 3150 3442 L 0 135 3900 3375 L 0 68 4650 3442 L 0 135 5399 3375 L
0 68 6149 3442 L 0 135 6899 3375 L 0 68 7649 3442 L 0 135 8399 3375 L 0 68 9149 3442 L 0 135 9899 3375 L -90 -126 2247 1008 L
135 0 C 0 -189 2247 1008 L -27 -9 2391 1008 L -18 -27 C -9 -45 C 0 -27 C 9 -45 C 18 -27 C 27 -9 C 18 0 C 27 9 C 18 27 C 9 45 C
0 27 C -9 45 C -18 27 C -27 9 C -18 0 C -27 -9 2571 1008 L -18 -27 C -9 -45 C 0 -27 C 9 -45 C 18 -27 C 27 -9 C 18 0 C 27 9 C 18 27 C
9 45 C 0 27 C -9 45 C -18 27 C -27 9 C -18 0 C -90 0 3765 1008 L -9 -81 C 9 9 C 27 9 C 27 0 C 27 -9 C 18 -18 C 9 -27 C 0 -18 C
-9 -27 C -18 -18 C -27 -9 C -27 0 C -27 9 C -9 9 C -9 18 C -27 -9 3891 1008 L -18 -27 C -9 -45 C 0 -27 C 9 -45 C 18 -27 C 27 -9 C
18 0 C 27 9 C 18 27 C 9 45 C 0 27 C -9 45 C -18 27 C -27 9 C -18 0 C -27 -9 4071 1008 L -18 -27 C -9 -45 C 0 -27 C 9 -45 C 18 -27 C
27 -9 C 18 0 C 27 9 C 18 27 C 9 45 C 0 27 C -9 45 C -18 27 C -27 9 C -18 0 C -9 18 5274 981 L -27 9 C -18 0 C -27 -9 C -18 -27 C
-9 -45 C 0 -45 C 9 -36 C 18 -18 C 27 -9 C 9 0 C 27 9 C 18 18 C 9 27 C 0 9 C -9 27 C -18 18 C -27 9 C -9 0 C -27 -9 C -18 -18 C
-9 -27 C -27 -9 5390 1008 L -18 -27 C -9 -45 C 0 -27 C 9 -45 C 18 -27 C 27 -9 C 18 0 C 27 9 C 18 27 C 9 45 C 0 27 C -9 45 C -18 27 C
-27 9 C -18 0 C -27 -9 5570 1008 L -18 -27 C -9 -45 C 0 -27 C 9 -45 C 18 -27 C 27 -9 C 18 0 C 27 9 C 18 27 C 9 45 C 0 27 C -9 45 C
-18 27 C -27 9 C -18 0 C -90 -189 6782 1008 L 126 0 6656 1008 L -27 -9 6890 1008 L -18 -27 C -9 -45 C 0 -27 C 9 -45 C 18 -27 C
27 -9 C 18 0 C 27 9 C 18 27 C 9 45 C 0 27 C -9 45 C -18 27 C -27 9 C -18 0 C -27 -9 7070 1008 L -18 -27 C -9 -45 C 0 -27 C 9 -45 C
18 -27 C 27 -9 C 18 0 C 27 9 C 18 27 C 9 45 C 0 27 C -9 45 C -18 27 C -27 9 C -18 0 C -27 -9 8201 1008 L -9 -18 C 0 -18 C 9 -18 C
18 -9 C 36 -9 C 27 -9 C 18 -18 C 9 -18 C 0 -27 C -9 -18 C -9 -9 C -27 -9 C -36 0 C -27 9 C -9 9 C -9 18 C 0 27 C 9 18 C 18 18 C
27 9 C 36 9 C 18 9 C 9 18 C 0 18 C -9 18 C -27 9 C -36 0 C -27 -9 8390 1008 L -18 -27 C -9 -45 C 0 -27 C 9 -45 C 18 -27 C 27 -9 C
18 0 C 27 9 C 18 27 C 9 45 C 0 27 C -9 45 C -18 27 C -27 9 C -18 0 C -27 -9 8570 1008 L -18 -27 C -9 -45 C 0 -27 C 9 -45 C 18 -27 C
27 -9 C 18 0 C 27 9 C 18 27 C 9 45 C 0 27 C -9 45 C -18 27 C -27 9 C -18 0 C -9 -27 9773 945 L -18 -18 C -27 -9 C -9 0 C -27 9 C
-18 18 C -9 27 C 0 9 C 9 27 C 18 18 C 27 9 C 9 0 C 27 -9 C 18 -18 C 9 -36 C 0 -45 C -9 -45 C -18 -27 C -27 -9 C -18 0 C -27 9 C
-9 18 C -27 -9 9890 1008 L -18 -27 C -9 -45 C 0 -27 C 9 -45 C 18 -27 C 27 -9 C 18 0 C 27 9 C 18 27 C 9 45 C 0 27 C -9 45 C -18 27 C
-27 9 C -18 0 C -27 -9 10070 1008 L -18 -27 C -9 -45 C 0 -27 C 9 -45 C 18 -27 C 27 -9 C 18 0 C 27 9 C 18 27 C 9 45 C 0 27 C -9 45 C
-18 27 C -27 9 C -18 0 C 135 0 1575 1170 L 67 0 1575 1560 L 67 0 1575 1950 L 67 0 1575 2340 L 67 0 1575 2730 L 135 0 1575 3120 L
67 0 1575 3510 L 135 0 9839 1170 L 67 0 9907 1560 L 67 0 9907 1950 L 67 0 9907 2340 L 67 0 9907 2730 L 135 0 9839 3120 L
67 0 9907 3510 L -27 -9 10260 1271 L -18 -27 C -9 -45 C 0 -27 C 9 -45 C 18 -27 C 27 -9 C 18 0 C 27 9 C 18 27 C 9 45 C 0 27 C -9 45 C
-18 27 C -27 9 C -18 0 C 18 9 10233 3185 L 27 27 C 0 -189 C
36 -126 4618 360 L -36 -126 4690 360 L 36 -126 4690 360 L -36 -126 4762 360 L 0 -126 4924 360 L -18 18 4924 333 L -18 9 C -27 0 C
-18 -9 C -18 -18 C -9 -27 C 0 -18 C 9 -27 C 18 -18 C 18 -9 C 27 0 C 18 9 C 18 18 C 54 -126 4978 360 L -54 -126 5086 360 L
108 0 5131 306 L 0 18 C -9 18 C -9 9 C -18 9 C -27 0 C -18 -9 C -18 -18 C -9 -27 C 0 -18 C 9 -27 C 18 -18 C 18 -9 C 27 0 C 18 9 C
18 18 C 0 -189 5302 423 L 108 0 5365 306 L 0 18 C -9 18 C -9 9 C -18 9 C -27 0 C -18 -9 C -18 -18 C -9 -27 C 0 -18 C 9 -27 C
18 -18 C 18 -9 C 27 0 C 18 9 C 18 18 C 0 -126 5536 360 L 27 27 5536 324 L 18 9 C 27 0 C 18 -9 C 9 -27 C 0 -90 C 0 -144 5806 360 L
-9 -27 C -9 -9 C -18 -9 C -27 0 C -18 9 C -18 18 5806 333 L -18 9 C -27 0 C -18 -9 C -18 -18 C -9 -27 C 0 -18 C 9 -27 C 18 -18 C
18 -9 C 27 0 C 18 9 C 18 18 C 0 -153 5887 423 L 9 -27 C 18 -9 C 18 0 C 63 0 5860 360 L 0 -189 5986 423 L 27 27 5986 324 L 18 9 C
27 0 C 18 -9 C 9 -27 C 0 -90 C -18 -18 6364 459 L -18 -27 C -18 -36 C -9 -45 C 0 -36 C 9 -45 C 18 -36 C 18 -27 C 18 -18 C
0 -126 6427 360 L 27 27 6427 324 L 18 9 C 27 0 C 18 -9 C 9 -27 C 0 -90 C 0 -126 6598 360 L 27 27 6598 324 L 18 9 C 27 0 C 18 -9 C
9 -27 C 0 -90 C 27 27 6697 324 L 18 9 C 27 0 C 18 -9 C 9 -27 C 0 -90 C 18 -18 6859 459 L 18 -27 C 18 -36 C 9 -45 C 0 -36 C -9 -45 C
-18 -36 C -18 -27 C -18 -18 C 126 0 805 1876 L -27 27 841 1876 L -9 18 C 0 27 C 9 18 C 27 9 C 90 0 C -27 27 841 1975 L -9 18 C
0 27 C 9 18 C 27 9 C 90 0 C 9 -18 805 2182 L 18 -18 C 27 -9 C 18 0 C 27 9 C 18 18 C 9 18 C 0 27 C -9 18 C -18 18 C -27 9 C -18 0 C
-27 -9 C -18 -18 C -9 -18 C 0 -27 C 189 0 742 2416 L -18 -18 832 2416 L -9 -18 C 0 -27 C 9 -18 C 18 -18 C 27 -9 C 18 0 C 27 9 C
18 18 C 9 18 C 0 27 C -9 18 C -18 18 C 0 108 859 2479 L -18 0 C -18 -9 C -9 -9 C -9 -18 C 0 -27 C 9 -18 C 18 -18 C 27 -9 C 18 0 C
27 9 C 18 18 C 9 18 C 0 27 C -9 18 C -18 18 C 189 0 742 2650 L -18 -9 832 2812 L -9 -27 C 0 -27 C 9 -27 C 18 -9 C 18 9 C 9 18 C
9 45 C 9 18 C 18 9 C 9 0 C 18 -9 C 9 -27 C 0 -27 C -9 -27 C -18 -9 C
420 420 420 K -18 -9 1206 1749 L -18 -18 C -9 -18 C -9 -27 C 0 -45 C 9 -27 C 9 -18 C 18 -18 C 18 -9 C 36 0 C 18 9 C 18 18 C 9 18 C
9 27 C 0 45 C -9 27 C -9 18 C -18 18 C -18 9 C -36 0 C 54 -54 1233 1596 L 0 -189 1359 1749 L 117 0 1359 1749 L 72 0 1359 1659 L
117 0 1359 1560 L
-72 -189 5705 3328 L 72 -189 5705 3328 L 90 0 5660 3202 L 0 -189 5822 3328 L 81 0 5822 3328 L 27 -9 C 9 -9 C 9 -18 C 0 -27 C
-9 -18 C -9 -9 C -27 -9 C -81 0 C -27 -9 6047 3328 L -9 -18 C 0 -18 C 9 -18 C 18 -9 C 36 -9 C 27 -9 C 18 -18 C 9 -18 C 0 -27 C
-9 -18 C -9 -9 C -27 -9 C -36 0 C -27 9 C -9 9 C -9 18 C 0 27 C 9 18 C 18 18 C 27 9 C 36 9 C 18 9 C 9 18 C 0 18 C -9 18 C -27 9 C
-36 0 C
9 8 1575 1642 L 13 11 C 12 10 C 12 11 C 13 10 C 12 11 C 13 11 C 12 11 C 13 10 C 12 11 C 13 11 C 12 11 C 12 11 C 13 11 C 12 11 C
13 11 C 12 11 C 13 11 C 12 10 C 13 11 C 12 11 C 13 11 C 12 11 C 12 11 C 13 10 C 12 11 C 13 11 C 12 10 C 13 11 C 12 10 C 13 11 C
12 10 C 12 10 C 13 11 C 12 10 C 13 10 C 12 10 C 13 10 C 12 10 C 13 10 C 12 10 C 13 9 C 12 10 C 12 9 C 13 10 C 12 9 C 13 9 C 12 9 C
13 9 C 12 9 C 13 9 C 12 9 C 12 9 C 13 8 C 12 9 C 13 8 C 12 8 C 13 8 C 12 8 C 13 8 C 12 8 C 13 8 C 12 7 C 12 8 C 13 7 C 12 7 C 13 7 C
12 7 C 13 7 C 12 7 C 13 7 C 12 6 C 12 7 C 13 6 C 12 6 C 13 7 C 12 6 C 13 6 C 12 5 C 13 6 C 12 6 C 13 5 C 12 6 C 12 5 C 13 5 C 12 5 C
13 5 C 12 5 C 13 5 C 12 4 C 13 5 C 12 4 C 12 5 C 13 4 C 12 4 C 13 4 C 12 4 C 13 4 C 12 4 C 13 4 C 12 3 C 13 4 C 12 3 C 12 3 C 13 4 C
12 3 C 13 3 C 12 3 C 13 3 C 12 3 C 13 3 C 12 2 C 12 3 C 13 3 C 12 2 C 13 3 C 12 2 C 13 2 C 12 2 C 13 3 C 12 2 C 13 2 C 12 2 C 12 2 C
13 2 C 12 2 C 13 1 C 12 2 C 13 2 C 12 2 C 13 1 C 12 2 C 12 1 C 13 2 C 12 1 C 13 2 C 12 1 C 13 1 C 12 2 C 13 1 C 12 1 C 13 1 C 12 2 C
12 1 C 13 1 C 12 1 C 13 1 C 12 1 C 13 1 C 12 1 C 13 1 C 12 1 C 12 1 C 13 1 C 12 1 C 13 1 C 12 1 C 13 1 C 12 1 C 13 1 C 12 1 C 13 1 C
12 1 C 12 0 C 13 1 C 12 1 C 13 1 C 12 1 C 13 1 C 12 1 C 13 1 C 12 1 C 12 1 C 13 0 C 12 1 C 13 1 C 12 1 C 13 1 C 12 1 C 13 1 C 12 1 C
13 1 C 12 1 C 12 1 C 13 1 C 12 1 C 13 1 C 12 1 C 13 1 C 12 1 C 13 1 C 12 1 C 12 2 C 13 1 C 12 1 C 13 1 C 12 1 C 13 1 C 12 2 C 13 1 C
12 1 C 13 1 4074 2621 L 12 1 C 12 2 C 13 1 C 12 1 C 13 2 C 12 1 C 13 1 C 12 2 C 13 1 C 12 1 C 12 2 C 13 1 C 12 2 C 13 1 C 12 2 C
13 1 C 12 2 C 13 1 C 12 2 C 13 1 C 12 2 C 12 1 C 13 2 C 12 1 C 13 2 C 12 2 C 13 1 C 12 2 C 13 1 C 12 2 C 12 2 C 13 1 C 12 2 C 13 2 C
12 1 C 13 2 C 12 2 C 13 1 C 12 2 C 13 2 C 12 1 C 12 2 C 13 2 C 12 1 C 13 2 C 12 2 C 13 2 C 12 1 C 13 2 C 12 2 C 12 1 C 13 2 C 12 2 C
13 2 C 12 1 C 13 2 C 12 2 C 13 1 C 12 2 C 13 2 C 12 2 C 12 1 C 13 2 C 12 2 C 13 1 C 12 2 C 13 2 C 12 1 C 13 2 C 12 1 C 12 2 C 13 2 C
12 1 C 13 2 C 12 2 C 13 1 C 12 2 C 13 1 C 12 2 C 13 1 C 12 2 C 12 1 C 13 2 C 12 1 C 13 2 C 12 1 C 13 2 C 12 1 C 13 2 C 12 1 C 12 1 C
13 2 C 12 1 C 13 2 C 12 1 C 13 1 C 12 2 C 13 1 C 12 1 C 13 1 C 12 2 C 12 1 C 13 1 C 12 1 C 13 2 C 12 1 C 13 1 C 12 1 C 13 1 C 12 1 C
12 2 C 13 1 C 12 1 C 13 1 C 12 1 C 13 1 C 12 1 C 13 1 C 12 1 C 13 1 C 12 1 C 12 1 C 13 1 C 12 1 C 13 0 C 12 1 C 13 1 C 12 1 C 13 1 C
12 1 C 12 1 C 13 0 C 12 1 C 13 1 C 12 1 C 13 0 C 12 1 C 13 1 C 12 1 C 13 0 C 12 1 C 12 1 C 13 0 C 12 1 C 13 1 C 12 0 C 13 1 C 12 0 C
13 1 C 12 0 C 12 1 C 13 1 C 12 0 C 13 1 C 12 0 C 13 1 C 12 0 C 13 1 C 12 0 C 13 1 C 12 0 C 12 0 C 13 1 C 12 0 C 13 1 C 12 0 C 13 0 C
12 1 C 13 0 C 12 1 C 12 0 C 13 0 C 12 1 C 13 0 C 12 0 C 13 1 C 12 0 C 13 0 C 12 0 C 13 1 C 12 0 C 12 0 C 13 0 C 12 1 C 13 0 C 12 0 C
13 0 C 12 1 C 13 0 C 12 0 C 12 0 C 13 0 C 12 1 C 13 0 C 12 0 C 13 0 C 12 0 C 13 0 C 12 0 C 13 0 C 12 1 6577 2838 L 12 0 C 13 0 C
12 0 C 13 0 C 12 0 C 13 0 C 12 0 C 13 0 C 12 0 C 12 0 C 13 0 C 12 0 C 13 0 C 12 0 C 13 0 C 12 0 C 13 0 C 12 0 C 13 0 C 12 0 C
12 -1 C 13 0 C 12 0 C 13 0 C 12 0 C 13 0 C 12 0 C 13 -1 C 12 0 C 12 0 C 13 0 C 12 -1 C 13 0 C 12 0 C 13 0 C 12 -1 C 13 0 C 12 0 C
13 -1 C 12 0 C 12 -1 C 13 0 C 12 0 C 13 -1 C 12 0 C 13 -1 C 12 0 C 13 -1 C 12 0 C 12 -1 C 13 0 C 12 -1 C 13 -1 C 12 0 C 13 -1 C
12 -1 C 13 0 C 12 -1 C 13 -1 C 12 0 C 12 -1 C 13 -1 C 12 -1 C 13 -1 C 12 0 C 13 -1 C 12 -1 C 13 -1 C 12 -1 C 12 -1 C 13 -1 C 12 -1 C
13 -1 C 12 -1 C 13 -1 C 12 -2 C 13 -1 C 12 -1 C 13 -1 C 12 -1 C 12 -2 C 13 -1 C 12 -1 C 13 -1 C 12 -2 C 13 -1 C 12 -2 C 13 -1 C
12 -1 C 12 -2 C 13 -1 C 12 -2 C 13 -2 C 12 -1 C 13 -2 C 12 -1 C 13 -2 C 12 -2 C 13 -2 C 12 -1 C 12 -2 C 13 -2 C 12 -2 C 13 -2 C
12 -2 C 13 -2 C 12 -2 C 13 -2 C 12 -2 C 12 -2 C 13 -2 C 12 -2 C 13 -2 C 12 -2 C 13 -2 C 12 -3 C 13 -2 C 12 -2 C 13 -2 C 12 -3 C
12 -2 C 13 -2 C 12 -3 C 13 -2 C 12 -3 C 13 -2 C 12 -3 C 13 -2 C 12 -3 C 12 -2 C 13 -3 C 12 -3 C 13 -2 C 12 -3 C 13 -3 C 12 -3 C
13 -2 C 12 -3 C 13 -3 C 12 -3 C 12 -3 C 13 -3 C 12 -3 C 13 -3 C 12 -3 C 13 -3 C 12 -3 C 13 -3 C 12 -3 C 12 -3 C 13 -3 C 12 -3 C
13 -3 C 12 -3 C 13 -4 C 12 -3 C 13 -3 C 12 -3 C 13 -4 C 12 -3 C 12 -3 C 13 -4 C 12 -3 C 13 -3 C 12 -4 C 13 -3 C 12 -4 C 13 -3 C
12 -4 C 12 -3 C 13 -4 C 12 -3 C 13 -4 C 12 -3 C 13 -4 C 12 -3 C 13 -4 C 12 -4 C 13 -3 C 12 -4 C 12 -4 C 13 -3 C 12 -4 C 13 -4 C
12 -3 C 13 -4 C 12 -4 C 13 -4 C 12 -3 C 12 -4 C 13 -4 C 12 -4 C 13 -4 C 12 -4 C 13 -3 C 12 -4 C 13 -4 C 12 -4 C 13 -4 C 12 -4 C
12 -4 9079 2471 L 13 -4 C 12 -4 C 13 -4 C 12 -4 C 13 -3 C 12 -4 C 13 -4 C 12 -4 C 12 -4 C 13 -4 C 12 -4 C 13 -4 C 12 -5 C 13 -4 C
12 -4 C 13 -4 C 12 -4 C 13 -4 C 12 -4 C 12 -4 C 13 -4 C 12 -4 C 13 -4 C 12 -4 C 13 -5 C 12 -4 C 13 -4 C 12 -4 C 12 -4 C 13 -4 C
12 -4 C 13 -5 C 12 -4 C 13 -4 C 12 -4 C 13 -4 C 12 -5 C 13 -4 C 12 -4 C 12 -4 C 13 -5 C 12 -4 C 13 -4 C 12 -4 C 13 -5 C 12 -4 C
13 -4 C 12 -4 C 12 -5 C 13 -4 C 12 -4 C 13 -5 C 12 -4 C 13 -4 C 12 -5 C 13 -4 C 12 -4 C 13 -5 C 12 -4 C 12 -4 C 13 -5 C 12 -4 C
13 -4 C 12 -5 C 13 -4 C 12 -5 C 13 -4 C 12 -5 C 12 -4 C 13 -4 C 11 -4 C
1024 512 0 K -54 -189 1206 2919 L -54 -189 1215 2919 L 99 0 1179 2919 L 27 -9 C 9 -18 C 0 -18 C -9 -27 C -9 -9 C -27 -9 C
18 -9 1278 2919 L 9 -18 C 0 -18 C -9 -27 C -9 -9 C -18 -9 C 81 0 1188 2829 L 18 -9 C 9 -18 C 0 -18 C -9 -27 C -18 -18 C -36 -9 C
-108 0 C 9 -9 1269 2829 L 9 -18 C 0 -18 C -9 -27 C -18 -18 C -27 -9 C -41 -141 1429 2763 L -40 -141 1435 2763 L -20 -40 1388 2763 L
13 40 C 102 0 C -7 -40 C 0 40 C 47 0 1368 2622 L
-54 -189 1842 3328 L -54 -189 1851 3328 L -27 -54 1788 3328 L 18 54 C 135 0 C -9 -54 C 0 54 C 63 0 1761 3139 L 162 0 2094 3247 L
162 0 2094 3193 L 18 9 2490 3292 L 27 27 C 0 -189 C -27 -9 2697 3328 L -18 -27 C -9 -45 C 0 -27 C 9 -45 C 18 -27 C 27 -9 C 18 0 C
27 9 C 18 27 C 9 45 C 0 27 C -9 45 C -18 27 C -27 9 C -18 0 C 18 9 2850 3292 L 27 27 C 0 -189 C -27 -9 3057 3328 L -18 -27 C
-9 -45 C 0 -27 C 9 -45 C 18 -27 C 27 -9 C 18 0 C 27 9 C 18 27 C 9 45 C 0 27 C -9 45 C -18 27 C -27 9 C -18 0 C -27 -9 3237 3328 L
-18 -27 C -9 -45 C 0 -27 C 9 -45 C 18 -27 C 27 -9 C 18 0 C 27 9 C 18 27 C 9 45 C 0 27 C -9 45 C -18 27 C -27 9 C -18 0 C
0 -189 3516 3328 L -126 -126 3642 3328 L 81 -108 3561 3247 L
9 -2 1575 2976 L 13 -4 C 12 -3 C 12 -4 C 13 -3 C 12 -4 C 13 -4 C 12 -3 C 13 -4 C 12 -4 C 13 -3 C 12 -4 C 12 -4 C 13 -4 C 12 -3 C
13 -4 C 12 -4 C 13 -4 C 12 -4 C 13 -4 C 12 -4 C 13 -4 C 12 -3 C 12 -4 C 13 -4 C 12 -4 C 13 -4 C 12 -4 C 13 -4 C 12 -4 C 13 -4 C
12 -4 C 12 -5 C 13 -4 C 12 -4 C 13 -4 C 12 -4 C 13 -4 C 12 -4 C 13 -4 C 12 -4 C 13 -5 C 12 -4 C 12 -4 C 13 -4 C 12 -4 C 13 -4 C
12 -5 C 13 -4 C 12 -4 C 13 -4 C 12 -5 C 12 -4 C 13 -4 C 12 -4 C 13 -4 C 12 -5 C 13 -4 C 12 -4 C 13 -4 C 12 -5 C 13 -4 C 12 -4 C
12 -4 C 13 -5 C 12 -4 C 13 -4 C 12 -4 C 13 -5 C 12 -4 C 13 -4 C 12 -5 C 12 -4 C 13 -4 C 12 -4 C 13 -5 C 12 -4 C 13 -4 C 12 -4 C
13 -5 C 12 -4 C 13 -4 C 12 -4 C 12 -5 C 13 -4 C 12 -4 C 13 -4 C 12 -5 C 13 -4 C 12 -4 C 13 -4 C 12 -5 C 12 -4 C 13 -4 C 12 -4 C
13 -4 C 12 -5 C 13 -4 C 12 -4 C 13 -4 C 12 -4 C 13 -5 C 12 -4 C 12 -4 C 13 -4 C 12 -4 C 13 -5 C 12 -4 C 13 -4 C 12 -4 C 13 -4 C
12 -4 C 12 -4 C 13 -4 C 12 -5 C 13 -4 C 12 -4 C 13 -4 C 12 -4 C 13 -4 C 12 -4 C 13 -4 C 12 -4 C 12 -4 C 13 -4 C 12 -4 C 13 -4 C
12 -4 C 13 -4 C 12 -4 C 13 -4 C 12 -4 C 12 -4 C 13 -4 C 12 -4 C 13 -4 C 12 -4 C 13 -4 C 12 -4 C 13 -4 C 12 -4 C 13 -4 C 12 -4 C
12 -4 C 13 -4 C 12 -3 C 13 -4 C 12 -4 C 13 -4 C 12 -4 C 13 -4 C 12 -3 C 12 -4 C 13 -4 C 12 -4 C 13 -4 C 12 -3 C 13 -4 C 12 -4 C
13 -4 C 12 -3 C 13 -4 C 12 -4 C 12 -4 C 13 -3 C 12 -4 C 13 -4 C 12 -3 C 13 -4 C 12 -4 C 13 -3 C 12 -4 C 12 -4 C 13 -3 C 12 -4 C
13 -3 C 12 -4 C 13 -3 C 12 -4 C 13 -4 C 12 -3 C 13 -4 C 12 -3 C 12 -4 C 13 -3 C 12 -4 C 13 -3 C 12 -4 C 13 -3 C 12 -4 C 13 -3 C
12 -4 C 12 -3 C 13 -3 C 12 -4 C 13 -3 C 12 -4 C 13 -3 C 12 -3 C 13 -4 C 12 -3 C 13 -3 4074 2184 L 12 -4 C 12 -3 C 13 -3 C 12 -4 C
13 -3 C 12 -3 C 13 -3 C 12 -4 C 13 -3 C 12 -3 C 12 -3 C 13 -4 C 12 -3 C 13 -3 C 12 -3 C 13 -3 C 12 -4 C 13 -3 C 12 -3 C 13 -3 C
12 -3 C 12 -3 C 13 -3 C 12 -3 C 13 -4 C 12 -3 C 13 -3 C 12 -3 C 13 -3 C 12 -3 C 12 -3 C 13 -3 C 12 -3 C 13 -3 C 12 -3 C 13 -3 C
12 -3 C 13 -3 C 12 -3 C 13 -3 C 12 -3 C 12 -3 C 13 -2 C 12 -3 C 13 -3 C 12 -3 C 13 -3 C 12 -3 C 13 -3 C 12 -3 C 12 -2 C 13 -3 C
12 -3 C 13 -3 C 12 -3 C 13 -2 C 12 -3 C 13 -3 C 12 -3 C 13 -3 C 12 -2 C 12 -3 C 13 -3 C 12 -2 C 13 -3 C 12 -3 C 13 -3 C 12 -2 C
13 -3 C 12 -3 C 12 -2 C 13 -3 C 12 -2 C 13 -3 C 12 -3 C 13 -2 C 12 -3 C 13 -3 C 12 -2 C 13 -3 C 12 -2 C 12 -3 C 13 -2 C 12 -3 C
13 -2 C 12 -3 C 13 -2 C 12 -3 C 13 -2 C 12 -3 C 12 -2 C 13 -3 C 12 -2 C 13 -3 C 12 -2 C 13 -3 C 12 -2 C 13 -2 C 12 -3 C 13 -2 C
12 -3 C 12 -2 C 13 -2 C 12 -3 C 13 -2 C 12 -2 C 13 -3 C 12 -2 C 13 -2 C 12 -3 C 12 -2 C 13 -2 C 12 -3 C 13 -2 C 12 -2 C 13 -3 C
12 -2 C 13 -2 C 12 -2 C 13 -3 C 12 -2 C 12 -2 C 13 -2 C 12 -2 C 13 -3 C 12 -2 C 13 -2 C 12 -2 C 13 -2 C 12 -2 C 12 -3 C 13 -2 C
12 -2 C 13 -2 C 12 -2 C 13 -2 C 12 -2 C 13 -2 C 12 -2 C 13 -3 C 12 -2 C 12 -2 C 13 -2 C 12 -2 C 13 -2 C 12 -2 C 13 -2 C 12 -2 C
13 -2 C 12 -2 C 12 -2 C 13 -2 C 12 -2 C 13 -2 C 12 -2 C 13 -2 C 12 -2 C 13 -2 C 12 -2 C 13 -2 C 12 -2 C 12 -2 C 13 -1 C 12 -2 C
13 -2 C 12 -2 C 13 -2 C 12 -2 C 13 -2 C 12 -2 C 12 -1 C 13 -2 C 12 -2 C 13 -2 C 12 -2 C 13 -2 C 12 -2 C 13 -1 C 12 -2 C 13 -2 C
12 -2 C 12 -2 C 13 -1 C 12 -2 C 13 -2 C 12 -2 C 13 -1 C 12 -2 C 13 -2 C 12 -2 C 12 -1 C 13 -2 C 12 -2 C 13 -1 C 12 -2 C 13 -2 C
12 -2 C 13 -1 C 12 -2 C 13 -2 C 12 -1 6577 1694 L 12 -2 C 13 -2 C 12 -1 C 13 -2 C 12 -2 C 13 -1 C 12 -2 C 13 -1 C 12 -2 C 12 -2 C
13 -1 C 12 -2 C 13 -1 C 12 -2 C 13 -2 C 12 -1 C 13 -2 C 12 -1 C 13 -2 C 12 -1 C 12 -2 C 13 -2 C 12 -1 C 13 -2 C 12 -1 C 13 -2 C
12 -1 C 13 -2 C 12 -1 C 12 -2 C 13 -1 C 12 -2 C 13 -1 C 12 -2 C 13 -1 C 12 -2 C 13 -1 C 12 -1 C 13 -2 C 12 -1 C 12 -2 C 13 -1 C
12 -2 C 13 -1 C 12 -2 C 13 -1 C 12 -1 C 13 -2 C 12 -1 C 12 -2 C 13 -1 C 12 -1 C 13 -2 C 12 -1 C 13 -1 C 12 -2 C 13 -1 C 12 -2 C
13 -1 C 12 -1 C 12 -2 C 13 -1 C 12 -1 C 13 -2 C 12 -1 C 13 -1 C 12 -1 C 13 -2 C 12 -1 C 12 -1 C 13 -2 C 12 -1 C 13 -1 C 12 -2 C
13 -1 C 12 -1 C 13 -1 C 12 -2 C 13 -1 C 12 -1 C 12 -1 C 13 -2 C 12 -1 C 13 -1 C 12 -1 C 13 -2 C 12 -1 C 13 -1 C 12 -1 C 12 -1 C
13 -2 C 12 -1 C 13 -1 C 12 -1 C 13 -1 C 12 -2 C 13 -1 C 12 -1 C 13 -1 C 12 -1 C 12 -1 C 13 -2 C 12 -1 C 13 -1 C 12 -1 C 13 -1 C
12 -1 C 13 -1 C 12 -2 C 12 -1 C 13 -1 C 12 -1 C 13 -1 C 12 -1 C 13 -1 C 12 -1 C 13 -1 C 12 -1 C 13 -2 C 12 -1 C 12 -1 C 13 -1 C
12 -1 C 13 -1 C 12 -1 C 13 -1 C 12 -1 C 13 -1 C 12 -1 C 12 -1 C 13 -1 C 12 -1 C 13 -1 C 12 -1 C 13 -2 C 12 -1 C 13 -1 C 12 -1 C
13 -1 C 12 -1 C 12 -1 C 13 -1 C 12 -1 C 13 -1 C 12 -1 C 13 -1 C 12 -1 C 13 -1 C 12 -1 C 12 -1 C 13 0 C 12 -1 C 13 -1 C 12 -1 C
13 -1 C 12 -1 C 13 -1 C 12 -1 C 13 -1 C 12 -1 C 12 -1 C 13 -1 C 12 -1 C 13 -1 C 12 -1 C 13 -1 C 12 -1 C 13 -1 C 12 0 C 12 -1 C
13 -1 C 12 -1 C 13 -1 C 12 -1 C 13 -1 C 12 -1 C 13 -1 C 12 -1 C 13 0 C 12 -1 C 12 -1 C 13 -1 C 12 -1 C 13 -1 C 12 -1 C 13 -1 C
12 0 C 13 -1 C 12 -1 C 12 -1 C 13 -1 C 12 -1 C 13 0 C 12 -1 C 13 -1 C 12 -1 C 13 -1 C 12 -1 C 13 0 C 12 -1 C 12 -1 9079 1455 L
13 -1 C 12 -1 C 13 -1 C 12 0 C 13 -1 C 12 -1 C 13 -1 C 12 -1 C 12 0 C 13 -1 C 12 -1 C 13 -1 C 12 0 C 13 -1 C 12 -1 C 13 -1 C 12 -1 C
13 0 C 12 -1 C 12 -1 C 13 -1 C 12 0 C 13 -1 C 12 -1 C 13 -1 C 12 0 C 13 -1 C 12 -1 C 12 -1 C 13 0 C 12 -1 C 13 -1 C 12 -1 C 13 0 C
12 -1 C 13 -1 C 12 0 C 13 -1 C 12 -1 C 12 -1 C 13 0 C 12 -1 C 13 -1 C 12 0 C 13 -1 C 12 -1 C 13 -1 C 12 0 C 12 -1 C 13 -1 C 12 0 C
13 -1 C 12 -1 C 13 0 C 12 -1 C 13 -1 C 12 0 C 13 -1 C 12 -1 C 12 0 C 13 -1 C 12 -1 C 13 0 C 12 -1 C 13 -1 C 12 0 C 13 -1 C 12 -1 C
12 0 C 13 -1 C 11 -1 C
1024 0 1024 K 0 -126 1170 2271 L 0 -126 1179 2271 L 9 27 1179 2217 L 18 18 C 18 9 C 27 0 C 9 -9 C 0 -9 C -9 -9 C -9 9 C 9 9 C
36 0 1143 2271 L 63 0 1143 2145 L 0 6 1305 2397 L 7 14 C 6 7 C 14 6 C 27 0 C 13 -6 C 7 -7 C 7 -14 C 0 -13 C -7 -14 C -13 -20 C
-68 -67 C 95 0 C
-72 -189 9368 3328 L 72 -189 9368 3328 L 90 0 9323 3202 L 27 9 9458 3139 L 27 18 C 18 18 C 18 27 C 18 36 C 9 36 C 0 18 C -9 18 C
-18 9 C -18 -9 C -9 -9 C -9 -18 C -9 -45 C 0 -45 C 9 -36 C 9 -18 C 18 -9 C 18 0 C 18 9 C 9 9 C 74 0 9645 3425 L -40 -54 C 20 0 C
13 -7 C 7 -7 C 7 -20 C 0 -13 C -7 -21 C -13 -13 C -21 -7 C -20 0 C -20 7 C -7 7 C -7 13 C
9 0 1575 2703 L 13 0 C 12 0 C 12 0 C 13 1 C 12 0 C 13 0 C 12 0 C 13 0 C 12 0 C 13 0 C 12 0 C 12 0 C 13 0 C 12 0 C 13 0 C 12 1 C
13 0 C 12 0 C 13 0 C 12 0 C 13 0 C 12 0 C 12 0 C 13 0 C 12 0 C 13 0 C 12 0 C 13 0 C 12 0 C 13 0 C 12 1 C 12 0 C 13 0 C 12 0 C 13 0 C
12 0 C 13 0 C 12 0 C 13 0 C 12 0 C 13 0 C 12 0 C 12 0 C 13 0 C 12 0 C 13 0 C 12 0 C 13 0 C 12 0 C 13 0 C 12 0 C 12 0 C 13 0 C 12 0 C
13 0 C 12 0 C 13 0 C 12 0 C 13 0 C 12 0 C 13 0 C 12 0 C 12 0 C 13 0 C 12 0 C 13 0 C 12 0 C 13 0 C 12 0 C 13 0 C 12 0 C 12 0 C 13 0 C
12 0 C 13 0 C 12 0 C 13 0 C 12 0 C 13 0 C 12 0 C 13 0 C 12 0 C 12 0 C 13 0 C 12 0 C 13 0 C 12 0 C 13 -1 C 12 0 C 13 0 C 12 0 C
12 0 C 13 0 C 12 0 C 13 0 C 12 0 C 13 0 C 12 0 C 13 0 C 12 0 C 13 0 C 12 0 C 12 0 C 13 -1 C 12 0 C 13 0 C 12 0 C 13 0 C 12 0 C
13 0 C 12 0 C 12 0 C 13 0 C 12 0 C 13 0 C 12 -1 C 13 0 C 12 0 C 13 0 C 12 0 C 13 0 C 12 0 C 12 0 C 13 0 C 12 0 C 13 0 C 12 -1 C
13 0 C 12 0 C 13 0 C 12 0 C 12 0 C 13 0 C 12 0 C 13 0 C 12 -1 C 13 0 C 12 0 C 13 0 C 12 0 C 13 0 C 12 0 C 12 0 C 13 0 C 12 -1 C
13 0 C 12 0 C 13 0 C 12 0 C 13 0 C 12 0 C 12 0 C 13 0 C 12 -1 C 13 0 C 12 0 C 13 0 C 12 0 C 13 0 C 12 0 C 13 0 C 12 -1 C 12 0 C
13 0 C 12 0 C 13 0 C 12 0 C 13 0 C 12 0 C 13 -1 C 12 0 C 12 0 C 13 0 C 12 0 C 13 0 C 12 0 C 13 -1 C 12 0 C 13 0 C 12 0 C 13 0 C
12 0 C 12 0 C 13 0 C 12 -1 C 13 0 C 12 0 C 13 0 C 12 0 C 13 0 C 12 0 C 12 -1 C 13 0 C 12 0 C 13 0 C 12 0 C 13 0 C 12 0 C 13 -1 C
12 0 C 13 0 4074 2693 L 12 0 C 12 0 C 13 0 C 12 0 C 13 0 C 12 -1 C 13 0 C 12 0 C 13 0 C 12 0 C 12 0 C 13 -1 C 12 0 C 13 0 C 12 0 C
13 0 C 12 0 C 13 0 C 12 -1 C 13 0 C 12 0 C 12 0 C 13 0 C 12 0 C 13 0 C 12 -1 C 13 0 C 12 0 C 13 0 C 12 0 C 12 0 C 13 -1 C 12 0 C
13 0 C 12 0 C 13 0 C 12 0 C 13 -1 C 12 0 C 13 0 C 12 0 C 12 0 C 13 0 C 12 -1 C 13 0 C 12 0 C 13 0 C 12 0 C 13 -1 C 12 0 C 12 0 C
13 0 C 12 0 C 13 0 C 12 -1 C 13 0 C 12 0 C 13 0 C 12 0 C 13 -1 C 12 0 C 12 0 C 13 0 C 12 0 C 13 -1 C 12 0 C 13 0 C 12 0 C 13 -1 C
12 0 C 12 0 C 13 0 C 12 0 C 13 -1 C 12 0 C 13 0 C 12 0 C 13 -1 C 12 0 C 13 0 C 12 0 C 12 -1 C 13 0 C 12 0 C 13 0 C 12 -1 C 13 0 C
12 0 C 13 0 C 12 -1 C 12 0 C 13 0 C 12 0 C 13 -1 C 12 0 C 13 0 C 12 -1 C 13 0 C 12 0 C 13 0 C 12 -1 C 12 0 C 13 0 C 12 -1 C 13 0 C
12 0 C 13 -1 C 12 0 C 13 0 C 12 -1 C 12 0 C 13 0 C 12 -1 C 13 0 C 12 0 C 13 -1 C 12 0 C 13 0 C 12 -1 C 13 0 C 12 -1 C 12 0 C 13 0 C
12 -1 C 13 0 C 12 -1 C 13 0 C 12 0 C 13 -1 C 12 0 C 12 -1 C 13 0 C 12 0 C 13 -1 C 12 0 C 13 -1 C 12 0 C 13 -1 C 12 0 C 13 -1 C
12 0 C 12 -1 C 13 0 C 12 -1 C 13 0 C 12 -1 C 13 0 C 12 -1 C 13 0 C 12 -1 C 12 0 C 13 -1 C 12 0 C 13 -1 C 12 0 C 13 -1 C 12 0 C
13 -1 C 12 0 C 13 -1 C 12 -1 C 12 0 C 13 -1 C 12 0 C 13 -1 C 12 -1 C 13 0 C 12 -1 C 13 0 C 12 -1 C 12 -1 C 13 0 C 12 -1 C 13 -1 C
12 0 C 13 -1 C 12 -1 C 13 0 C 12 -1 C 13 -1 C 12 0 C 12 -1 C 13 -1 C 12 -1 C 13 0 C 12 -1 C 13 -1 C 12 0 C 13 -1 C 12 -1 C 12 -1 C
13 0 C 12 -1 C 13 -1 C 12 -1 C 13 -1 C 12 0 C 13 -1 C 12 -1 C 13 -1 C 12 -1 6577 2620 L 12 0 C 13 -1 C 12 -1 C 13 -1 C 12 -1 C
13 -1 C 12 -1 C 13 0 C 12 -1 C 12 -1 C 13 -1 C 12 -1 C 13 -1 C 12 -1 C 13 -1 C 12 -1 C 13 -1 C 12 -1 C 13 -1 C 12 0 C 12 -1 C
13 -1 C 12 -1 C 13 -1 C 12 -1 C 13 -1 C 12 -1 C 13 -1 C 12 -1 C 12 -1 C 13 -1 C 12 -1 C 13 -1 C 12 -1 C 13 -1 C 12 -1 C 13 -1 C
12 -2 C 13 -1 C 12 -1 C 12 -1 C 13 -1 C 12 -1 C 13 -1 C 12 -1 C 13 -1 C 12 -1 C 13 -1 C 12 -1 C 12 -2 C 13 -1 C 12 -1 C 13 -1 C
12 -1 C 13 -1 C 12 -1 C 13 -2 C 12 -1 C 13 -1 C 12 -1 C 12 -1 C 13 -1 C 12 -1 C 13 -2 C 12 -1 C 13 -1 C 12 -1 C 13 -1 C 12 -2 C
12 -1 C 13 -1 C 12 -1 C 13 -1 C 12 -2 C 13 -1 C 12 -1 C 13 -1 C 12 -1 C 13 -2 C 12 -1 C 12 -1 C 13 -1 C 12 -1 C 13 -2 C 12 -1 C
13 -1 C 12 -1 C 13 -2 C 12 -1 C 12 -1 C 13 -1 C 12 -1 C 13 -2 C 12 -1 C 13 -1 C 12 -1 C 13 -2 C 12 -1 C 13 -1 C 12 -1 C 12 -1 C
13 -2 C 12 -1 C 13 -1 C 12 -1 C 13 -1 C 12 -2 C 13 -1 C 12 -1 C 12 -1 C 13 -1 C 12 -2 C 13 -1 C 12 -1 C 13 -1 C 12 -1 C 13 -2 C
12 -1 C 13 -1 C 12 -1 C 12 -1 C 13 -1 C 12 -1 C 13 -2 C 12 -1 C 13 -1 C 12 -1 C 13 -1 C 12 -1 C 12 -1 C 13 -1 C 12 -1 C 13 -1 C
12 -2 C 13 -1 C 12 -1 C 13 -1 C 12 -1 C 13 -1 C 12 -1 C 12 -1 C 13 -1 C 12 -1 C 13 -1 C 12 -1 C 13 0 C 12 -1 C 13 -1 C 12 -1 C
12 -1 C 13 -1 C 12 -1 C 13 -1 C 12 0 C 13 -1 C 12 -1 C 13 -1 C 12 -1 C 13 0 C 12 -1 C 12 -1 C 13 0 C 12 -1 C 13 -1 C 12 0 C 13 -1 C
12 -1 C 13 0 C 12 -1 C 12 0 C 13 -1 C 12 0 C 13 -1 C 12 0 C 13 -1 C 12 0 C 13 -1 C 12 0 C 13 0 C 12 -1 C 12 0 C 13 0 C 12 0 C
13 -1 C 12 0 C 13 0 C 12 0 C 13 0 C 12 0 C 12 0 C 13 0 C 12 0 C 13 0 C 12 0 C 13 0 C 12 0 C 13 0 C 12 0 C 13 1 C 12 0 C
12 0 9079 2437 L 13 0 C 12 1 C 13 0 C 12 1 C 13 0 C 12 1 C 13 0 C 12 1 C 12 1 C 13 0 C 12 1 C 13 1 C 12 1 C 13 0 C 12 1 C 13 1 C
12 1 C 13 1 C 12 1 C 12 2 C 13 1 C 12 1 C 13 1 C 12 2 C 13 1 C 12 1 C 13 2 C 12 1 C 12 2 C 13 2 C 12 1 C 13 2 C 12 2 C 13 2 C 12 2 C
13 2 C 12 2 C 13 2 C 12 2 C 12 3 C 13 2 C 12 2 C 13 3 C 12 2 C 13 3 C 12 3 C 13 3 C 12 2 C 12 3 C 13 3 C 12 3 C 13 4 C 12 3 C 13 3 C
12 4 C 13 3 C 12 4 C 13 3 C 12 4 C 12 4 C 13 4 C 12 4 C 13 4 C 12 4 C 13 4 C 12 5 C 13 4 C 12 5 C 12 5 C 13 5 C 11 4 C
1024 0 0 K 15 0 2100 1170 L 15 0 C 15 0 C 15 0 C 15 0 C 15 0 C 15 0 C 15 0 C 15 0 C 15 0 C 15 0 C 15 0 C 15 0 C 15 0 C 15 0 C 15 0 C
15 0 C 15 0 C 15 0 C 15 0 C 15 0 C 15 0 C 15 0 C 15 0 C 15 0 C 15 0 C 15 0 C 15 0 C 15 0 C 15 0 C 15 0 C 15 0 C 15 0 C 15 0 C 15 0 C
15 0 C 15 0 C 15 0 C 15 0 C 15 0 C 15 0 C 15 0 C 15 0 C 15 0 C 15 0 C 15 0 C 15 0 C 15 0 C 15 0 C 15 0 C 15 0 C 15 0 C 15 0 C 15 0 C
15 0 C 15 0 C 15 0 C 15 0 C 15 0 C 15 0 C 15 0 C 15 0 C 15 0 C 15 0 C 15 0 C 15 0 C 15 0 C 15 0 C 15 0 C 15 0 C 15 0 C 15 0 C 15 0 C
15 0 C 15 0 C 15 0 C 15 0 C 15 0 C 15 0 C 15 0 C 15 0 C 15 0 C 15 0 C 15 0 C 15 0 C 15 0 C 15 0 C 15 0 C 15 0 C 15 0 C 15 0 C 15 0 C
15 0 C 15 0 C 15 0 C 15 0 C 15 0 C 15 0 C 15 0 C 15 0 C 15 0 C 15 0 C 15 0 C 15 0 C 15 0 C 15 0 C 15 0 C 15 0 C 15 0 C 15 0 C 15 0 C
15 0 C 15 0 C 15 0 C 15 0 C 15 0 C 15 0 C 15 0 C 15 0 C 15 0 C 15 0 C 15 0 C 15 0 C 15 0 C 15 0 C 15 0 C 15 0 C 15 0 C 15 0 C 15 0 C
15 0 C 15 0 C 15 0 C 15 0 C 15 0 C 15 0 C 15 0 C 15 0 C 15 0 C 15 0 C 15 0 C 15 0 C 15 0 C 15 0 C 15 0 C 15 0 C 15 0 C 15 0 C 15 0 C
15 0 C 15 0 C 15 0 C 15 0 C 15 0 C 15 0 C 15 0 C 15 0 C 15 0 C 15 0 C 15 0 C 15 0 C 15 0 C 15 0 C 15 0 C 15 1 C 15 0 C 15 1 C 15 1 C
15 2 C 15 2 C 15 3 C 15 5 C 15 6 C 15 10 C 15 13 C 15 16 C 15 21 C 15 26 C 15 32 C 15 37 C 15 43 C 15 49 C 15 55 C 15 59 C 15 63 C
15 66 C 15 70 C 15 70 C 15 69 C 15 69 C 15 68 C 15 65 C 15 65 C 15 60 C 15 55 C 15 53 C 15 48 C 15 46 C 15 39 C 15 37 C 15 31 C
15 29 5115 2526 L 15 27 C 15 22 C 15 20 C 15 17 C 15 15 C 15 12 C 15 11 C 14 8 C 15 6 C 15 7 C 15 5 C 15 2 C 15 3 C 15 2 C 15 1 C
15 -1 C 15 0 C 15 -2 C 15 -2 C 15 -2 C 15 -2 C 15 -4 C 15 -3 C 15 -4 C 15 -4 C 15 -6 C 15 -3 C 15 -6 C 15 -5 C 15 -5 C 15 -6 C
15 -6 C 15 -5 C 15 -6 C 15 -6 C 15 -8 C 15 -6 C 15 -5 C 15 -8 C 15 -8 C 15 -7 C 15 -7 C 15 -7 C 15 -8 C 15 -7 C 15 -8 C 15 -8 C
15 -8 C 15 -7 C 15 -9 C 15 -7 C 15 -10 C 15 -7 C 15 -8 C 15 -8 C 15 -9 C 15 -8 C 15 -9 C 15 -9 C 15 -8 C 15 -9 C 15 -8 C 15 -10 C
15 -8 C 15 -10 C 15 -8 C 15 -10 C 15 -9 C 15 -9 C 15 -9 C 15 -9 C 15 -9 C 15 -9 C 15 -9 C 15 -10 C 15 -8 C 15 -8 C 15 -10 C 15 -10 C
15 -9 C 15 -9 C 15 -10 C 15 -8 C 15 -9 C 15 -10 C 15 -9 C 15 -10 C 15 -10 C 15 -9 C 15 -9 C 15 -10 C 15 -9 C 15 -10 C 15 -11 C
15 -9 C 15 -11 C 15 -10 C 15 -10 C 15 -10 C 15 -11 C 15 -10 C 15 -10 C 15 -10 C 15 -11 C 15 -10 C 15 -11 C 15 -10 C 15 -10 C
15 -10 C 15 -11 C 15 -10 C 15 -10 C 15 -11 C 15 -9 C 15 -10 C 15 -10 C 15 -11 C 15 -10 C 15 -9 C 15 -10 C 15 -10 C 15 -9 C 15 -11 C
15 -9 C 15 -10 C 15 -9 C 15 -9 C 15 -10 C 15 -10 C 15 -8 C 15 -10 C 15 -9 C 15 -8 C 15 -9 C 15 -10 C 15 -8 C 15 -9 C 15 -9 C 15 -8 C
15 -9 C 15 -8 C 15 -8 C 15 -9 C 15 -8 C 15 -8 C 15 -8 C 15 -8 C 15 -8 C 15 -8 C 15 -8 C 15 -7 C 15 -8 C 15 -6 C 15 -8 C 15 -8 C
15 -7 C 15 -7 C 15 -8 C 15 -7 C 15 -7 C 15 -6 C 15 -8 C 15 -6 C 15 -7 C 15 -6 C 15 -7 C 15 -6 C 15 -7 C 15 -6 C 15 -6 C 15 -7 C
15 -5 C 15 -7 C 15 -5 C 15 -6 C 15 -5 C 15 -7 C 15 -6 C 15 -4 C 15 -6 C 15 -5 C 15 -5 C 15 -6 C 15 -5 C 15 -4 C 15 -6 C 15 -3 C
15 -6 C 15 -4 C 15 -5 C 15 -4 C 15 -5 C 15 -4 C 15 -5 C 15 -3 C 15 -4 C 15 -4 C 15 -4 C 15 -4 C 15 -4 C 15 -4 8129 1312 L 15 -3 C
15 -4 C 15 -3 C 15 -3 C 15 -4 C 15 -3 C 15 -3 C 15 -4 C 15 -3 C 15 -2 C 15 -3 C 15 -3 C 15 -3 C 15 -2 C 15 -3 C 15 -3 C 15 -2 C
15 -3 C 15 -2 C 15 -3 C 15 -2 C 15 -2 C 15 -2 C 15 -2 C 15 -2 C 15 -2 C 15 -2 C 15 -2 C 15 -2 C 15 -2 C 15 -2 C 15 -1 C 15 -2 C
15 -2 C 15 -1 C 15 -2 C 15 -1 C 15 -1 C 15 -2 C 15 -2 C 15 -1 C 15 -1 C 15 -2 C 15 -1 C 15 -1 C 15 -1 C 15 -1 C 15 -1 C 15 -2 C
15 -1 C 15 0 C 15 -1 C 15 -1 C 15 -1 C 15 -1 C 15 -1 C 15 -1 C 15 -1 C 15 -1 C 15 0 C 15 -2 C 15 0 C 15 0 C 15 -1 C 15 -1 C 15 0 C
15 -1 C 15 0 C 15 -1 C 15 0 C 15 -1 C 15 0 C 15 -1 C 15 -1 C 15 0 C 15 -1 C 15 0 C 15 -1 C 15 0 C 15 -1 C 15 0 C 15 0 C 15 -1 C
15 0 C 15 -1 C 15 0 C 15 0 C 15 -1 C 15 0 C 15 0 C 15 0 C 15 -1 C 15 0 C 15 0 C 15 -1 C 15 0 C 15 0 C 15 0 C 15 0 C 15 -1 C 15 0 C
15 0 C 15 0 C 15 0 C 15 0 C 15 -1 C 15 0 C 15 0 C 15 0 C 15 0 C 15 0 C 15 0 C 15 -1 C 15 0 C 15 0 C 15 0 C 15 0 C 15 0 C 15 0 C
15 0 C 15 -1 C 15 0 C
0 1024 0 K 15 0 1650 1170 L 15 0 C 15 0 C 15 0 C 15 0 C 15 0 C 15 0 C 15 0 C 15 0 C 15 0 C 15 0 C 15 0 C 15 0 C 15 0 C 15 0 C 15 0 C
15 0 C 15 0 C 15 0 C 15 0 C 15 0 C 15 0 C 15 0 C 15 0 C 15 0 C 15 0 C 15 0 C 15 0 C 15 0 C 15 0 C 15 0 C 15 0 C 15 0 C 15 0 C 15 0 C
15 0 C 15 0 C 15 0 C 15 0 C 15 0 C 15 0 C 15 0 C 15 0 C 15 0 C 15 0 C 15 0 C 15 0 C 15 0 C 15 0 C 15 0 C 15 0 C 15 0 C 15 0 C 15 0 C
15 0 C 15 0 C 15 0 C 15 0 C 15 0 C 15 0 C 15 0 C 15 0 C 15 0 C 15 0 C 15 0 C 15 0 C 15 0 C 15 0 C 15 0 C 15 0 C 15 0 C 15 0 C 15 0 C
15 0 C 15 0 C 15 0 C 15 0 C 15 0 C 15 0 C 15 0 C 15 0 C 15 0 C 15 0 C 15 0 C 15 0 C 15 0 C 15 0 C 15 0 C 15 0 C 15 0 C 15 0 C 15 0 C
15 0 C 15 0 C 15 0 C 15 0 C 15 0 C 15 0 C 15 0 C 15 0 C 15 0 C 15 0 C 15 0 C 15 0 C 15 0 C 15 0 C 15 0 C 15 0 C 15 0 C 15 0 C 15 0 C
15 0 C 15 0 C 15 0 C 15 0 C 15 0 C 15 0 C 15 1 C 15 0 C 15 1 C 15 1 C 15 2 C 15 3 C 15 4 C 15 6 C 15 10 C 15 13 C 15 18 C 15 24 C
15 33 C 15 41 C 15 49 C 15 62 C 15 71 C 15 78 C 15 88 C 15 92 C 15 97 C 15 97 C 15 98 C 15 92 C 15 89 C 15 83 C 15 76 C 15 69 C
15 60 C 15 55 C 15 46 C 15 46 C 15 33 C 15 34 C 15 27 C 15 21 C 15 21 C 15 16 C 15 14 C 15 10 C 15 10 C 15 9 C 15 6 C 15 4 C 15 5 C
15 2 C 15 3 C 15 1 C 15 1 C 15 -1 C 15 1 C 15 -4 C 15 -2 C 15 -1 C 15 -5 C 15 -2 C 15 0 C 15 -6 C 15 -7 C 15 -2 C 15 -7 C 15 -5 C
15 -8 C 15 -6 C 15 -6 C 15 -9 C 15 -6 C 15 -10 C 15 -9 C 15 -7 C 15 -11 C 15 -11 C 15 -11 C 15 -11 C 15 -13 C 15 -12 C 15 -14 C
15 -13 C 15 -14 C 15 -13 C 15 -15 C 15 -15 C 15 -18 C 15 -17 C 15 -15 4665 2602 L 15 -17 C 15 -21 C 15 -17 C 15 -20 C 15 -19 C
15 -19 C 15 -21 C 15 -20 C 15 -21 C 15 -24 C 15 -22 C 15 -21 C 15 -24 C 15 -24 C 15 -24 C 15 -24 C 15 -22 C 15 -26 C 15 -24 C
15 -24 C 15 -25 C 15 -25 C 15 -26 C 15 -26 C 15 -26 C 15 -25 C 15 -25 C 15 -25 C 15 -24 C 15 -27 C 15 -24 C 15 -25 C 15 -24 C
15 -24 C 15 -25 C 15 -23 C 15 -23 C 14 -23 C 15 -23 C 15 -22 C 15 -22 C 15 -21 C 15 -21 C 15 -20 C 15 -19 C 15 -20 C 15 -18 C
15 -18 C 15 -18 C 15 -17 C 15 -16 C 15 -16 C 15 -16 C 15 -14 C 15 -14 C 15 -14 C 15 -13 C 15 -12 C 15 -12 C 15 -11 C 15 -11 C
15 -10 C 15 -9 C 15 -9 C 15 -9 C 15 -8 C 15 -8 C 15 -7 C 15 -7 C 15 -7 C 15 -5 C 15 -6 C 15 -5 C 15 -5 C 15 -5 C 15 -4 C 15 -4 C
15 -4 C 15 -3 C 15 -3 C 15 -3 C 15 -3 C 15 -2 C 15 -2 C 15 -2 C 15 -2 C 15 -2 C 15 -2 C 15 -1 C 15 -1 C 15 -1 C 15 -2 C 15 -1 C
15 -1 C 15 0 C 15 -1 C 15 -1 C 15 0 C 15 -1 C 15 0 C 15 -1 C 15 0 C 15 0 C 15 -1 C 15 0 C 15 0 C 15 -1 C 15 0 C 15 0 C 15 0 C 15 0 C
15 0 C 15 0 C 15 -1 C 15 0 C 15 0 C 15 0 C 15 0 C 15 0 C 15 0 C 15 0 C 15 0 C 15 0 C 15 0 C 15 0 C 15 0 C 15 0 C 15 0 C 15 0 C
15 0 C 15 0 C 15 0 C 15 0 C 15 0 C 15 0 C 15 0 C 15 0 C 15 0 C 15 0 C 15 0 C 15 0 C 15 0 C 15 0 C 15 0 C 15 0 C 15 0 C 15 0 C 15 0 C
15 0 C 15 0 C 15 0 C 15 0 C 15 0 C 15 0 C 15 0 C 15 0 C 15 0 C 15 0 C 15 0 C 15 0 C 15 0 C 15 0 C 15 0 C 15 0 C 15 0 C 15 0 C 15 0 C
15 0 C 15 0 C 15 0 C 15 0 C 15 0 C 15 0 C 15 0 C 15 0 C 15 0 C 15 0 C 15 0 C 15 0 C 15 0 C 15 0 C 15 0 C 15 0 C 15 0 C 15 0 C 15 0 C
15 0 C 15 0 C 15 0 C 15 0 C 15 0 C 15 0 C 15 0 C 15 0 C 15 0 C 15 0 C 15 0 C 15 0 C 15 0 C 15 0 C 15 0 7679 1170 L 15 0 C 15 0 C
15 0 C 15 0 C 15 0 C 15 0 C 15 0 C 15 0 C 15 0 C 15 0 C 15 0 C 15 0 C 15 0 C 15 0 C 15 0 C 15 0 C 15 0 C 15 0 C 15 0 C 15 0 C 15 0 C
15 0 C 15 0 C 15 0 C 15 0 C 15 0 C 15 0 C 15 0 C 15 0 C 15 0 C 15 0 C 15 0 C 15 0 C 15 0 C 15 0 C 15 0 C 15 0 C 15 0 C 15 0 C 15 0 C
15 0 C 15 0 C 15 0 C 15 0 C 15 0 C 15 0 C 15 0 C 15 0 C 15 0 C 15 0 C 15 0 C 15 0 C 15 0 C 15 0 C 15 0 C 15 0 C 15 0 C 15 0 C 15 0 C
15 0 C 15 0 C 15 0 C 15 0 C 15 0 C 15 0 C 15 0 C 15 0 C 15 0 C 15 0 C 15 0 C 15 0 C 15 0 C 15 0 C 15 0 C 15 0 C 15 0 C 15 0 C 15 0 C
15 0 C 15 0 C 15 0 C 15 0 C 15 0 C 15 0 C 15 0 C 15 0 C 15 0 C 15 0 C 15 0 C 15 0 C 15 0 C 15 0 C 15 0 C 15 0 C 15 0 C 15 0 C 15 0 C
15 0 C 15 0 C 15 0 C 15 0 C 15 0 C 15 0 C 15 0 C 15 0 C 15 0 C 15 0 C 15 0 C 15 0 C 15 0 C 15 0 C 15 0 C 15 0 C 15 0 C 15 0 C 15 0 C
15 0 C 15 0 C 15 0 C 15 0 C 15 0 C 15 0 C 15 0 C 15 0 C 15 0 C 15 0 C 15 0 C 15 0 C 15 0 C 15 0 C 15 0 C 15 0 C 15 0 C 15 0 C 15 0 C
15 0 C 15 0 C 15 0 C 15 0 C 15 0 C 15 0 C 15 0 C 15 0 C 15 0 C 15 0 C 15 0 C 15 0 C 15 0 C 15 0 C 15 0 C 15 0 C 15 0 C
0 0 1024 K 0 0 1575 1170 L 15 0 C 15 0 C 15 0 C 15 0 C 15 0 C 15 0 C 15 0 C 15 0 C 15 0 C 15 1 C 15 1 C 15 1 C 15 3 C 15 4 C 15 4 C
15 7 C 15 10 C 15 11 C 15 15 C 15 17 C 15 21 C 15 24 C 15 26 C 15 28 C 15 31 C 15 32 C 15 35 C 15 36 C 15 36 C 15 37 C 15 39 C
15 39 C 15 38 C 15 39 C 15 38 C 15 37 C 15 37 C 15 37 C 15 36 C 15 33 C 15 32 C 15 35 C 15 31 C 15 31 C 15 30 C 15 27 C 15 27 C
15 25 C 15 25 C 15 22 C 15 24 C 15 20 C 15 21 C 15 16 C 15 20 C 15 17 C 15 18 C 15 14 C 15 12 C 15 16 C 15 14 C 15 15 C 15 11 C
15 11 C 15 12 C 15 8 C 15 9 C 15 8 C 15 8 C 15 10 C 15 5 C 15 8 C 15 9 C 15 7 C 15 3 C 15 6 C 15 4 C 15 5 C 15 1 C 15 5 C 15 1 C
15 2 C 15 -1 C 15 3 C 15 1 C 15 -2 C 15 0 C 15 0 C 15 1 C 15 -2 C 15 -4 C 15 1 C 15 -3 C 15 -5 C 15 -2 C 15 -1 C 15 -2 C 15 -3 C
15 -4 C 15 -6 C 15 -8 C 15 -4 C 15 -7 C 15 -6 C 15 -9 C 15 -9 C 15 -7 C 15 -12 C 15 -4 C 15 -8 C 15 -11 C 15 -9 C 15 -12 C 15 -12 C
15 -14 C 15 -14 C 15 -14 C 15 -16 C 15 -17 C 15 -20 C 15 -21 C 15 -21 C 15 -24 C 15 -25 C 15 -26 C 15 -27 C 15 -27 C 15 -28 C
15 -29 C 15 -28 C 15 -28 C 15 -28 C 15 -29 C 15 -30 C 15 -29 C 15 -29 C 15 -31 C 15 -29 C 15 -29 C 15 -28 C 15 -27 C 15 -26 C
15 -28 C 15 -25 C 15 -23 C 15 -24 C 15 -21 C 15 -21 C 15 -18 C 15 -19 C 15 -15 C 15 -16 C 15 -15 C 15 -13 C 15 -15 C 15 -14 C
15 -16 C 15 -15 C 15 -16 C 15 -16 C 15 -15 C 15 -15 C 15 -14 C 15 -11 C 15 -12 C 15 -11 C 15 -9 C 15 -9 C 15 -8 C 15 -9 C 15 -7 C
15 -8 C 15 -7 C 15 -6 C 15 -7 C 15 -5 C 15 -6 C 15 -4 C 15 -5 C 15 -4 C 15 -4 C 15 -3 C 15 -2 C 15 -3 C 15 -2 C 15 -2 C 15 0 C
15 -2 C 15 -1 C 15 -1 C 15 -1 C 15 0 C 15 -1 C 15 0 C 15 0 C 15 0 C 15 0 C 15 0 C 15 0 C 15 0 C 15 0 4575 1183 L 15 1 C 15 1 C
15 1 C 15 1 C 15 1 C 15 1 C 15 0 C 15 1 C 15 1 C 15 1 C 15 1 C 15 1 C 15 0 C 15 0 C 15 0 C 15 -1 C 15 -1 C 15 0 C 15 -1 C 15 -1 C
15 -1 C 15 -1 C 15 -2 C 15 -1 C 15 -2 C 15 -1 C 15 -2 C 15 -1 C 15 -2 C 15 -1 C 15 -1 C 15 -1 C 15 0 C 15 -1 C 15 -1 C 15 0 C
15 -1 C 15 0 C 15 0 C 15 0 C 15 0 C 15 -1 C 15 0 C 14 0 C 15 0 C 15 0 C 15 0 C 15 0 C 15 0 C 15 0 C 15 0 C 15 0 C 15 0 C 15 0 C
15 0 C 15 0 C 15 0 C 15 0 C 15 0 C 15 0 C 15 0 C 15 0 C 15 0 C 15 0 C 15 0 C 15 0 C 15 0 C 15 0 C 15 0 C 15 0 C 15 0 C 15 0 C 15 0 C
15 0 C 15 0 C 15 0 C 15 0 C 15 0 C 15 0 C 15 0 C 15 0 C 15 0 C 15 0 C 15 0 C 15 0 C 15 0 C 15 0 C 15 0 C 15 0 C 15 0 C 15 0 C 15 0 C
15 0 C 15 0 C 15 0 C 15 0 C 15 0 C 15 0 C 15 0 C 15 0 C 15 0 C 15 0 C 15 0 C 15 0 C 15 0 C 15 0 C 15 0 C 15 0 C 15 0 C 15 0 C 15 0 C
15 0 C 15 0 C 15 0 C 15 0 C 15 0 C 15 0 C 15 0 C 15 0 C 15 0 C 15 0 C 15 0 C 15 0 C 15 0 C 15 0 C 15 0 C 15 0 C 15 0 C 15 0 C 15 0 C
15 0 C 15 0 C 15 0 C 15 0 C 15 0 C 15 0 C 15 0 C 15 0 C 15 0 C 15 0 C 15 0 C 15 0 C 15 0 C 15 0 C 15 0 C 15 0 C 15 0 C 15 0 C 15 0 C
15 0 C 15 0 C 15 0 C 15 0 C 15 0 C 15 0 C 15 0 C 15 0 C 15 0 C 15 0 C 15 0 C 15 0 C 15 0 C 15 0 C 15 0 C 15 0 C 15 0 C 15 0 C 15 0 C
15 0 C 15 0 C 15 0 C 15 0 C 15 0 C 15 0 C 15 0 C 15 0 C 15 0 C 15 0 C 15 0 C 15 0 C 15 0 C 15 0 C 15 0 C 15 0 C 15 0 C 15 0 C 15 0 C
15 0 C 15 0 C 15 0 C 15 0 C 15 0 C 15 0 C 15 0 C 15 0 C 15 0 C 15 0 C 15 0 C 15 0 C 15 0 C 15 0 7589 1170 L 15 0 C 15 0 C 15 0 C
15 0 C 15 0 C 15 0 C 15 0 C 15 0 C 15 0 C 15 0 C 15 0 C 15 0 C 15 0 C 15 0 C 15 0 C 15 0 C 15 0 C 15 0 C 15 0 C 15 0 C 15 0 C 15 0 C
15 0 C 15 0 C 15 0 C 15 0 C 15 0 C 15 0 C 15 0 C 15 0 C 15 0 C 15 0 C 15 0 C 15 0 C 15 0 C 15 0 C 15 0 C 15 0 C 15 0 C 15 0 C 15 0 C
15 0 C 15 0 C 15 0 C 15 0 C 15 0 C 15 0 C 15 0 C 15 0 C 15 0 C 15 0 C 15 0 C 15 0 C 15 0 C 15 0 C 15 0 C 15 0 C 15 0 C 15 0 C 15 0 C
15 0 C 15 0 C 15 0 C 15 0 C 15 0 C 15 0 C 15 0 C 15 0 C 15 0 C 15 0 C 15 0 C 15 0 C 15 0 C 15 0 C 15 0 C 15 0 C 15 0 C 15 0 C 15 0 C
15 0 C 15 0 C 15 0 C 15 0 C 15 0 C 15 0 C 15 0 C 15 0 C 15 0 C 15 0 C 15 0 C 15 0 C 15 0 C 15 0 C 15 0 C 15 0 C 15 0 C 15 0 C 15 0 C
15 0 C 15 0 C 15 0 C 15 0 C 15 0 C 15 0 C 15 0 C 15 0 C 15 0 C 15 0 C 15 0 C 15 0 C 15 0 C 15 0 C 15 0 C 15 0 C 15 0 C 15 0 C 15 0 C
15 0 C 15 0 C 15 0 C 15 0 C 15 0 C 15 0 C 15 0 C 15 0 C 15 0 C 15 0 C 15 0 C 15 0 C 15 0 C 15 0 C 15 0 C 15 0 C 15 0 C 15 0 C 15 0 C
15 0 C 15 0 C 15 0 C 15 0 C 15 0 C 15 0 C 15 0 C 15 0 C 15 0 C 15 0 C 15 0 C 15 0 C 15 0 C 15 0 C 15 0 C 15 0 C 15 0 C 15 0 C 15 0 C
15 0 C 15 0 C 15 0 C
558 276 76 K 15 0 2100 1170 L 15 0 C 15 0 C 15 0 C 15 0 C 15 0 C 15 0 C 15 0 C 15 0 C 15 0 C 15 0 C 15 0 C 15 0 C 15 0 C 15 0 C
15 0 C 15 0 C 15 0 C 15 0 C 15 0 C 15 0 C 15 0 C 15 0 C 15 0 C 15 0 C 15 0 C 15 0 C 15 0 C 15 0 C 15 0 C 15 0 C 15 0 C 15 0 C 15 0 C
15 0 C 15 0 C 15 0 C 15 0 C 15 0 C 15 0 C 15 0 C 15 0 C 15 0 C 15 0 C 15 0 C 15 0 C 15 0 C 15 0 C 15 0 C 15 0 C 15 0 C 15 0 C 15 0 C
15 0 C 15 0 C 15 0 C 15 0 C 15 0 C 15 0 C 15 0 C 15 0 C 15 0 C 15 0 C 15 0 C 15 0 C 15 0 C 15 0 C 15 0 C 15 0 C 15 0 C 15 0 C 15 0 C
15 0 C 15 0 C 15 0 C 15 0 C 15 0 C 15 0 C 15 0 C 15 0 C 15 0 C 15 0 C 15 0 C 15 0 C 15 0 C 15 0 C 15 0 C 15 0 C 15 0 C 15 0 C 15 0 C
15 0 C 15 0 C 15 0 C 15 0 C 15 0 C 15 0 C 15 0 C 15 0 C 15 0 C 15 0 C 15 0 C 15 0 C 15 0 C 15 0 C 15 0 C 15 0 C 15 0 C 15 0 C 15 0 C
15 0 C 15 0 C 15 0 C 15 0 C 15 0 C 15 0 C 15 0 C 15 0 C 15 0 C 15 0 C 15 0 C 15 0 C 15 0 C 15 0 C 15 0 C 15 0 C 15 0 C 15 0 C 15 0 C
15 0 C 15 0 C 15 0 C 15 0 C 15 0 C 15 0 C 15 0 C 15 0 C 15 0 C 15 0 C 15 0 C 15 0 C 15 0 C 15 0 C 15 0 C 15 0 C 15 0 C 15 0 C 15 0 C
15 0 C 15 0 C 15 0 C 15 0 C 15 0 C 15 0 C 15 0 C 15 0 C 15 0 C 15 0 C 15 0 C 15 0 C 15 0 C 15 0 C 15 0 C 15 0 C 15 0 C 15 0 C 15 0 C
15 0 C 15 0 C 15 0 C 15 0 C 15 0 C 15 0 C 15 0 C 15 0 C 15 0 C 15 0 C 15 0 C 15 0 C 15 0 C 15 0 C 15 0 C 15 0 C 15 0 C 15 0 C 15 0 C
15 0 C 15 0 C 15 0 C 15 0 C 15 0 C 15 0 C 15 0 C 15 0 C 15 0 C 15 0 C 15 0 C 15 0 C 15 0 C 15 0 C 15 0 C 15 0 5115 1170 L 15 0 C
15 0 C 15 0 C 15 0 C 15 0 C 15 0 C 15 0 C 14 0 C 15 0 C 15 0 C 15 0 C 15 0 C 15 0 C 15 0 C 15 0 C 15 0 C 15 0 C 15 0 C 15 0 C 15 0 C
15 0 C 15 0 C 15 0 C 15 0 C 15 0 C 15 0 C 15 0 C 15 0 C 15 0 C 15 0 C 15 0 C 15 0 C 15 0 C 15 0 C 15 0 C 15 0 C 15 0 C 15 0 C 15 0 C
15 0 C 15 0 C 15 0 C 15 0 C 15 0 C 15 0 C 15 0 C 15 0 C 15 0 C 15 0 C 15 0 C 15 0 C 15 0 C 15 0 C 15 0 C 15 0 C 15 0 C 15 0 C 15 0 C
15 0 C 15 0 C 15 0 C 15 0 C 15 0 C 15 0 C 15 0 C 15 0 C 15 0 C 15 0 C 15 0 C 15 0 C 15 0 C 15 0 C 15 0 C 15 0 C 15 0 C 15 0 C 15 0 C
15 0 C 15 0 C 15 0 C 15 0 C 15 0 C 15 0 C 15 0 C 15 0 C 15 0 C 15 0 C 15 0 C 15 0 C 15 0 C 15 0 C 15 0 C 15 0 C 15 0 C 15 0 C 15 0 C
15 0 C 15 0 C 15 0 C 15 0 C 15 0 C 15 0 C 15 0 C 15 0 C 15 0 C 15 0 C 15 0 C 15 0 C 15 0 C 15 0 C 15 0 C 15 0 C 15 0 C 15 0 C 15 0 C
15 1 C 15 1 C 15 1 C 15 2 C 15 2 C 15 4 C 15 5 C 15 6 C 15 8 C 15 11 C 15 13 C 15 15 C 15 19 C 15 22 C 15 24 C 15 28 C 15 31 C
15 34 C 15 37 C 15 39 C 15 40 C 15 43 C 15 46 C 15 45 C 15 47 C 15 48 C 15 47 C 15 47 C 15 48 C 15 46 C 15 46 C 15 44 C 15 45 C
15 42 C 15 40 C 15 41 C 15 37 C 15 36 C 15 34 C 15 34 C 15 31 C 15 30 C 15 27 C 15 29 C 15 23 C 15 24 C 15 22 C 15 21 C 15 20 C
15 18 C 15 18 C 15 15 C 15 16 C 15 13 C 15 13 C 15 15 C 15 12 C 15 8 C 15 11 C 15 10 C 15 7 C 15 12 C 15 7 C 15 9 C 15 4 C 15 9 C
15 5 C 15 3 C 15 9 C 15 4 C 15 7 C 15 3 C 15 6 C 15 2 C 15 4 C 15 6 C 15 2 C 15 2 C 15 5 C 15 0 C 15 6 C 15 1 C 15 4 C 15 0 C 15 9 C
15 -2 8129 2831 L 15 1 C 15 6 C 15 1 C 15 1 C 15 5 C 15 0 C 15 3 C 15 -2 C 15 4 C 15 2 C 15 0 C 15 1 C 15 1 C 15 1 C 15 3 C 15 1 C
15 -2 C 15 3 C 15 -1 C 15 3 C 15 2 C 15 -2 C 15 4 C 15 -4 C 15 4 C 15 -3 C 15 5 C 15 1 C 15 -2 C 15 0 C 15 2 C 15 -1 C 15 2 C
15 -1 C 15 0 C 15 -2 C 15 4 C 15 1 C 15 -4 C 15 2 C 15 -1 C 15 2 C 15 -3 C 15 0 C 15 0 C 15 -3 C 15 4 C 15 0 C 15 -2 C 15 2 C
15 -4 C 15 1 C 15 -6 C 15 6 C 15 -5 C 15 -6 C 15 2 C 15 2 C 15 1 C 15 -3 C 15 -3 C 15 1 C 15 1 C 15 1 C 15 -6 C 15 -1 C 15 -4 C
15 4 C 15 -6 C 15 4 C 15 -1 C 15 -4 C 15 3 C 15 -11 C 15 -11 C 15 -1 C 15 -1 C 15 1 C 15 0 C 15 -4 C 15 -4 C 15 -1 C 15 -1 C 15 -1 C
15 -2 C 15 -3 C 15 -2 C 15 -1 C 15 0 C 15 -2 C 15 -2 C 15 -3 C 15 -4 C 15 -2 C 15 -1 C 15 -2 C 15 -2 C 15 -2 C 15 -3 C 15 -2 C
15 -2 C 15 -1 C 15 0 C 15 -3 C 15 -3 C 15 -2 C 15 -2 C 15 -4 C 15 -3 C 15 -2 C 15 -2 C 15 -2 C 15 -2 C 15 -3 C 15 -4 C 15 -2 C
15 -2 C 15 -4 C 15 -4 C 15 -1 C 15 -1 C 15 -4 C
0 0 0 K
PGPLOT restore showpage
%%PageTrailer
%%PageBoundingBox: 52 67 576 763
 
%%Trailer
%%BoundingBox: 52 67 576 763
%%DocumentFonts: 
%%Pages: 1
%%EOF
