275	0.25
288	0.22
292	0.2
296	0.19
300	0.16
312	0.07
325	0.2
338	0.61
350	0.73
375	0.81
400	0.87
425	0.9
450	0.92
475	0.94
500	0.95
525	0.95
550	0.96
575	0.97
600	0.97
625	0.97
650	0.97
675	0.97
700	0.97
725	0.97
750	0.98
775	0.98
800	0.98
825	0.98
850	0.98
875	0.98
900	0.98
925	0.98
950	0.98
975	0.98
1000	0.98
1025	0.98
1050	0.98
1075	0.98
1100	0.98
1125	0.98
1150	0.98
1175	0.98
1200	0.98
1225	0.98
1250	0.98
1275	0.98
1300	0.98
