350,0.000587
351,0.002161
352,0.005266
353,0.0103
354,0.02144
355,0.04602
356,0.09099
357,0.176
358,0.2985
359,0.4987
360,0.7521
361,1.091
362,1.576
363,2.182
364,2.936
365,3.818
366,4.867
367,6.1
368,7.422
369,8.893
370,10.45
371,12.13
372,13.91
373,15.73
374,17.59
375,19.52
376,21.48
377,23.49
378,25.46
379,27.43
380,29.4
381,31.29
382,33.18
383,35.1
384,36.94
385,38.65
386,40.29
387,42.09
388,43.63
389,45.23
390,46.78
391,48.17
392,49.57
393,50.86
394,52.13
395,53.22
396,54.47
397,55.49
398,56.59
399,57.38
400,58.45
401,59.32
402,60.2
403,60.94
404,61.54
405,62.36
406,63.1
407,63.87
408,64.45
409,64.97
410,65.62
411,66.01
412,66.49
413,66.88
414,67.29
415,67.82
416,68.09
417,68.49
418,68.95
419,69.29
420,69.47
421,69.76
422,69.99
423,70.24
424,70.27
425,70.54
426,70.59
427,70.68
428,70.63
429,70.8
430,70.85
431,70.75
432,70.75
433,70.71
434,70.79
435,70.68
436,70.5
437,70.52
438,70.36
439,70.13
440,70.03
441,69.99
442,69.85
443,69.69
444,69.49
445,69.21
446,68.8
447,68.59
448,68.2
449,67.93
450,67.43
451,67
452,66.62
453,66.04
454,65.79
455,65.41
456,64.82
457,64.35
458,63.76
459,63.16
460,62.44
461,61.7
462,60.97
463,60.18
464,59.28
465,58.29
466,57.19
467,56.13
468,54.91
469,53.59
470,52.26
471,50.91
472,49.51
473,48.07
474,46.57
475,45.16
476,43.72
477,42.29
478,40.78
479,39.24
480,37.77
481,36.27
482,34.7
483,33.2
484,31.69
485,30.29
486,28.87
487,27.53
488,26.09
489,24.84
490,23.63
491,22.44
492,21.34
493,20.29
494,19.32
495,18.39
496,17.58
497,16.77
498,16.03
499,15.32
500,14.57
501,13.83
502,13.04
503,12.26
504,11.42
505,10.64
506,9.834
507,9.081
508,8.375
509,7.779
510,7.179
511,6.629
512,6.148
513,5.693
514,5.267
515,4.843
516,4.452
517,4.069
518,3.711
519,3.375
520,3.047
521,2.765
522,2.486
523,2.236
524,2.007
525,1.805
526,1.612
527,1.454
528,1.316
529,1.187
530,1.08
531,0.9912
532,0.9557
533,0.8877
534,0.8376
535,0.786
536,0.743
537,0.7178
538,0.6931
539,0.6755
540,0.6581
541,0.6538
542,0.6495
543,0.6553
544,0.6669
545,0.6822
546,0.7039
547,0.7346
548,0.7732
549,0.8142
550,0.8643
551,0.9235
552,0.9856
553,0.9871
554,1.052
555,1.103
556,1.15
557,1.19
558,1.215
559,1.222
560,1.232
561,1.217
562,1.191
563,1.164
564,1.125
565,1.063
566,1.005
567,0.9884
568,0.9087
569,0.8429
570,0.7606
571,0.678
572,0.5972
573,0.5252
574,0.4518
575,0.3891
576,0.3277
577,0.2747
578,0.2292
579,0.1874
580,0.1521
581,0.1244
582,0.1004
583,0.08204
584,0.06575
585,0.05256
586,0.04287
587,0.03531
588,0.02989
589,0.02594
590,0.02223
591,0.01988
592,0.01835
593,0.01741
594,0.01636
595,0.01559
596,0.01531
597,0.01512
598,0.01497
599,0.0145
600,0.01496
601,0.01441
602,0.01433
603,0.01435
604,0.01405
605,0.01361
606,0.01327
607,0.01352
608,0.01245
609,0.01205
610,0.01143
611,0.01124
612,0.01083
613,0.01076
614,0.009689
615,0.009407
616,0.008985
617,0.00845
618,0.008071
619,0.007163
620,0.006933
621,0.006319
622,0.006095
623,0.00527
624,0.005042
625,0.004672
626,0.004084
627,0.003694
628,0.003451
629,0.002954
630,0.002851
631,0.002501
632,0.002228
633,0.001985
634,0.001723
635,0.001531
636,0.001389
637,0.001175
638,0.001082
639,0.000974
640,0.000918
641,0.000802
642,0.000695
643,0.000835
644,0.000609
645,0.000535
646,0.000479
647,0.000592
648,0.000455
649,0.000575
650,0.000499
651,0.000522
652,0.00048
653,0.000474
654,0.000399
655,0.000484
656,0.000393
657,0.000482
658,0.000405
659,0.000482
660,0.000486
661,0.00037
662,0.000465
663,0.000556
664,0.000463
665,0.000523
666,0.00055
667,0.000602
668,0.000607
669,0.000722
670,0.000602
671,0.00071
672,0.000811
673,0.000781
674,0.00084
675,0.000858
676,0.000991
677,0.001034
678,0.000983
679,0.001055
680,0.000936
681,0.001367
682,0.0011
683,0.001108
684,0.001397
685,0.001259
686,0.001096
687,0.001395
688,0.001268
689,0.001291
690,0.001305
691,0.001323
692,0.001211
693,0.001216
694,0.001135
695,0.000918
696,0.001087
697,0.000999
698,0.000831
699,0.000777
700,0.000785
701,0.000669
702,0.000711
703,0.00076
704,0.000462
705,0.00042
706,0.000319
707,0.000579
708,0.000398
709,0.000424
710,0.000432
711,0.000409
712,0.000289
713,0.000272
714,0.000226
715,0.000349
716,0.00015
717,0.000169
718,0.000094
719,0.000134
720,0.000175
721,-0.000042
722,0.000026
723,0.000056
724,0.000065
725,0.000124
726,0.000222
727,0.000026
728,0.000016
729,0.000036
730,0.000129
731,0.000078
732,-0.000021
733,-0.000006
734,0.000016
735,-0.000027
736,-0.000094
737,0.000243
738,-0.000034
739,0.000046
740,-0.000026
741,0.000016
742,0.000066
743,0.000138
744,-0.000063
745,-0.000049
746,-0.000045
747,0.000225
748,0.000116
749,-0.000063
750,0.000026
751,0.000078
752,-0.000103
753,-0.000026
754,0.000066
755,0.000157
756,0.000097
757,0.00016
758,-0.000001
759,-0.000088
760,-0.000021
761,-0.000047
762,0.000016
763,0.000098
764,-0.000013
765,-0.000035
766,0.000115
767,0.000086
768,0.000047
769,-0.000093
770,-0.000002
771,-0.000018
772,-0.000029
773,-0.000006
774,-0.000041
775,-0.000067
776,-0.000058
777,0.000119
778,-0.000003
779,0.00011
780,-0.00009
781,-0.000026
782,0.000199
783,0.000119
784,-0.000018
785,-0.000104
786,-0.000103
787,-0.000131
788,0.000308
789,-0.000136
790,0.000191
791,-0.000086
792,-0.000112
793,-0.000046
794,0.000197
795,-0.000062
796,0.000129
797,-0.000128
798,0.000344
799,-0.000036
800,0.000017
801,-0.000001
802,0.000289
803,0.000322
804,-0.000038
805,0.000284
806,0.000036
807,0.000184
808,-0.000039
809,0.000066
810,-0.000234
811,0.000127
812,-0.000012
813,-0.000059
814,0.000036
815,0.000567
816,0.000203
817,-0.000001
818,-0.000082
819,-0.00008
820,0.000046
821,-0.000049
822,-0.000256
823,0.000298
824,0.000185
825,-0.000095
826,-0.000172
827,0.000215
828,0.000659
829,-0.000021
830,-0.000096
831,-0.000033
832,0.000157
833,-0.000257
834,0.000513
835,0.001043
836,-0.000454
837,-0.000225
838,-0.000093
839,-0.000311
840,0.001218
841,0.000016
842,0.000127
843,0.000365
844,0.000298
845,-0.000226
846,-0.000024
847,-0.000066
848,0.000213
849,0.000491
850,-0.000138
851,0.000578
852,0.000049
853,-0.000108
854,0.001099
855,0.001612
856,-0.000473
857,-0.000933
858,-0.001425
859,-0.001287
860,-0.00115
861,-0.001177
862,-0.001204
863,-0.000834
864,-0.000465
865,-0.001118
866,-0.001771
867,-0.001766
868,-0.001762
869,-0.001356
870,-0.000951
871,-0.001033
872,-0.001113
873,-0.001069
874,-0.001025
875,-0.000901
876,-0.000776
877,-0.000984
878,-0.001191
879,-0.001105
880,-0.001018
881,-0.001057
882,-0.001095
883,-0.001629
884,-0.002162
885,-0.001948
886,-0.001736
887,-0.001249
888,-0.000764
889,-0.000892
890,-0.001021
891,-0.000735
892,-0.000449
893,-0.000525
894,-0.0006
895,-0.001007
896,-0.001413
897,-0.001205
898,-0.000997
899,-0.000798
900,-0.000599
901,-0.000842
902,-0.001084
903,-0.000996
904,-0.000908
905,-0.001194
906,-0.001479
907,-0.001352
908,-0.001224
909,-0.001222
910,-0.001219
911,-0.001463
912,-0.001706
913,-0.001734
914,-0.001762
915,-0.001494
916,-0.001227
917,-0.001025
918,-0.000823
919,-0.001176
920,-0.001528
921,-0.00129
922,-0.001053
923,-0.001057
924,-0.001061
925,-0.001015
926,-0.000969
927,-0.000978
928,-0.000987
929,-0.001089
930,-0.00119
931,-0.001084
932,-0.000978
933,-0.00078
934,-0.000582
935,-0.00112
936,-0.001658
937,-0.001314
938,-0.00097
939,-0.001193
940,-0.001416
941,-0.001044
942,-0.000671
943,-0.00104
944,-0.00141
945,-0.001263
946,-0.001117
947,-0.001343
948,-0.001568
949,-0.000999
950,-0.000429
951,-0.000811
952,-0.001193
953,-0.000998
954,-0.000803
955,-0.001144
956,-0.001484
957,-0.00141
958,-0.001335
959,-0.001105
960,-0.000874
961,-0.00133
962,-0.001785
963,-0.001294
964,-0.000803
965,-0.000765
966,-0.000728
967,-0.000656
968,-0.000585
969,-0.001059
970,-0.001532
971,-0.001178
972,-0.000824
973,-0.000808
974,-0.000792
975,-0.000981
976,-0.001169
977,-0.001317
978,-0.001464
979,-0.000843
980,-0.000222
981,-0.000873
982,-0.001524
983,-0.001497
984,-0.00147
985,-0.001212
986,-0.000955
987,-0.000798
988,-0.00064
989,-0.000793
990,-0.000946
991,-0.001094
992,-0.001243
993,-0.001017
994,-0.000792
995,-0.000938
996,-0.001085
997,-0.000938
998,-0.000792
999,-0.000686
1000,-0.00058
1001,-0.000757
1002,-0.000934
1003,-0.000824
1004,-0.000714
1005,-0.000423
1006,-0.000132
1007,-0.000899
1008,-0.001665
1009,-0.001419
1010,-0.001173
1011,-0.001265
1012,-0.001357
1013,-0.001072
1014,-0.000787
1015,-0.000753
1016,-0.000719
1017,-0.000819
1018,-0.000919
1019,-0.00075
1020,-0.00058
1021,-0.000751
1022,-0.000921
1023,-0.001107
1024,-0.001292
1025,-0.001293
1026,-0.001293
1027,-0.001405
1028,-0.001516
1029,-0.001253
1030,-0.00099
1031,-0.001071
1032,-0.001152
1033,-0.001182
1034,-0.001212
1035,-0.000994
1036,-0.000778
1037,-0.000959
1038,-0.001141
1039,-0.00082
1040,-0.0005
1041,-0.000632
1042,-0.000764
1043,-0.00096
1044,-0.001156
1045,-0.001211
1046,-0.001265
1047,-0.00113
1048,-0.000996
1049,-0.001244
1050,-0.001493
1051,-0.001423
1052,-0.001353
1053,-0.001458
1054,-0.001563
1055,-0.001563
1056,-0.001563
1057,-0.00164
1058,-0.001716
1059,-0.001418
1060,-0.00112
1061,-0.00117
1062,-0.001221
1063,-0.001028
1064,-0.000835
1065,-0.001019
1066,-0.001204
1067,-0.000879
1068,-0.000553
1069,-0.000592
1070,-0.000631
1071,-0.000948
1072,-0.001265
1073,-0.001017
1074,-0.000769
1075,-0.000877
1076,-0.000986
1077,-0.000914
1078,-0.000843
1079,-0.000838
1080,-0.000833
1081,-0.001089
1082,-0.001344
1083,-0.00119
1084,-0.001037
1085,-0.000874
1086,-0.00071
1087,-0.001266
1088,-0.001823
1089,-0.001262
1090,-0.000703
1091,-0.000622
1092,-0.000541
1093,-0.000656
1094,-0.00077
1095,-0.000799
1096,-0.000828
1097,-0.001082
1098,-0.001337
1099,-0.001013
1100,-0.000689
1101,-0.000548
1102,-0.000408
1103,-0.000476
1104,-0.000544
1105,-0.000901
1106,-0.001257
1107,-0.001154
1108,-0.00105
1109,-0.001256
1110,-0.001462
1111,-0.001188
1112,-0.000914
1113,-0.000866
1114,-0.000817
1115,-0.000718
1116,-0.000618
1117,-0.000829
1118,-0.001039
1119,-0.001041
1120,-0.001043
1121,-0.001213
1122,-0.001383
1123,-0.001073
1124,-0.000762
1125,-0.001074
1126,-0.001385
1127,-0.001289
1128,-0.001193
1129,-0.001071
1130,-0.000949
1131,-0.000855
1132,-0.000761
1133,-0.000681
1134,-0.000601
1135,-0.000713
1136,-0.000825
1137,-0.001
1138,-0.001175
1139,-0.001069
1140,-0.000963
1141,-0.001105
1142,-0.001247
1143,-0.000714
1144,-0.000182
1145,-0.000926
1146,-0.001669
1147,-0.001278
1148,-0.000888
1149,-0.000853
1150,-0.000819
1151,-0.00096
1152,-0.001101
1153,-0.001027
1154,-0.000953
1155,-0.00092
1156,-0.000887
1157,-0.000815
1158,-0.000742
1159,-0.000709
1160,-0.000676
1161,-0.000815
1162,-0.000955
1163,-0.001058
1164,-0.001161
1165,-0.000952
1166,-0.000743
1167,-0.000708
1168,-0.000673
1169,-0.000391
1170,-0.000109
1171,-0.00039
1172,-0.000671
1173,-0.000811
1174,-0.000952
1175,-0.000848
1176,-0.000744
1177,-0.000601
1178,-0.000457
1179,-0.00109
1180,-0.001723
1181,-0.001266
1182,-0.000809
1183,-0.000458
1184,-0.000108
1185,-0.00039
1186,-0.000672
1187,-0.000737
1188,-0.000801
1189,-0.000911
1190,-0.001021
1191,-0.000949
1192,-0.000877
1193,-0.000772
1194,-0.000668
1195,-0.000822
1196,-0.000976
1197,-0.000569
1198,-0.000161
1199,-0.000214
1200,-0.000266
