R (nm), (%)
380,0.001007
381,0.000765
382,0.000924
383,0.000716
384,0.000798
385,0.0008
386,0.000674
387,0.000917
388,0.000822
389,0.000882
390,0.000685
391,0.000778
392,0.000669
393,0.000769
394,0.000707
395,0.000894
396,0.000672
397,0.000667
398,0.000726
399,0.000802
400,0.000827
401,0.000835
402,0.000908
403,0.000843
404,0.000727
405,0.000953
406,0.000896
407,0.000792
408,0.001011
409,0.000765
410,0.000786
411,0.000816
412,0.000899
413,0.000716
414,0.000917
415,0.000742
416,0.000723
417,0.000825
418,0.000834
419,0.000718
420,0.00087
421,0.000916
422,0.000854
423,0.000743
424,0.000749
425,0.000727
426,0.000957
427,0.000784
428,0.000878
429,0.000976
430,0.000958
431,0.000777
432,0.000892
433,0.00078
434,0.000963
435,0.000829
436,0.000804
437,0.000924
438,0.000949
439,0.000864
440,0.000849
441,0.001001
442,0.001037
443,0.001015
444,0.000962
445,0.00092
446,0.000918
447,0.000909
448,0.000975
449,0.000904
450,0.001068
451,0.000809
452,0.000831
453,0.001044
454,0.000944
455,0.000935
456,0.000961
457,0.00101
458,0.001055
459,0.001017
460,0.000951
461,0.00099
462,0.000985
463,0.001016
464,0.001055
465,0.001039
466,0.000879
467,0.001127
468,0.001048
469,0.001086
470,0.001
471,0.001026
472,0.000975
473,0.000949
474,0.000979
475,0.000963
476,0.000981
477,0.001158
478,0.000984
479,0.001075
480,0.001061
481,0.001047
482,0.001064
483,0.001057
484,0.001024
485,0.001104
486,0.001161
487,0.001148
488,0.001093
489,0.001106
490,0.001115
491,0.001109
492,0.001298
493,0.001326
494,0.001499
495,0.00161
496,0.001685
497,0.001797
498,0.002095
499,0.002363
500,0.00249
501,0.002747
502,0.003162
503,0.003513
504,0.003785
505,0.003925
506,0.00395
507,0.003982
508,0.004235
509,0.004433
510,0.004279
511,0.004457
512,0.004354
513,0.004091
514,0.004209
515,0.004175
516,0.004248
517,0.004179
518,0.003802
519,0.004027
520,0.003883
521,0.004028
522,0.003584
523,0.003651
524,0.003711
525,0.003448
526,0.003277
527,0.003179
528,0.003352
529,0.003307
530,0.003463
531,0.003431
532,0.003656
533,0.003644
534,0.0039
535,0.004217
536,0.004543
537,0.005476
538,0.006487
539,0.00756
540,0.009659
541,0.01239
542,0.01751
543,0.02373
544,0.03317
545,0.04808
546,0.07068
547,0.1059
548,0.1582
549,0.2364
550,0.3577
551,0.5301
552,0.7769
553,1.11
554,1.587
555,2.236
556,3.07
557,4.145
558,5.485
559,7.117
560,9.029
561,11.24
562,13.75
563,16.58
564,19.62
565,22.84
566,26.21
567,29.79
568,33.39
569,36.96
570,40.5
571,43.98
572,47.32
573,50.62
574,53.7
575,56.54
576,59.27
577,61.71
578,64.07
579,66.08
580,67.96
581,69.58
582,71.02
583,72.43
584,73.56
585,74.58
586,75.45
587,76.24
588,76.86
589,77.39
590,77.79
591,78.13
592,78.47
593,78.72
594,78.86
595,79
596,79.08
597,79.13
598,79.08
599,79.09
600,79
601,78.87
602,78.77
603,78.71
604,78.49
605,78.3
606,78.1
607,77.9
608,77.63
609,77.44
610,77.14
611,76.89
612,76.64
613,76.33
614,76.04
615,75.75
616,75.44
617,75.12
618,74.75
619,74.43
620,74.15
621,73.76
622,73.36
623,73
624,72.63
625,72.26
626,71.86
627,71.52
628,71.1
629,70.7
630,70.27
631,69.9
632,69.45
633,69.07
634,68.58
635,68.24
636,67.81
637,67.39
638,66.93
639,66.53
640,66.05
641,65.62
642,65.17
643,64.73
644,64.3
645,63.8
646,63.38
647,62.9
648,62.46
649,61.96
650,61.51
651,61.02
652,60.6
653,60.14
654,59.66
655,59.21
656,58.73
657,58.24
658,57.8
659,57.41
660,56.88
661,56.37
662,55.92
663,55.47
664,54.95
665,54.52
666,54.05
667,53.54
668,53.1
669,52.59
670,52.07
671,51.62
672,51.13
673,50.63
674,50.15
675,49.64
676,49.11
677,48.65
678,48.06
679,47.55
680,47.06
681,46.55
682,45.95
683,45.47
684,44.96
685,44.41
686,43.87
687,43.36
688,42.79
689,42.27
690,41.74
691,41.25
692,40.69
693,40.17
694,39.63
695,39.11
696,38.62
697,38.13
698,37.6
699,37.03
700,36.55
701,36.04
702,35.53
703,35.06
704,34.56
705,34.03
706,33.53
707,33.06
708,32.6
709,32.12
710,31.62
711,31.11
712,30.66
713,30.18
714,29.71
715,29.27
716,28.82
717,28.31
718,27.9
719,27.46
720,27
721,26.56
722,26.13
723,25.7
724,25.3
725,24.84
726,24.43
727,24.03
728,23.6
729,23.19
730,22.78
731,22.39
732,21.98
733,21.62
734,21.2
735,20.86
736,20.46
737,20.06
738,19.7
739,19.33
740,18.95
741,18.59
742,18.24
743,17.93
744,17.52
745,17.2
746,16.85
747,16.51
748,16.17
749,15.85
750,15.5
751,15.21
752,14.87
753,14.54
754,14.26
755,13.93
756,13.64
757,13.36
758,13.07
759,12.74
760,12.44
761,12.22
762,11.93
763,11.67
764,11.38
765,11.11
766,10.85
767,10.6
768,10.31
769,10.15
770,9.871
771,9.637
772,9.412
773,9.18
774,8.954
775,8.721
776,8.472
777,8.302
778,8.096
779,7.886
780,7.689
781,7.486
782,7.288
783,7.082
784,6.912
785,6.736
786,6.562
787,6.409
788,6.209
789,6.065
790,5.903
791,5.72
792,5.556
793,5.426
794,5.279
795,5.131
796,4.981
797,4.859
798,4.708
799,4.577
800,4.474
801,4.328
802,4.208
803,4.076
804,3.966
805,3.858
806,3.734
807,3.656
808,3.543
809,3.434
810,3.322
811,3.221
812,3.141
813,3.035
814,2.948
815,2.871
816,2.776
817,2.699
818,2.613
819,2.526
820,2.469
821,2.397
822,2.301
823,2.227
824,2.164
825,2.091
826,2.023
827,1.97
828,1.923
829,1.845
830,1.782
831,1.732
832,1.672
833,1.613
834,1.576
835,1.53
836,1.478
837,1.423
838,1.365
839,1.343
840,1.304
841,1.245
842,1.198
843,1.166
844,1.108
845,1.097
846,1.059
847,1.029
848,0.9986
849,0.9877
850,0.9545
851,0.9313
852,0.8861
853,0.8614
854,0.827
855,0.8106
856,0.7792
857,0.7448
858,0.7078
859,0.6849
860,0.6619
861,0.6377
862,0.6136
863,0.5919
864,0.5703
865,0.5492
866,0.5282
867,0.5112
868,0.4942
869,0.4768
870,0.4593
871,0.4432
872,0.4271
873,0.4114
874,0.3957
875,0.381
876,0.3663
877,0.3556
878,0.3449
879,0.3307
880,0.3165
881,0.307
882,0.2974
883,0.2848
884,0.2722
885,0.2629
886,0.2535
887,0.2459
888,0.2383
889,0.2302
890,0.2221
891,0.2135
892,0.2049
893,0.1992
894,0.1935
895,0.1851
896,0.1768
897,0.1711
898,0.1654
899,0.159
900,0.1526
901,0.1478
902,0.1431
903,0.1364
904,0.1298
905,0.1267
906,0.1235
907,0.1197
908,0.1158
909,0.1099
910,0.1039
911,0.1
912,0.09615
913,0.09374
914,0.09134
915,0.08678
916,0.08223
917,0.08103
918,0.07983
919,0.07658
920,0.07334
921,0.069
922,0.06467
923,0.06418
924,0.06368
925,0.06279
926,0.06189
927,0.05764
928,0.05341
929,0.05239
930,0.05139
931,0.04794
932,0.0445
933,0.04307
934,0.04164
935,0.04216
936,0.04268
937,0.03976
938,0.03684
939,0.03512
940,0.03339
941,0.03203
942,0.03066
943,0.02912
944,0.02758
945,0.02728
946,0.02698
947,0.02561
948,0.02426
949,0.024
950,0.02375
951,0.02059
952,0.01744
953,0.01773
954,0.01802
955,0.01772
956,0.01743
957,0.01657
958,0.01571
959,0.01589
960,0.01608
961,0.01387
962,0.01166
963,0.01202
964,0.01239
965,0.00955
966,0.006709
967,0.007448
968,0.008186
969,0.00895
970,0.009712
971,0.007693
972,0.005673
973,0.005734
974,0.005795
975,0.006338
976,0.00688
977,0.006558
978,0.006236
979,0.00614
980,0.006045
981,0.005737
982,0.005428
983,0.004818
984,0.004209
985,0.003791
986,0.003374
987,0.003387
988,0.003399
989,0.00411
990,0.004821
991,0.003484
992,0.002147
993,0.002312
994,0.002478
995,0.000819
996,-0.000417
997,0.001079
998,0.002992
999,0.001228
1000,-0.000267
1001,-0.000045
1002,0.000355
1003,-0.000496
1004,-0.001171
1005,-0.000358
1006,0.000905
1007,-0.00013
1008,-0.000713
1009,-0.000866
1010,-0.001019
1011,-0.000197
1012,0.001249
1013,-0.0002
1014,-0.001025
1015,-0.001238
1016,-0.00145
1017,-0.001533
1018,-0.001616
1019,-0.000871
1020,-0.000125
1021,-0.000348
1022,-0.000571
1023,-0.001087
1024,-0.001604
1025,-0.000284
1026,0.002067
1027,-0.000058
1028,-0.001149
1029,-0.001379
1030,-0.001608
1031,-0.001601
1032,-0.001593
1033,-0.001373
1034,-0.001154
1035,-0.001745
1036,-0.002336
1037,-0.002037
1038,-0.001738
1039,-0.001819
1040,-0.0019
1041,-0.001962
1042,-0.002024
1043,-0.001518
1044,-0.001013
1045,-0.00159
1046,-0.002166
1047,-0.00151
1048,-0.000855
1049,-0.001594
1050,-0.002334
1051,-0.001958
1052,-0.001584
1053,-0.00224
1054,-0.002896
1055,-0.002606
1056,-0.002316
1057,-0.002623
1058,-0.00293
1059,-0.002614
1060,-0.002299
1061,-0.002167
1062,-0.002036
1063,-0.00115
1064,-0.000263
1065,-0.00151
1066,-0.002755
1067,-0.002528
1068,-0.002301
1069,-0.003034
1070,-0.003768
1071,-0.002746
1072,-0.001723
1073,-0.001725
1074,-0.001727
1075,-0.001434
1076,-0.001142
1077,-0.001936
1078,-0.00273
1079,-0.002661
1080,-0.002592
1081,-0.002225
1082,-0.001857
1083,-0.002015
1084,-0.002173
1085,-0.002517
1086,-0.00286
1087,-0.002294
1088,-0.001728
1089,-0.001931
1090,-0.002135
1091,-0.002
1092,-0.001864
1093,-0.003015
1094,-0.004163
1095,-0.003951
1096,-0.003739
1097,-0.00272
1098,-0.001703
1099,-0.002216
1100,-0.002731
1101,-0.00222
1102,-0.00171
1103,-0.001994
1104,-0.002278
1105,-0.002644
1106,-0.003009
1107,-0.002645
1108,-0.002282
1109,-0.002647
1110,-0.003012
1111,-0.002861
1112,-0.00271
1113,-0.002348
1114,-0.001985
1115,-0.001987
1116,-0.001989
1117,-0.00177
1118,-0.001553
1119,-0.001905
1120,-0.002258
1121,-0.002198
1122,-0.002139
1123,-0.001697
1124,-0.001258
1125,-0.002708
1126,-0.00416
1127,-0.00344
1128,-0.002718
1129,-0.002983
1130,-0.003248
1131,-0.003157
1132,-0.003065
1133,-0.003189
1134,-0.003313
1135,-0.003604
1136,-0.003895
1137,-0.003434
1138,-0.002973
1139,-0.002835
1140,-0.002698
1141,-0.003251
1142,-0.003805
1143,-0.003458
1144,-0.00311
1145,-0.003122
1146,-0.003134
1147,-0.003122
1148,-0.003111
1149,-0.002822
1150,-0.002534
1151,-0.002402
1152,-0.00227
1153,-0.002404
1154,-0.002539
1155,-0.002978
1156,-0.003416
1157,-0.002828
1158,-0.00224
1159,-0.002115
1160,-0.001989
1161,-0.001896
1162,-0.001803
1163,-0.002465
1164,-0.003125
1165,-0.002961
1166,-0.002798
1167,-0.002957
1168,-0.003117
1169,-0.002457
1170,-0.001797
1171,-0.002304
1172,-0.002809
1173,-0.003224
1174,-0.003639
1175,-0.002587
1176,-0.001536
1177,-0.002583
1178,-0.003628
1179,-0.003784
1180,-0.00394
1181,-0.003431
1182,-0.002923
1183,-0.002017
1184,-0.00111
1185,-0.001805
1186,-0.0025
1187,-0.00393
1188,-0.005357
1189,-0.003856
1190,-0.002356
1191,-0.002225
1192,-0.002095
1193,-0.002295
1194,-0.002496
1195,-0.003363
1196,-0.00423
1197,-0.003086
1198,-0.001941
1199,-0.003123
1200,-0.004303