350	0.4567
375	0.4857
400	0.5110
425	0.5435
450	0.5664
475	0.5853
500	0.6047
512	0.6142
525	0.6236
550	0.6386
575	0.6518
588	0.6588
600	0.6664
625	0.6807
650	0.6941
662	0.6997
675	0.7044
700	0.7133
725	0.7201
750	0.7259
775	0.7300
800	0.7339
825	0.7371
850	0.7402
875	0.7432
900	0.7468
