1100	-0.002956923796	
1099.5	-0.004238450434	
1099	0.007057007868	
1098.5	0.001164949499	
1098	-0.0007777792052	
1097.5	0.001168501098	
1097	-0.00128875277	
1096.5	0.00161836145	
1096	-0.00245757564	
1095.5	-0.001771832467	
1095	0.002091705799	
1094.5	0.003630653024	
1094	-0.004967793357	
1093.5	0.0006729236338	
1093	-0.007882350124	
1092.5	0.003281529527	
1092	-0.0009644562961	
1091.5	-0.0008826425183	
1091	-9.914192196E-5	
1090.5	-9.983518976E-5	
1090	-0.005145689007	
1089.5	0.00237127766	
1089	0.001614012057	
1088.5	0.001115784631	
1088	0.003660298884	
1087.5	-0.003082918469	
1087	0.002352746669	
1086.5	0.001931230305	
1086	-0.004607379902	
1085.5	0.0007680801209	
1085	-0.0009677523049	
1084.5	-0.0018372708	
1084	0.003171846503	
1083.5	0.001476672245	
1083	0.001146830851	
1082.5	-0.001821247628	
1082	-0.005628207698	
1081.5	0.006507974584	
1081	-0.003977179527	
1080.5	-0.00174511876	
1080	-0.002674568212	
1079.5	-0.003108415753	
1079	-0.004374633543	
1078.5	-0.006886593532	
1078	-0.003371745814	
1077.5	-0.00515420083	
1077	0.00107293122	
1076.5	-0.004407683853	
1076	0.01105826348	
1075.5	-0.0005925067235	
1075	-0.006833207794	
1074.5	-0.007243006956	
1074	-0.001456074184	
1073.5	-0.00146061345	
1073	-0.0002534694795	
1072.5	-0.005934937391	
1072	0.00185386301	
1071.5	-0.002780742943	
1071	-0.002629236085	
1070.5	0.0005655930727	
1070	0.0006476523122	
1069.5	-0.0006788347382	
1069	-0.003228875343	
1068.5	-0.005668024067	
1068	0.0005841709208	
1067.5	-0.001548198285	
1067	-0.002370758215	
1066.5	0.004295361228	
1066	-0.0001945168624	
1065.5	0.003517677775	
1065	-0.003210135503	
1064.5	-0.007446490694	
1064	0.002225398552	
1063.5	-0.002713181777	
1063	-0.005307181273	
1062.5	-0.003279749304	
1062	0.01930648275	
1061.5	-0.005678364076	
1061	-0.0003466245835	
1060.5	-0.004904200323	
1060	0.0009095963906	
1059.5	-0.005238297861	
1059	-0.006563503295	
1058.5	0.0009672112064	
1058	-0.01169742458	
1057.5	0.00181320589	
1057	-0.002010218799	
1056.5	-0.002463653684	
1056	0.002677188022	
1055.5	0.0008836031193	
1055	0.005963517353	
1054.5	-0.003299728269	
1054	-0.002372189658	
1053.5	-0.003744807793	
1053	0.0004714947427	
1052.5	1.093730589E-5	
1052	0.0004477204056	
1051.5	0.0009240007494	
1051	0.003439838067	
1050.5	-0.0007948288694	
1050	0.0004141848767	
1049.5	-0.004142844584	
1049	-0.004576792009	
1048.5	-0.004191884771	
1048	-0.0002415269119	
1047.5	0.009213000536	
1047	-0.002905195812	
1046.5	0.001336154994	
1046	0.002566459356	
1045.5	0.005458224565	
1045	0.001659034169	
1044.5	0.007124696393	
1044	-0.003348432016	
1043.5	0.002041538944	
1043	0.001748507959	
1042.5	-0.001736077713	
1042	-0.002846444957	
1041.5	-0.001280933735	
1041	-0.005010047927	
1040.5	-0.001724036178	
1040	-0.004698763136	
1039.5	-0.004615682177	
1039	-0.005469387397	
1038.5	-9.850655624E-5	
1038	0.0007758670836	
1037.5	0.002833671402	
1037	-0.003726899391	
1036.5	-0.004304854665	
1036	-0.001213834272	
1035.5	0.0003212222946	
1035	0.002947110916	
1034.5	0.002424977254	
1034	0.000315026351	
1033.5	-0.006706154905	
1033	0.002056494122	
1032.5	-0.003405321622	
1032	-0.004737006035	
1031.5	-9.638840856E-5	
1031	-0.00511797471	
1030.5	-0.00390130817	
1030	-0.006848559715	
1029.5	-0.002992495894	
1029	-0.007244624197	
1028.5	0.001485122484	
1028	0.00167595665	
1027.5	-0.00387705653	
1027	-0.0005677251611	
1026.5	-0.002316444414	
1026	-0.00743702054	
1025.5	-0.01443849877	
1025	-0.003203380853	
1024.5	-0.001015549176	
1024	0.01067541633	
1023.5	-3.887262574E-5	
1023	-0.001831753994	
1022.5	0.001480177976	
1022	0.006960992236	
1021.5	-0.001019857824	
1021	0.001486514229	
1020.5	0.001090766862	
1020	-0.003139337059	
1019.5	-0.003968533128	
1019	0.01322478056	
1018.5	0.0002162825404	
1018	-0.006504969671	
1017.5	-0.004365076311	
1017	-0.0006396669196	
1016.5	0.000301714841	
1016	0.0001572167821	
1015.5	-0.00144995295	
1015	0.002272410784	
1014.5	0.0002137578413	
1014	-0.001096077496	
1013.5	-0.004055072553	
1013	0.004812894389	
1012.5	0.009364035912	
1012	0.0001394482679	
1011.5	-0.002328801667	
1011	0.001409985125	
1010.5	-0.002796279034	
1010	-0.002836459316	
1009.5	-0.003336014925	
1009	-0.005303453188	
1008.5	-0.001019135234	
1008	-0.005755062215	
1007.5	-0.0003043517936	
1007	0.001862800447	
1006.5	-0.001572597772	
1006	-0.001620291034	
1005.5	-0.002392586786	
1005	-0.002418929478	
1004.5	-0.001066575525	
1004	-0.008676231839	
1003.5	0.0009008529596	
1003	-0.002321819309	
1002.5	-0.0009825661546	
1002	0.002120416611	
1001.5	0.0009306155262	
1001	-0.001918217633	
1000.5	-0.006220931187	
1000	-0.00497651659	
999.5	0.004660570528	
999	0.001411639503	
998.5	0.003849019064	
998	0.004245818127	
997.5	0.0009345683502	
997	-0.0007684389711	
996.5	-0.002044969238	
996	0.005074460991	
995.5	0.0001117258071	
995	-0.004922433756	
994.5	0.0004055548343	
994	0.008872800507	
993.5	0.001256324584	
993	-0.003250212409	
992.5	-0.004611573182	
992	-0.002499757567	
991.5	-0.004978780635	
991	-0.0118208481	
990.5	0.001285059843	
990	-0.002524431096	
989.5	-0.003246532753	
989	-0.001745817484	
988.5	0.01213575993	
988	-0.001645624288	
987.5	-0.001670473837	
987	-0.003434482263	
986.5	-0.005146796815	
986	0.0004545942065	
985.5	0.0008089481271	
985	-0.001334338565	
984.5	-0.004627170507	
984	0.002481588395	
983.5	-0.004681052174	
983	-0.002782588825	
982.5	0.002428944921	
982	0.001652065432	
981.5	-0.003305634484	
981	-0.002970264293	
980.5	0.001639612252	
980	-0.002630748786	
979.5	0.002043618588	
979	-0.002619512379	
978.5	0.0003040837473	
978	0.0003845560132	
977.5	-0.002627085429	
977	-0.0009214669117	
976.5	-0.006046743598	
976	0.007047393359	
975.5	0.002478006063	
975	-0.002588688396	
974.5	0.0006823668955	
974	0.0002498992544	
973.5	-0.002438425785	
973	-0.002143227961	
972.5	-0.001415672014	
972	-0.002690567169	
971.5	0.0003024179605	
971	-0.003970466089	
970.5	0.0006211092696	
970	0.00113040593	
969.5	0.001037144917	
969	0.0006870293291	
968.5	-0.0001311767992	
968	0.003174313577	
967.5	-0.004393003881	
967	0.002329431707	
966.5	-0.005656574853	
966	-0.000236786349	
965.5	-0.001957655651	
965	-0.005995076615	
964.5	0.0006029282813	
964	-0.005326196086	
963.5	0.004108707421	
963	-0.002748787636	
962.5	0.01488598529	
962	-0.001486230991	
961.5	-0.004090719391	
961	-0.005193426274	
960.5	-0.007018737029	
960	0.0005449303426	
959.5	-0.005520860665	
959	0.0001771948009	
958.5	0.00183666544	
958	0.007765061222	
957.5	-0.003237627679	
957	-0.001008704421	
956.5	0.0005567132612	
956	0.009837723337	
955.5	-0.001612336375	
955	-0.002247699071	
954.5	0.004357647616	
954	-0.0003431992664	
953.5	0.003501266008	
953	0.0005048718303	
952.5	-0.002970556263	
952	0.005231537856	
951.5	0.000484475866	
951	0.002290830249	
950.5	-0.0003144923248	
950	0.00133559457	
949.5	0.004749211483	
949	0.004340895452	
948.5	0.005971962586	
948	0.004743445199	
947.5	-0.003805417567	
947	0.001443550573	
946.5	1.933508793E-5	
946	-0.0002340011415	
945.5	-1.289904503E-5	
945	-0.003683594288	
944.5	0.0008543047588	
944	-0.002127238084	
943.5	0.001268571359	
943	-0.001923504518	
942.5	0.002968080109	
942	0.001278489362	
941.5	-0.005307385232	
941	0.001746822498	
940.5	-0.00603412278	
940	-0.0008475602954	
939.5	0.003329320578	
939	-0.005019595381	
938.5	-0.004711585119	
938	-0.001600470161	
937.5	0.006772727706	
937	0.002070995746	
936.5	0.0008312949212	
936	0.00805116538	
935.5	0.0006939515588	
935	0.001674795523	
934.5	-0.002589334035	
934	-0.001817984041	
933.5	-0.001184341265	
933	-0.001328977523	
932.5	-0.001892205677	
932	0.007593081798	
931.5	0.0003569902328	
931	-0.003104174277	
930.5	-0.004085879773	
930	0.007166496478	
929.5	0.001435639919	
929	0.008896380663	
928.5	0.001966166543	
928	-0.005213539582	
927.5	-0.008268096484	
927	-0.001722663525	
926.5	0.004582222085	
926	-0.001464935252	
925.5	0.006248367019	
925	-0.00229875301	
924.5	0.002311723307	
924	-0.0001178555613	
923.5	-0.00438848231	
923	0.007521766238	
922.5	-0.0005282664206	
922	-0.0005332789733	
921.5	0.0002104593295	
921	-0.001068444573	
920.5	0.005786201917	
920	0.001918754773	
919.5	-0.003868459724	
919	0.003274182323	
918.5	0.0005444257404	
918	0.001909662038	
917.5	0.003157411935	
917	0.0007785638445	
916.5	-0.0002688800159	
916	-0.002685342915	
915.5	0.002318456536	
915	0.0001461274514	
914.5	0.002243986353	
914	-0.004764284473	
913.5	0.002272501355	
913	0.008438704535	
912.5	0.0009256722406	
912	0.002258674707	
911.5	7.940588694E-5	
911	0.004943351261	
910.5	-0.002411704278	
910	-0.0005580011639	
909.5	0.005645334255	
909	0.003991502803	
908.5	0.002656099852	
908	-0.0002835211926	
907.5	0.003530776594	
907	0.0002778420749	
906.5	0.002667172346	
906	-0.0003245911212	
905.5	0.003441686975	
905	0.01086254138	
904.5	0.000920109509	
904	0.004091230221	
903.5	2.404038969E-5	
903	0.006068416871	
902.5	-0.00126174686	
902	0.005292010028	
901.5	0.0004087130364	
901	0.003642736934	
900.5	0.002550294856	
900	0.002151679946	
899.5	0.001608033548	
899	0.004324216396	
898.5	0.001071026316	
898	-0.002640805906	
897.5	0.0007763857138	
897	0.006881347392	
896.5	0.00544615835	
896	0.01124924421	
895.5	0.002646638546	
895	0.005607781932	
894.5	0.008088344708	
894	0.006860542577	
893.5	0.006300467998	
893	0.004069968592	
892.5	0.001737470273	
892	0.003828190966	
891.5	0.001042563585	
891	0.007292017341	
890.5	0.003000195604	
890	-0.003475943115	
889.5	0.0008330079145	
889	0.006399589591	
888.5	-0.001584468875	
888	0.002081937855	
887.5	0.003458952764	
887	0.005516433623	
886.5	0.001579600386	
886	-0.001050876803	
885.5	0.007951599546	
885	0.002980265534	
884.5	0.0008220481686	
884	0.004199399613	
883.5	0.003223894164	
883	0.001565531362	
882.5	0.002041730564	
882	0.0003314618662	
881.5	0.007252272218	
881	0.01329274196	
880.5	0.006204658654	
880	0.003758337349	
879.5	0.006384604611	
879	-0.00316264201	
878.5	-0.0009185397066	
878	3.501695755E-5	
877.5	0.003782726824	
877	0.0007450444391	
876.5	-0.0005818343488	
876	0.002136270981	
875.5	-0.000467930804	
875	-0.0005341200158	
874.5	0.001202810323	
874	0.0001764587068	
873.5	0.005384894088	
873	0.001365698059	
872.5	0.001909464248	
872	0.00136378617	
871.5	0.004231833387	
871	0.002125381725	
870.5	0.000136865885	
870	0.001065006712	
869.5	-0.0002669185633	
869	0.0006396811223	
868.5	0.0006749248132	
868	0.002024788642	
867.5	-0.00015808444	
867	0.000128737709	
866.5	-0.0002481501142	
866	0.0009742847178	
865.5	0.002360500861	
865	0.001828053384	
864.5	0.0007959873183	
864	0.00119129126	
863.5	0.001623104443	
863	0.001404428389	
862.5	-0.0008842170355	
862	0.0003394549422	
861.5	0.0004714218958	
861	0.00097297295	
860.5	4.093541429E-5	
860	0.001290401211	
859.5	0.0005595848779	
859	0.0004171865876	
858.5	0.001297199051	
858	0.001048784354	
857.5	4.604711285E-5	
857	0.0007477674517	
856.5	0.0003352171625	
856	-0.001357315923	
855.5	0.0008174210088	
855	0.001194827608	
854.5	0.001095748972	
854	0.0006232896703	
853.5	-0.0003832766088	
853	0.0006287443684	
852.5	8.815456385E-5	
852	0.0002624033077	
851.5	0.0006907723146	
851	0.0004224285367	
850.5	0.0002642302716	
850	0.0006323258858	
849.5	0.0009641051292	
849	0.0006757981027	
848.5	-8.854192129E-5	
848	0.0001627350575	
847.5	0.000427930936	
847	0.0001494259923	
846.5	0.001004015096	
846	0.0002774267632	
845.5	0.0004280413559	
845	-7.524861576E-5	
844.5	0.0002876313811	
844	0.001639142283	
843.5	0.0005140419817	
843	0.0008783809608	
842.5	0.001333597233	
842	-3.353995271E-5	
841.5	0.0007971719024	
841	0.0002713394642	
840.5	7.285139145E-5	
840	0.0005476608058	
839.5	-0.0006293585757	
839	0.0008072930505	
838.5	0.000890799216	
838	-0.0005525746383	
837.5	0.001174213015	
837	0.0009637554176	
836.5	0.000309939438	
836	0.0002185109624	
835.5	0.0002363607782	
835	-0.0006140430924	
834.5	-4.765793346E-5	
834	0.0002886291768	
833.5	0.0003491306561	
833	0.0005940082483	
832.5	0.0008336356841	
832	-0.0002887617738	
831.5	-0.000496526598	
831	0.0006414173404	
830.5	0.0013148078	
830	-0.0001081349328	
829.5	-0.0003175245947	
829	-8.668991359E-5	
828.5	-7.004183863E-5	
828	-0.0002749442065	
827.5	-4.476020331E-5	
827	0.000504867523	
826.5	0.0004605726281	
826	-0.0006783957942	
825.5	0.0002509295591	
825	0.0009450378711	
824.5	-6.964575005E-5	
824	0.0007298233104	
823.5	0.0002884792921	
823	0.0007448617253	
822.5	-0.0005899132229	
822	8.839309885E-5	
821.5	-0.0009010584909	
821	0.0003316875082	
820.5	0.00022926768	
820	-9.078467701E-5	
819.5	0.0001386801887	
819	0.0003655560431	
818.5	-0.0007155342028	
818	0.0002727259998	
817.5	0.0006007131306	
817	-0.0003567829262	
816.5	0.0004520689836	
816	-0.0001199189428	
815.5	0.0006940515595	
815	0.0001294478279	
814.5	2.219282032E-5	
814	2.885748472E-5	
813.5	-0.0004160169628	
813	-0.001082924427	
812.5	0.0007310622605	
812	0.001186115434	
811.5	0.0007427872624	
811	0.0008606656338	
810.5	-0.0006948400987	
810	-0.000241881964	
809.5	0.0004307662894	
809	0.0003266690474	
808.5	-0.0002167209168	
808	0.0008877919754	
807.5	0.0001231219358	
807	-0.0008517850656	
806.5	0.0002465221914	
806	0.000251110032	
805.5	-0.0007199587999	
805	0.0001525793632	
804.5	-0.0009252604214	
804	-0.0008124372689	
803.5	0.0003790394985	
803	0.000810222351	
802.5	0.0002784632088	
802	-0.0002547248732	
801.5	-0.0006802821881	
801	-3.527055378E-5	
800.5	-0.0005677129957	
800	0.0005015070783	
799.5	-0.0002424934355	
799	4.529620855E-5	
798.5	0.0005116231623	
798	-0.0001374580461	
797.5	0.0003238151839	
797	-9.463446622E-5	
796.5	-0.0006147288368	
796	-0.0004824911593	
795.5	-0.0004224815639	
795	0.0003533684649	
794.5	0.0009372458444	
794	-0.0003939651942	
793.5	7.465996896E-5	
793	-0.0004557062348	
792.5	0.0002227587102	
792	0.0003503550251	
791.5	0.0002613605757	
791	-0.0002521616698	
790.5	0.0001334093977	
790	2.69624943E-5	
789.5	-0.0002858725202	
789	-4.545772026E-5	
788.5	-0.0001317362185	
788	0.0001098862413	
787.5	0.0001291645021	
787	0.0005818076897	
786.5	-4.021914719E-5	
786	0.0004019805056	
785.5	0.0002537551045	
785	0.0002738569747	
784.5	0.000401039084	
784	-0.0001242899743	
783.5	0.0008728507091	
783	0.0004567936121	
782.5	-0.001335392008	
782	-0.001091582235	
781.5	-0.000401475234	
781	-0.001543315244	
780.5	-0.0007271331269	
780	-0.0004760462034	
779.5	0.0004221775744	
779	7.902743164E-6	
778.5	0.0002441051911	
778	-0.0002650102833	
777.5	0.0002844000992	
777	0.0003020855947	
776.5	-7.153274782E-5	
776	0.0005037274677	
775.5	0.0005186194321	
775	-0.0006534993881	
774.5	-0.0007337765419	
774	-0.001130208722	
773.5	-0.0009903915925	
773	-0.0003328793973	
772.5	0.0006969647366	
772	-6.245112309E-5	
771.5	-0.0001492667507	
771	-0.0006690751179	
770.5	0.0001130828095	
770	0.0001338463335	
769.5	0.0002618409344	
769	-3.215069592E-5	
768.5	0.0004588282609	
768	3.939319868E-5	
767.5	-0.0004907464026	
767	-0.0002431027242	
766.5	0.0002115119132	
766	-9.053880785E-5	
765.5	-6.934379053E-5	
765	-0.0003633158049	
764.5	-0.0009472079691	
764	-0.0007664699224	
763.5	-0.0001866901002	
763	0.0001691460202	
762.5	8.155161777E-5	
762	0.0003185327805	
761.5	-8.965043526E-5	
761	-0.0003898670548	
760.5	-0.0006824698066	
760	-0.0007575186319	
759.5	-8.508071187E-5	
759	-5.548845365E-5	
758.5	-0.0002457755618	
758	0.000637141522	
757.5	-0.0004089111753	
757	0.0001412234997	
756.5	0.0006853867089	
756	8.00797643E-5	
755.5	0.0003576863091	
755	0.0002674928983	
754.5	-0.0004751087399	
754	0.0009502469911	
753.5	0.001071281382	
753	0.0008709231042	
752.5	0.001199409831	
752	0.00058691093	
751.5	0.0001358733716	
751	0.0008067340823	
750.5	0.000928883499	
750	-0.0001352614345	
749.5	0.0007429590914	
749	0.0005447505973	
748.5	0.0008757464238	
748	0.0007846225053	
747.5	0.001708765049	
747	0.0004625147558	
746.5	0.001244694926	
746	0.00103885273	
745.5	0.000513473351	
745	0.001698745298	
744.5	0.001073124004	
744	0.001501252176	
743.5	0.0008906312287	
743	0.001824025763	
742.5	0.001782847219	
742	0.002331190743	
741.5	0.002114674775	
741	0.001798190526	
740.5	0.002224717289	
740	0.001704232767	
739.5	0.001501555089	
739	0.002744288882	
738.5	0.002956469776	
738	0.00286765187	
737.5	0.002107924316	
737	0.002753875684	
736.5	0.003064441262	
736	0.003587684594	
735.5	0.00347221829	
735	0.003150893375	
734.5	0.003790466813	
734	0.004613234662	
733.5	0.00524169812	
733	0.004358155187	
732.5	0.00476297969	
732	0.00600359682	
731.5	0.005349353887	
731	0.005214895587	
730.5	0.006728305947	
730	0.006695270073	
729.5	0.006312804297	
729	0.008106778376	
728.5	0.007314672228	
728	0.008638696745	
727.5	0.007845994085	
727	0.009665400721	
726.5	0.008778653108	
726	0.01065662317	
725.5	0.01077427715	
725	0.0112393992	
724.5	0.01104850229	
724	0.01182109956	
723.5	0.01309953257	
723	0.01372271497	
722.5	0.01505794749	
722	0.0148465503	
721.5	0.01730474271	
721	0.01782938093	
720.5	0.01843587868	
720	0.01927217096	
719.5	0.02016188391	
719	0.02102346718	
718.5	0.02180975489	
718	0.02325920761	
717.5	0.0248264093	
717	0.02563090622	
716.5	0.02756489813	
716	0.02870893851	
715.5	0.03091586381	
715	0.03188841417	
714.5	0.0336891152	
714	0.0354581289	
713.5	0.03704112396	
713	0.03972513601	
712.5	0.04138977826	
712	0.04290055484	
711.5	0.04566263407	
711	0.04726598412	
710.5	0.04999607801	
710	0.05290269107	
709.5	0.05592162907	
709	0.05898621306	
708.5	0.06142758578	
708	0.06506054103	
707.5	0.06857568771	
707	0.07183767855	
706.5	0.07449630648	
706	0.07735995203	
705.5	0.0834191218	
705	0.0870077759	
704.5	0.09035117179	
704	0.09412115067	
703.5	0.1016345248	
703	0.1044112816	
702.5	0.1089217514	
702	0.1148802713	
701.5	0.1185126454	
701	0.1263198853	
700.5	0.1332837045	
700	0.1391006559	
699.5	0.1446623653	
699	0.1513137668	
698.5	0.1587246805	
698	0.1661138982	
697.5	0.1741187125	
697	0.1817544401	
696.5	0.1918740273	
696	0.2022194266	
695.5	0.2096563578	
695	0.2197199762	
694.5	0.2313433439	
694	0.2397219241	
693.5	0.2528442442	
693	0.263536334	
692.5	0.2752867937	
692	0.2881843448	
691.5	0.3008622825	
691	0.3168937564	
690.5	0.3305624127	
690	0.3438588381	
689.5	0.3613109291	
689	0.3779032826	
688.5	0.3941819072	
688	0.4104380608	
687.5	0.4289516211	
687	0.4484556019	
686.5	0.4668576121	
686	0.4861873984	
685.5	0.5076420307	
685	0.5312452316	
684.5	0.5526409745	
684	0.5782283545	
683.5	0.603279233	
683	0.62875247	
682.5	0.6562253237	
682	0.6811472774	
681.5	0.7129575014	
681	0.7420490384	
680.5	0.7695131898	
680	0.8021745682	
679.5	0.8364012241	
679	0.8702365756	
678.5	0.9068436623	
678	0.9421194196	
677.5	0.9803319573	
677	1.019796252	
676.5	1.059367776	
676	1.102249026	
675.5	1.147780776	
675	1.193171144	
674.5	1.24336338	
674	1.28895402	
673.5	1.337575555	
673	1.388983369	
672.5	1.442608237	
672	1.49808991	
671.5	1.554585218	
671	1.614320993	
670.5	1.677796245	
670	1.734209657	
669.5	1.80622673	
669	1.869238019	
668.5	1.939654946	
668	2.011919737	
667.5	2.088109732	
667	2.166493177	
666.5	2.238878012	
666	2.320876598	
665.5	2.405483007	
665	2.487626553	
664.5	2.576292753	
664	2.672847033	
663.5	2.762531996	
663	2.863162279	
662.5	2.963826656	
662	3.055477381	
661.5	3.15532732	
661	3.270810366	
660.5	3.37763834	
660	3.49567914	
659.5	3.61442852	
659	3.72569108	
658.5	3.851889849	
658	3.974197865	
657.5	4.101123333	
657	4.234240532	
656.5	4.366381645	
656	4.509079456	
655.5	4.64570713	
655	4.793215275	
654.5	4.939655304	
654	5.089225769	
653.5	5.24679184	
653	5.407743454	
652.5	5.568656445	
652	5.732933521	
651.5	5.902272701	
651	6.071029663	
650.5	6.248679638	
650	6.434592724	
649.5	6.626520157	
649	6.821599483	
648.5	7.014062405	
648	7.216021538	
647.5	7.416799068	
647	7.636822701	
646.5	7.849346638	
646	8.061979294	
645.5	8.289876938	
645	8.507978439	
644.5	8.741471291	
644	8.986268044	
643.5	9.218914986	
643	9.468672752	
642.5	9.718468666	
642	9.961636543	
641.5	10.22400665	
641	10.49111843	
640.5	10.74320984	
640	11.0239296	
639.5	11.29722595	
639	11.58587265	
638.5	11.8785553	
638	12.15481949	
637.5	12.45742512	
637	12.7497015	
636.5	13.0583868	
636	13.36557674	
635.5	13.6744709	
635	14.00904655	
634.5	14.32376671	
634	14.64932823	
633.5	14.98766136	
633	15.31977081	
632.5	15.68128204	
632	16.03747559	
631.5	16.38234138	
631	16.74139404	
630.5	17.0942688	
630	17.45552635	
629.5	17.8372879	
629	18.21022797	
628.5	18.59197235	
628	18.98632622	
627.5	19.37013245	
627	19.78735924	
626.5	20.19794846	
626	20.59559441	
625.5	21.01050758	
625	21.43997765	
624.5	21.85990906	
624	22.29807281	
623.5	22.71290779	
623	23.14580727	
622.5	23.60144043	
622	24.03286171	
621.5	24.497015	
621	24.94405937	
620.5	25.3945446	
620	25.87184906	
619.5	26.30358696	
619	26.77520752	
618.5	27.26003265	
618	27.70366287	
617.5	28.19932938	
617	28.67976761	
616.5	29.16277885	
616	29.64665985	
615.5	30.13519096	
615	30.60864449	
614.5	31.11386299	
614	31.59622574	
613.5	32.12324524	
613	32.62758636	
612.5	33.12083054	
612	33.61990738	
611.5	34.11696625	
611	34.63418961	
610.5	35.14594269	
610	35.6277771	
609.5	36.1709938	
609	36.68991089	
608.5	37.2011795	
608	37.76101685	
607.5	38.27313614	
607	38.81085968	
606.5	39.33683777	
606	39.84498978	
605.5	40.40655899	
605	40.94419098	
604.5	41.49835205	
604	42.05691147	
603.5	42.57928085	
603	43.1392746	
602.5	43.68357086	
602	44.15786743	
601.5	44.78984451	
601	45.29135895	
600.5	45.81080246	
600	46.39979553	
599.5	46.9459343	
599	47.45160294	
598.5	48.04579544	
598	48.58064651	
597.5	49.09874725	
597	49.62333298	
596.5	50.16513443	
596	50.72845078	
595.5	51.27209473	
595	51.81923676	
594.5	52.37537003	
594	52.86896133	
593.5	53.40896988	
593	53.94098282	
592.5	54.44427872	
592	54.9598465	
591.5	55.51049805	
591	56.03540039	
590.5	56.55214691	
590	57.070858	
589.5	57.57455826	
589	58.14125061	
588.5	58.57645798	
588	59.15564728	
587.5	59.66833115	
587	60.16153717	
586.5	60.71179962	
586	61.19619751	
585.5	61.74295425	
585	62.23007965	
584.5	62.69850922	
584	63.26633072	
583.5	63.74227905	
583	64.21308899	
582.5	64.68319702	
582	65.1618576	
581.5	65.65524292	
581	66.15375519	
580.5	66.63051605	
580	67.1247406	
579.5	67.57559967	
579	68.0321579	
578.5	68.54636383	
578	68.92295837	
577.5	69.38208771	
577	69.83368683	
576.5	70.26698303	
576	70.72962189	
575.5	71.15367126	
575	71.57823944	
574.5	71.97567749	
574	72.37321472	
573.5	72.84480286	
573	73.23647308	
572.5	73.62483215	
572	74.07579041	
571.5	74.45236206	
571	74.8392868	
570.5	75.2378006	
570	75.55695343	
569.5	76.06655121	
569	76.36682892	
568.5	76.72927094	
568	77.15664673	
567.5	77.47111511	
567	77.73751831	
566.5	78.28659821	
566	78.4947052	
565.5	78.88381195	
565	79.18732452	
564.5	79.55799866	
564	79.93754578	
563.5	80.21523285	
563	80.54651642	
562.5	80.87973022	
562	81.13715363	
561.5	81.49459839	
561	81.79821014	
560.5	82.11334991	
560	82.41527557	
559.5	82.65079498	
559	82.9829483	
558.5	83.30580902	
558	83.56384277	
557.5	83.82050323	
557	84.08551025	
556.5	84.38118744	
556	84.60920715	
555.5	84.85430908	
555	85.13695526	
554.5	85.31617737	
554	85.57857513	
553.5	85.76908875	
553	86.02423096	
552.5	86.29058838	
552	86.44618225	
551.5	86.7195282	
551	86.90457153	
550.5	87.18987274	
550	87.32901764	
549.5	87.53443146	
549	87.68429565	
548.5	87.85894775	
548	88.13920593	
547.5	88.31313324	
547	88.53093719	
546.5	88.70210266	
546	88.84288788	
545.5	89.01476288	
545	89.13298035	
544.5	89.2673111	
544	89.48438263	
543.5	89.61687469	
543	89.8344574	
542.5	90.01313782	
542	90.05393982	
541.5	90.24551392	
541	90.43534088	
540.5	90.54211426	
540	90.67771149	
539.5	90.76098633	
539	90.9479599	
538.5	91.03803253	
538	91.17153931	
537.5	91.25514984	
537	91.33660126	
536.5	91.42121124	
536	91.55036163	
535.5	91.65153503	
535	91.74980927	
534.5	91.85796356	
534	91.96656036	
533.5	92.04150391	
533	92.08560944	
532.5	92.19089508	
532	92.25122833	
531.5	92.29701233	
531	92.41980743	
530.5	92.49913025	
530	92.55089569	
529.5	92.63600922	
529	92.6771698	
528.5	92.76144409	
528	92.80123138	
527.5	92.81726837	
527	92.88670349	
526.5	92.871315	
526	92.91196442	
525.5	93.02851868	
525	93.02838135	
524.5	93.02330017	
524	93.05518341	
523.5	93.07282257	
523	93.0894165	
522.5	93.05075836	
522	93.05435944	
521.5	93.10126495	
521	93.16078949	
520.5	93.08820343	
520	93.07892609	
519.5	93.10949707	
519	93.057724	
518.5	93.08811951	
518	92.98228455	
517.5	93.00862885	
517	92.86862946	
516.5	92.88284302	
516	92.74116516	
515.5	92.79059601	
515	92.63250732	
514.5	92.58940125	
514	92.47720337	
513.5	92.32369995	
513	92.27018738	
512.5	92.1113205	
512	92.0558548	
511.5	91.76686859	
511	91.7089386	
510.5	91.51859283	
510	91.28610229	
509.5	91.16904449	
509	90.88311768	
508.5	90.65493011	
508	90.35480499	
507.5	90.07861328	
507	89.72353363	
506.5	89.41075897	
506	89.10453796	
505.5	88.70166779	
505	88.20069122	
504.5	87.71107483	
504	87.27527618	
503.5	86.65312195	
503	86.02928925	
502.5	85.34700012	
502	84.57434082	
501.5	83.91234589	
501	83.08491516	
500.5	82.18864441	
500	81.2644043	
499.5	80.13872528	
499	79.15378571	
498.5	77.93203735	
498	76.64515686	
497.5	75.19823456	
497	73.86566925	
496.5	72.17060852	
496	70.58695984	
495.5	68.78564453	
495	67.11116791	
494.5	65.11207581	
494	62.90426254	
493.5	60.70988846	
493	58.56628418	
492.5	56.12743378	
492	53.81571198	
491.5	51.27117157	
491	48.74836349	
490.5	46.13844299	
490	43.43157578	
489.5	40.82080841	
489	38.12543869	
488.5	35.40722275	
488	32.86363602	
487.5	30.20180511	
487	27.67281532	
486.5	25.17830086	
486	22.754179	
485.5	20.56744003	
485	18.40252876	
484.5	16.38794327	
484	14.50953007	
483.5	12.70474339	
483	11.13214874	
482.5	9.649172783	
482	8.32171154	
481.5	7.156010151	
481	6.090553284	
480.5	5.156260014	
480	4.381771564	
479.5	3.663036585	
479	3.07395792	
478.5	2.552536726	
478	2.113358974	
477.5	1.756316185	
477	1.435280323	
476.5	1.171082735	
476	0.9643208385	
475.5	0.7839745879	
475	0.6407977343	
474.5	0.5186446905	
474	0.4213632941	
473.5	0.3443391025	
473	0.2774330676	
472.5	0.2230888456	
472	0.1833555251	
471.5	0.1482022256	
471	0.1199726835	
470.5	0.09760469943	
470	0.07931146771	
469.5	0.06561650336	
469	0.0537599735	
468.5	0.0447451584	
468	0.03716231883	
467.5	0.03147337586	
467	0.02566357516	
466.5	0.02336347476	
466	0.01975267008	
465.5	0.01676397771	
465	0.01484884694	
464.5	0.01369892154	
464	0.01252484787	
463.5	0.01124624908	
463	0.0103870593	
462.5	0.008662040345	
462	0.008672770113	
461.5	0.007701466326	
461	0.00749146007	
460.5	0.00716970535	
460	0.007062705234	
459.5	0.006524035241	
459	0.006201423239	
458.5	0.006530496292	
458	0.006751894951	
457.5	0.00609690696	
457	0.005113483872	
456.5	0.006757418159	
456	0.006866805255	
455.5	0.006975993048	
455	0.005994429346	
454.5	0.005995233543	
454	0.00566525152	
453.5	0.005666114856	
453	0.005667136982	
452.5	0.005008764099	
452	0.006103960332	
451.5	0.005554169416	
451	0.005668089259	
450.5	0.005780961365	
450	0.006655019242	
449.5	0.005338892341	
449	0.005231288262	
448.5	0.005561123136	
448	0.005125945434	
447.5	0.006332268938	
447	0.005783816334	
446.5	0.005679871887	
446	0.006125985179	
445.5	0.005467793904	
445	0.006026353221	
444.5	0.006693456322	
444	0.006262484938	
443.5	0.004765986465	
443	0.005266503431	
442.5	0.00569248246	
442	0.005080369301	
441.5	0.005090982653	
441	0.005729592405	
440.5	0.005749167409	
440	0.004917011596	
439.5	0.006000351626	
439	0.004837375134	
438.5	0.006043144967	
438	0.005957541056	
437.5	0.004779024515	
437	0.005789876916	
436.5	0.00572917331	
436	0.00465653697	
435.5	0.004148629028	
435	0.004272750579	
434.5	0.004722942133	
434	0.004962361883	
433.5	0.005651121959	
433	0.005688825157	
432.5	0.005313818343	
432	0.00509884581	
431.5	0.005774098448	
431	0.004633975681	
430.5	0.004885905422	
430	0.005360555369	
429.5	0.005500087515	
429	0.00544049684	
428.5	0.005383967888	
428	0.005319575313	
427.5	0.005400349852	
427	0.005506350659	
426.5	0.005771584809	
426	0.005722545553	
425.5	0.005564798601	
425	0.004722977057	
424.5	0.004905093927	
424	0.005593596026	
423.5	0.004994390998	
423	0.005600253586	
422.5	0.005000911653	
422	0.004404019099	
421.5	0.004983302206	
421	0.006035704631	
420.5	0.005400032736	
420	0.005988358986	
419.5	0.006172219757	
419	0.004688300192	
418.5	0.004129390232	
418	0.005750819575	
417.5	0.00505110668	
417	0.004226882476	
416.5	0.004965666682	
416	0.005505452398	
415.5	0.005665965844	
415	0.004313359037	
414.5	0.003354660235	
414	0.003820047947	
413.5	0.003724714508	
413	0.004281484522	
412.5	0.004097364377	
412	0.005337939132	
411.5	0.004426904488	
411	0.003724816255	
410.5	0.005137118511	
410	0.004742504563	
409.5	0.003900603391	
409	0.004704143386	
408.5	0.00466571236	
408	0.004692694172	
407.5	0.004298655782	
407	0.004981463309	
406.5	0.0037622503	
406	0.004436606076	
405.5	0.004356062971	
405	0.004175946582	
404.5	0.004414044321	
404	0.004443081561	
403.5	0.003983618692	
403	0.004958757199	
402.5	0.004780797753	
402	0.00353253237	
401.5	0.004517443478	
401	0.00433489494	
400.5	0.003766144859	
400	0.003921248019	
399.5	0.003308465704	
399	0.003964479081	
398.5	0.005060354713	
398	0.004117255099	
397.5	0.004198857583	
397	0.003605169244	
396.5	0.003627339611	
396	0.003746536793	
395.5	0.003013910493	
395	0.004004914314	
394.5	0.003662760835	
394	0.004344168119	
393.5	0.004578294232	
393	0.004395775497	
392.5	0.004536369815	
392	0.004234696273	
391.5	0.002694676165	
391	0.005394416861	
390.5	0.003109794809	
390	0.004196483642	
389.5	0.004332039505	
389	0.003923083656	
388.5	0.002588955685	
388	0.003847254673	
387.5	0.004402491264	
387	0.003896648996	
386.5	0.00369712105	
386	0.0032732361	
385.5	0.003949811682	
385	0.003116096836	
384.5	0.003351598512	
384	0.003151449608	
383.5	0.00299069169	
383	0.003533933777	
382.5	0.003556163516	
382	0.003361142008	
381.5	0.002370477887	
381	0.002893282333	
380.5	0.002686544321	
380	0.003130528145	
379.5	0.003812154289	
379	0.003613680834	
378.5	0.001731722499	
378	0.002483435441	
377.5	0.002930590184	
377	0.00260277139	
376.5	0.004493173212	
376	0.002921009669	
375.5	0.002379420679	
375	0.00317193009	
374.5	0.00269347732	
374	0.002813979052	
373.5	0.00238023838	
373	0.00290663261	
372.5	0.002269730438	
372	0.003154829843	
371.5	0.002382404637	
371	0.003456020495	
370.5	0.002597437473	
370	0.003401811002	
369.5	0.00238003605	
369	0.003597365227	
368.5	0.002161100507	
368	0.003561030841	
367.5	0.002274014754	
367	0.002620754996	
366.5	0.001733514364	
366	0.002832565457	
365.5	0.003337325994	
365	0.003262506565	
364.5	0.00227708905	
364	0.001953879837	
363.5	0.003584434744	
363	0.002706213389	
362.5	0.00216954737	
362	0.002851863392	
361.5	0.003488674294	
361	0.003424066352	
360.5	0.002609085524	
360	0.00354208122	
359.5	0.003042285796	
359	0.002853045939	
358.5	0.002612086013	
358	0.003430394689	
357.5	0.001637555892	
357	0.002060948638	
356.5	0.001963128336	
356	0.003316792659	
355.5	0.002621067455	
355	0.002167269588	
354.5	0.001961091533	
354	0.003594405018	
353.5	0.002619750332	
353	0.002175379777	
352.5	0.003056172514	
352	0.003569617635	
351.5	0.002617514227	
351	0.004932149779	
350.5	0.002628092654	
350	0.004105560482	
349.5	0.003427789779	
349	0.002963539911	
348.5	0.0009454110404	
348	0.001621579751	
347.5	0.002621700056	
347	0.002619486535	
346.5	0.0006319765816	
346	0.001188180526	
345.5	0.0006436578115	
345	0.00130326685	
344.5	0.001745751826	
344	0.0007693366497	
343.5	0.0005602829624	
343	0.001108934404	
342.5	0.001541306265	
342	0.001004262362	
341.5	0.001868165215	
341	0.001655307482	
340.5	0.001128831296	
340	0.0004967747955	
339.5	0.0009235538309	
339	0.00128413667	
338.5	0.001519047306	
338	0.0007525048568	
337.5	0.0008795292233	
337	0.001650400343	
336.5	0.0009140898474	
336	0.0007173544727	
335.5	0.0006286226562	
335	0.0009545360808	
334.5	0.0009689282742	
334	0.001187547343	
333.5	0.0003351344494	
333	0.001543160179	
332.5	0.0001679459383	
332	0.0008236602298	
331.5	0.001261331839	
331	0.001169246971	
330.5	0.001186025096	
330	-1.413424434E-5	
329.5	0.0003475849517	
329	0.0003714528575	
328.5	0.0008203558391	
328	-9.963555203E-5	
327.5	-6.995026342E-5	
327	0.0006720123929	
326.5	0.0002336902544	
326	0.0001319697476	
325.5	4.67175123E-5	
325	-0.0004634107463	
324.5	-0.0004336140701	
324	0.0007417637971	
323.5	0.001173213008	
323	0.0004724352621	
322.5	0.001682564965	
322	-0.000195392	
321.5	0.0002654679411	
321	0.0005028877058	
320.5	0.0002073637006	
320	-0.0006000367575	
319.5	-0.0002595923143	
319	7.265793101E-5	
318.5	-0.0004213121429	
318	-6.654836034E-5	
317.5	-0.0003639538772	
317	-0.0005454688217	
316.5	0.000947135617	
316	0.0001359609159	
315.5	-4.640217594E-5	
315	0.0008909064345	
314.5	-0.0008567970362	
314	0.0009006610489	
313.5	-0.0003665223776	
313	-1.842825623E-5	
312.5	0.0001127758005	
312	-0.0003827092296	
311.5	0.00056560128	
311	0.0001753730176	
310.5	-0.000316624355	
310	0.0003619356721	
309.5	-0.0005806662375	
309	-0.0007664565346	
308.5	0.0001033548324	
308	2.111729918E-5	
307.5	-6.112840492E-5	
307	0.0008825330879	
306.5	-0.0002880625252	
306	0.0005689936806	
305.5	0.0007994673797	
305	0.0004938953789	
304.5	0.0002004150738	
304	0.0002182858443	
303.5	0.0008622952737	
303	0.0005709234974	
302.5	-8.196804265E-5	
302	-0.001059183385	
301.5	-5.405848424E-5	
301	0.0004000829067	
300.5	0.00052599638	
300	-0.0004860613553	
